{"failedCount":1,"prefixedPath":"src\/test\/java\/feature\/GET_API_Demo.feature","packageQualifiedName":"src.test.java.feature.GET_API_Demo","loopIndex":-1,"relativePath":"src\/test\/java\/feature\/GET_API_Demo.feature","scenarioResults":[{"sectionIndex":0,"stepResults":[{"result":{"nanos":14675800,"millis":14.6758,"status":"passed"},"step":{"line":4,"prefix":"Given","index":0,"text":"url baseURL+'public\/v2\/users'"}},{"result":{"nanos":838500,"millis":0.8385,"status":"passed"},"step":{"line":5,"prefix":"And","index":1,"text":"path '2'"}},{"result":{"nanos":1229759000,"millis":1229.759,"status":"passed"},"step":{"line":6,"prefix":"When","index":2,"text":"method GET"},"stepLog":"14:26:52.340 request:\n1 > GET https:\/\/gorest.co.in\/public\/v2\/users\/2\n1 > Host: gorest.co.in\n1 > Connection: Keep-Alive\n1 > User-Agent: Apache-HttpClient\/4.5.13 (Java\/1.8.0_201)\n1 > Accept-Encoding: gzip,deflate\n\n\n14:26:52.688 response time in milliseconds: 344\n1 < 200\n1 < Server: nginx\n1 < Date: Sat, 02 Apr 2022 08:56:53 GMT\n1 < Content-Type: application\/json; charset=utf-8\n1 < Transfer-Encoding: chunked\n1 < Connection: keep-alive\n1 < Vary: Accept-Encoding\n1 < Vary: Origin\n1 < X-Frame-Options: SAMEORIGIN\n1 < X-XSS-Protection: 0\n1 < X-Content-Type-Options: nosniff\n1 < X-Download-Options: noopen\n1 < X-Permitted-Cross-Domain-Policies: none\n1 < Referrer-Policy: strict-origin-when-cross-origin\n1 < ETag: W\/\"ee52f7ecb245c152bfe1be2d492c2cc8\"\n1 < Cache-Control: max-age=0, private, must-revalidate\n1 < X-Request-Id: eaf98af3-4998-4c32-8561-5ed4ec8dc92a\n1 < X-Runtime: 0.003940\n1 < Strict-Transport-Security: max-age=63072000; includeSubDomains\n{\"id\":2,\"name\":\"Lal Guneta\",\"email\":\"lal_guneta@auer-harris.io\",\"gender\":\"female\",\"status\":\"inactive\"}\n"},{"result":{"nanos":24500,"millis":0.0245,"status":"passed"},"step":{"line":7,"prefix":"Then","index":3,"text":"status 200"}},{"result":{"nanos":18229300,"millis":18.2293,"status":"passed"},"step":{"line":8,"prefix":"*","index":4,"text":"print response"},"stepLog":"14:26:52.754 [print] {\n  \"id\": 2,\n  \"name\": \"Lal Guneta\",\n  \"email\": \"lal_guneta@auer-harris.io\",\n  \"gender\": \"female\",\n  \"status\": \"inactive\"\n}\n \n"},{"result":{"nanos":3357100,"millis":3.3571,"status":"passed"},"step":{"line":9,"prefix":"*","index":5,"text":"def jsonResponse = response"}},{"result":{"nanos":1729300,"millis":1.7293,"status":"passed"},"step":{"line":10,"prefix":"*","index":6,"text":"print jsonResponse.name"},"stepLog":"14:26:52.760 [print] Lal Guneta \n"},{"result":{"nanos":1335600,"millis":1.3356,"status":"passed"},"step":{"line":11,"prefix":"*","index":7,"text":"def actualName = jsonResponse.name"}},{"result":{"nanos":15596300,"millis":15.5963,"status":"passed"},"step":{"line":12,"prefix":"*","index":8,"text":"match actualName == \"Lal Guneta\""}}],"executorName":"main","line":3,"name":"Get the user details - path param - positive","description":"","durationMillis":1285.5454,"startTime":1648889811199,"failed":false,"refId":"[1:3]","endTime":1648889812777,"exampleIndex":-1},{"sectionIndex":1,"stepResults":[{"result":{"nanos":753500,"millis":0.7535,"status":"passed"},"step":{"line":15,"prefix":"Given","index":0,"text":"url 'https:\/\/gorest.co.in\/public\/v2\/users'"}},{"result":{"nanos":609800,"millis":0.6098,"status":"passed"},"step":{"line":16,"prefix":"And","index":1,"text":"path '100'"}},{"result":{"nanos":139233300,"millis":139.2333,"status":"passed"},"step":{"line":17,"prefix":"When","index":2,"text":"method GET"},"stepLog":"14:26:52.793 request:\n1 > GET https:\/\/gorest.co.in\/public\/v2\/users\/100\n1 > Host: gorest.co.in\n1 > Connection: Keep-Alive\n1 > User-Agent: Apache-HttpClient\/4.5.13 (Java\/1.8.0_201)\n1 > Accept-Encoding: gzip,deflate\n\n\n14:26:52.927 response time in milliseconds: 133\n1 < 404\n1 < Server: nginx\n1 < Date: Sat, 02 Apr 2022 08:56:53 GMT\n1 < Content-Type: application\/json; charset=utf-8\n1 < Transfer-Encoding: chunked\n1 < Connection: keep-alive\n1 < Vary: Accept-Encoding\n1 < Vary: Origin\n1 < X-Frame-Options: SAMEORIGIN\n1 < X-XSS-Protection: 0\n1 < X-Content-Type-Options: nosniff\n1 < X-Download-Options: noopen\n1 < X-Permitted-Cross-Domain-Policies: none\n1 < Referrer-Policy: strict-origin-when-cross-origin\n1 < Cache-Control: no-cache\n1 < X-Request-Id: 906de57b-e1ec-4010-ae1e-447a08a3be6b\n1 < X-Runtime: 0.003966\n1 < Strict-Transport-Security: max-age=63072000; includeSubDomains\n{\"message\":\"Resource not found\"}\n"},{"result":{"nanos":29200,"millis":0.0292,"status":"passed"},"step":{"line":18,"prefix":"Then","index":3,"text":"status 404"}},{"result":{"nanos":1681400,"millis":1.6814,"status":"passed"},"step":{"line":19,"prefix":"*","index":4,"text":"print response"},"stepLog":"14:26:52.931 [print] {\n  \"message\": \"Resource not found\"\n}\n \n"},{"result":{"nanos":850100,"millis":0.8501,"status":"passed"},"step":{"line":20,"prefix":"*","index":5,"text":"def jsonResponse = response"}},{"result":{"nanos":2571300,"millis":2.5713,"status":"passed"},"step":{"line":21,"prefix":"*","index":6,"text":"print jsonResponse.message"},"stepLog":"14:26:52.935 [print] Resource not found \n"}],"executorName":"main","line":14,"name":"Get the user details - path param - negative","description":"","durationMillis":145.7286,"startTime":1648889812785,"failed":false,"refId":"[2:14]","endTime":1648889812935,"exampleIndex":-1},{"sectionIndex":2,"stepResults":[{"result":{"nanos":27644400,"millis":27.6444,"status":"passed"},"step":{"line":24,"prefix":"*","index":0,"text":"def query = {id:2}"}},{"result":{"nanos":892500,"millis":0.8925,"status":"passed"},"step":{"line":25,"prefix":"Given","index":1,"text":"url baseURL+'public\/v2\/users'"}},{"result":{"nanos":2953900,"millis":2.9539,"status":"passed"},"step":{"line":26,"prefix":"And","index":2,"text":"params query"}},{"result":{"nanos":144710000,"millis":144.71,"status":"passed"},"step":{"line":27,"prefix":"When","index":3,"text":"method GET"},"stepLog":"14:26:52.985 request:\n1 > GET https:\/\/gorest.co.in\/public\/v2\/users?id=2\n1 > Host: gorest.co.in\n1 > Connection: Keep-Alive\n1 > User-Agent: Apache-HttpClient\/4.5.13 (Java\/1.8.0_201)\n1 > Accept-Encoding: gzip,deflate\n\n\n14:26:53.122 response time in milliseconds: 136\n1 < 200\n1 < Server: nginx\n1 < Date: Sat, 02 Apr 2022 08:56:53 GMT\n1 < Content-Type: application\/json; charset=utf-8\n1 < Transfer-Encoding: chunked\n1 < Connection: keep-alive\n1 < Vary: Accept-Encoding\n1 < Vary: Origin\n1 < X-Frame-Options: SAMEORIGIN\n1 < X-XSS-Protection: 0\n1 < X-Content-Type-Options: nosniff\n1 < X-Download-Options: noopen\n1 < X-Permitted-Cross-Domain-Policies: none\n1 < Referrer-Policy: strict-origin-when-cross-origin\n1 < X-Pagination-Total: 1\n1 < X-Pagination-Pages: 1\n1 < X-Pagination-Page: 1\n1 < X-Pagination-Limit: 20\n1 < X-Links-Previous: \n1 < X-Links-Current: https:\/\/gorest.co.in\/public\/v2\/users?page=1\n1 < X-Links-Next: \n1 < ETag: W\/\"853bb519e69e6ae1c0b3b519fbcd9d6e\"\n1 < Cache-Control: max-age=0, private, must-revalidate\n1 < X-Request-Id: f8fdea09-c4e5-4764-b140-848edccbce92\n1 < X-Runtime: 0.005131\n1 < Strict-Transport-Security: max-age=63072000; includeSubDomains\n[{\"id\":2,\"name\":\"Lal Guneta\",\"email\":\"lal_guneta@auer-harris.io\",\"gender\":\"female\",\"status\":\"inactive\"}]\n"},{"result":{"nanos":29800,"millis":0.0298,"status":"passed"},"step":{"line":28,"prefix":"Then","index":4,"text":"status 200"}},{"result":{"nanos":1960600,"millis":1.9606,"status":"passed"},"step":{"line":29,"prefix":"*","index":5,"text":"print response"},"stepLog":"14:26:53.129 [print] [\n  {\n    \"id\": 2,\n    \"name\": \"Lal Guneta\",\n    \"email\": \"lal_guneta@auer-harris.io\",\n    \"gender\": \"female\",\n    \"status\": \"inactive\"\n  }\n]\n \n"}],"executorName":"main","line":23,"name":"Get the user details - query param - positive","description":"","durationMillis":178.1912,"startTime":1648889812949,"failed":false,"refId":"[3:23]","endTime":1648889813129,"exampleIndex":-1},{"sectionIndex":3,"stepResults":[{"result":{"nanos":635300,"millis":0.6353,"status":"passed"},"step":{"line":32,"prefix":"*","index":0,"text":"def query = {status:'active'}"}},{"result":{"nanos":1097000,"millis":1.097,"status":"passed"},"step":{"line":33,"prefix":"Given","index":1,"text":"url baseURL+'public\/v1\/users'"}},{"result":{"nanos":273400,"millis":0.2734,"status":"passed"},"step":{"line":34,"prefix":"And","index":2,"text":"params query"}},{"result":{"nanos":142209700,"millis":142.2097,"status":"passed"},"step":{"line":35,"prefix":"When","index":3,"text":"method GET"},"stepLog":"14:26:53.173 request:\n1 > GET https:\/\/gorest.co.in\/public\/v1\/users?status=active\n1 > Host: gorest.co.in\n1 > Connection: Keep-Alive\n1 > User-Agent: Apache-HttpClient\/4.5.13 (Java\/1.8.0_201)\n1 > Accept-Encoding: gzip,deflate\n\n\n14:26:53.307 response time in milliseconds: 134\n1 < 200\n1 < Server: nginx\n1 < Date: Sat, 02 Apr 2022 08:56:53 GMT\n1 < Content-Type: application\/json; charset=utf-8\n1 < Transfer-Encoding: chunked\n1 < Connection: keep-alive\n1 < Vary: Accept-Encoding\n1 < Vary: Origin\n1 < X-Frame-Options: SAMEORIGIN\n1 < X-XSS-Protection: 0\n1 < X-Content-Type-Options: nosniff\n1 < X-Download-Options: noopen\n1 < X-Permitted-Cross-Domain-Policies: none\n1 < Referrer-Policy: strict-origin-when-cross-origin\n1 < ETag: W\/\"df1ee1c182c123e1c16b72d88cae04be\"\n1 < Cache-Control: max-age=0, private, must-revalidate\n1 < X-Request-Id: 7851daf1-bfe6-4701-bb9d-92c147f31f18\n1 < X-Runtime: 0.009165\n1 < Strict-Transport-Security: max-age=63072000; includeSubDomains\n{\"meta\":{\"pagination\":{\"total\":1398,\"pages\":70,\"page\":1,\"limit\":20,\"links\":{\"previous\":null,\"current\":\"https:\/\/gorest.co.in\/public\/v1\/users?page=1\",\"next\":\"https:\/\/gorest.co.in\/public\/v1\/users?page=2\"}}},\"data\":[{\"id\":2935,\"name\":\"Shashikala Embranthiri\",\"email\":\"embranthiri_shashikala@mcglynn-reinger.io\",\"gender\":\"male\",\"status\":\"active\"},{\"id\":2934,\"name\":\"Gov. Atreyee Ganaka\",\"email\":\"ganaka_atreyee_gov@mann.info\",\"gender\":\"female\",\"status\":\"active\"},{\"id\":2933,\"name\":\"Divjot Nair\",\"email\":\"nair_divjot@harris.name\",\"gender\":\"male\",\"status\":\"active\"},{\"id\":2928,\"name\":\"Ekadant Banerjee\",\"email\":\"ekadant_banerjee@bruen-heidenreich.info\",\"gender\":\"female\",\"status\":\"active\"},{\"id\":2927,\"name\":\"Umang Tandon\",\"email\":\"umang_tandon@ward-yundt.info\",\"gender\":\"male\",\"status\":\"active\"},{\"id\":2924,\"name\":\"Miss Dinkar Joshi\",\"email\":\"joshi_dinkar_miss@moen-rowe.org\",\"gender\":\"male\",\"status\":\"active\"},{\"id\":2923,\"name\":\"Dr. Abhirath Naik\",\"email\":\"naik_dr_abhirath@terry.info\",\"gender\":\"female\",\"status\":\"active\"},{\"id\":2921,\"name\":\"Mrs. Narendra Bhattacharya\",\"email\":\"mrs_bhattacharya_narendra@walsh-waters.info\",\"gender\":\"female\",\"status\":\"active\"},{\"id\":2916,\"name\":\"Niro Singh\",\"email\":\"niro_singh@pagac.biz\",\"gender\":\"male\",\"status\":\"active\"},{\"id\":2915,\"name\":\"Chitramala Khatri Ret.\",\"email\":\"ret_chitramala_khatri@nader-schuppe.net\",\"gender\":\"male\",\"status\":\"active\"},{\"id\":2912,\"name\":\"Mr. Chatura Talwar\",\"email\":\"chatura_talwar_mr@schiller.info\",\"gender\":\"female\",\"status\":\"active\"},{\"id\":2911,\"name\":\"Darshan Kakkar\",\"email\":\"darshan_kakkar@kshlerin-padberg.biz\",\"gender\":\"male\",\"status\":\"active\"},{\"id\":2910,\"name\":\"Girika Kaul\",\"email\":\"kaul_girika@wuckert-cummings.name\",\"gender\":\"female\",\"status\":\"active\"},{\"id\":2909,\"name\":\"Mahendra Marar\",\"email\":\"mahendra_marar@renner.co\",\"gender\":\"female\",\"status\":\"active\"},{\"id\":2907,\"name\":\"Bandhu Gandhi\",\"email\":\"bandhu_gandhi@hettinger-zulauf.co\",\"gender\":\"female\",\"status\":\"active\"},{\"id\":2906,\"name\":\"Rev. Nirbhay Chopra\",\"email\":\"nirbhay_chopra_rev@hoppe-ratke.org\",\"gender\":\"female\",\"status\":\"active\"},{\"id\":2905,\"name\":\"Chatura Sethi\",\"email\":\"chatura_sethi@green.name\",\"gender\":\"female\",\"status\":\"active\"},{\"id\":2904,\"name\":\"Deepan Iyengar\",\"email\":\"iyengar_deepan@carroll.info\",\"gender\":\"female\",\"status\":\"active\"},{\"id\":2902,\"name\":\"Hiranya Asan\",\"email\":\"asan_hiranya@okon-okeefe.biz\",\"gender\":\"female\",\"status\":\"active\"},{\"id\":2900,\"name\":\"Ashlesh Khanna\",\"email\":\"ashlesh_khanna@harber.biz\",\"gender\":\"female\",\"status\":\"active\"}]}\n"},{"result":{"nanos":35900,"millis":0.0359,"status":"passed"},"step":{"line":36,"prefix":"Then","index":4,"text":"status 200"}},{"result":{"nanos":2816200,"millis":2.8162,"status":"passed"},"step":{"line":37,"prefix":"*","index":5,"text":"print response"},"stepLog":"14:26:53.312 [print] {\n  \"meta\": {\n    \"pagination\": {\n      \"total\": 1398,\n      \"pages\": 70,\n      \"page\": 1,\n      \"limit\": 20,\n      \"links\": {\n        \"previous\": null,\n        \"current\": \"https:\/\/gorest.co.in\/public\/v1\/users?page=1\",\n        \"next\": \"https:\/\/gorest.co.in\/public\/v1\/users?page=2\"\n      }\n    }\n  },\n  \"data\": [\n    {\n      \"id\": 2935,\n      \"name\": \"Shashikala Embranthiri\",\n      \"email\": \"embranthiri_shashikala@mcglynn-reinger.io\",\n      \"gender\": \"male\",\n      \"status\": \"active\"\n    },\n    {\n      \"id\": 2934,\n      \"name\": \"Gov. Atreyee Ganaka\",\n      \"email\": \"ganaka_atreyee_gov@mann.info\",\n      \"gender\": \"female\",\n      \"status\": \"active\"\n    },\n    {\n      \"id\": 2933,\n      \"name\": \"Divjot Nair\",\n      \"email\": \"nair_divjot@harris.name\",\n      \"gender\": \"male\",\n      \"status\": \"active\"\n    },\n    {\n      \"id\": 2928,\n      \"name\": \"Ekadant Banerjee\",\n      \"email\": \"ekadant_banerjee@bruen-heidenreich.info\",\n      \"gender\": \"female\",\n      \"status\": \"active\"\n    },\n    {\n      \"id\": 2927,\n      \"name\": \"Umang Tandon\",\n      \"email\": \"umang_tandon@ward-yundt.info\",\n      \"gender\": \"male\",\n      \"status\": \"active\"\n    },\n    {\n      \"id\": 2924,\n      \"name\": \"Miss Dinkar Joshi\",\n      \"email\": \"joshi_dinkar_miss@moen-rowe.org\",\n      \"gender\": \"male\",\n      \"status\": \"active\"\n    },\n    {\n      \"id\": 2923,\n      \"name\": \"Dr. Abhirath Naik\",\n      \"email\": \"naik_dr_abhirath@terry.info\",\n      \"gender\": \"female\",\n      \"status\": \"active\"\n    },\n    {\n      \"id\": 2921,\n      \"name\": \"Mrs. Narendra Bhattacharya\",\n      \"email\": \"mrs_bhattacharya_narendra@walsh-waters.info\",\n      \"gender\": \"female\",\n      \"status\": \"active\"\n    },\n    {\n      \"id\": 2916,\n      \"name\": \"Niro Singh\",\n      \"email\": \"niro_singh@pagac.biz\",\n      \"gender\": \"male\",\n      \"status\": \"active\"\n    },\n    {\n      \"id\": 2915,\n      \"name\": \"Chitramala Khatri Ret.\",\n      \"email\": \"ret_chitramala_khatri@nader-schuppe.net\",\n      \"gender\": \"male\",\n      \"status\": \"active\"\n    },\n    {\n      \"id\": 2912,\n      \"name\": \"Mr. Chatura Talwar\",\n      \"email\": \"chatura_talwar_mr@schiller.info\",\n      \"gender\": \"female\",\n      \"status\": \"active\"\n    },\n    {\n      \"id\": 2911,\n      \"name\": \"Darshan Kakkar\",\n      \"email\": \"darshan_kakkar@kshlerin-padberg.biz\",\n      \"gender\": \"male\",\n      \"status\": \"active\"\n    },\n    {\n      \"id\": 2910,\n      \"name\": \"Girika Kaul\",\n      \"email\": \"kaul_girika@wuckert-cummings.name\",\n      \"gender\": \"female\",\n      \"status\": \"active\"\n    },\n    {\n      \"id\": 2909,\n      \"name\": \"Mahendra Marar\",\n      \"email\": \"mahendra_marar@renner.co\",\n      \"gender\": \"female\",\n      \"status\": \"active\"\n    },\n    {\n      \"id\": 2907,\n      \"name\": \"Bandhu Gandhi\",\n      \"email\": \"bandhu_gandhi@hettinger-zulauf.co\",\n      \"gender\": \"female\",\n      \"status\": \"active\"\n    },\n    {\n      \"id\": 2906,\n      \"name\": \"Rev. Nirbhay Chopra\",\n      \"email\": \"nirbhay_chopra_rev@hoppe-ratke.org\",\n      \"gender\": \"female\",\n      \"status\": \"active\"\n    },\n    {\n      \"id\": 2905,\n      \"name\": \"Chatura Sethi\",\n      \"email\": \"chatura_sethi@green.name\",\n      \"gender\": \"female\",\n      \"status\": \"active\"\n    },\n    {\n      \"id\": 2904,\n      \"name\": \"Deepan Iyengar\",\n      \"email\": \"iyengar_deepan@carroll.info\",\n      \"gender\": \"female\",\n      \"status\": \"active\"\n    },\n    {\n      \"id\": 2902,\n      \"name\": \"Hiranya Asan\",\n      \"email\": \"asan_hiranya@okon-okeefe.biz\",\n      \"gender\": \"female\",\n      \"status\": \"active\"\n    },\n    {\n      \"id\": 2900,\n      \"name\": \"Ashlesh Khanna\",\n      \"email\": \"ashlesh_khanna@harber.biz\",\n      \"gender\": \"female\",\n      \"status\": \"active\"\n    }\n  ]\n}\n \n"},{"result":{"nanos":1508400,"millis":1.5084,"status":"passed"},"step":{"line":38,"prefix":"*","index":6,"text":"def usersCount = response.data.length"}},{"result":{"nanos":3501700,"millis":3.5017,"status":"passed"},"step":{"line":39,"prefix":"*","index":7,"text":"match usersCount == 20"}}],"executorName":"main","line":31,"name":"Get the list of active users - query param - positive","description":"","durationMillis":152.0776,"startTime":1648889813163,"failed":false,"refId":"[4:31]","endTime":1648889813318,"exampleIndex":-1},{"sectionIndex":4,"stepResults":[{"result":{"nanos":628400,"millis":0.6284,"status":"passed"},"step":{"line":42,"prefix":"*","index":0,"text":"def query = {id:100}"}},{"result":{"nanos":676700,"millis":0.6767,"status":"passed"},"step":{"line":43,"prefix":"Given","index":1,"text":"url baseURL+'public\/v2\/users'"}},{"result":{"nanos":2059100,"millis":2.0591,"status":"passed"},"step":{"line":44,"prefix":"And","index":2,"text":"params query"}},{"result":{"nanos":127740600,"millis":127.7406,"status":"passed"},"step":{"line":45,"prefix":"When","index":3,"text":"method GET"},"stepLog":"14:26:53.341 request:\n1 > GET https:\/\/gorest.co.in\/public\/v2\/users?id=100\n1 > Host: gorest.co.in\n1 > Connection: Keep-Alive\n1 > User-Agent: Apache-HttpClient\/4.5.13 (Java\/1.8.0_201)\n1 > Accept-Encoding: gzip,deflate\n\n\n14:26:53.462 response time in milliseconds: 121\n1 < 200\n1 < Server: nginx\n1 < Date: Sat, 02 Apr 2022 08:56:53 GMT\n1 < Content-Type: application\/json; charset=utf-8\n1 < Transfer-Encoding: chunked\n1 < Connection: keep-alive\n1 < Vary: Accept-Encoding\n1 < Vary: Origin\n1 < X-Frame-Options: SAMEORIGIN\n1 < X-XSS-Protection: 0\n1 < X-Content-Type-Options: nosniff\n1 < X-Download-Options: noopen\n1 < X-Permitted-Cross-Domain-Policies: none\n1 < Referrer-Policy: strict-origin-when-cross-origin\n1 < X-Pagination-Total: 0\n1 < X-Pagination-Pages: 0\n1 < X-Pagination-Page: 1\n1 < X-Pagination-Limit: 20\n1 < ETag: W\/\"4f53cda18c2baa0c0354bb5f9a3ecbe5\"\n1 < Cache-Control: max-age=0, private, must-revalidate\n1 < X-Request-Id: d8ed4e26-4d6e-42db-8011-147fc78e6f4a\n1 < X-Runtime: 0.005288\n1 < Strict-Transport-Security: max-age=63072000; includeSubDomains\n[]\n"},{"result":{"nanos":123600,"errorMessage":"status code was: 200, expected: 404, response time in milliseconds: 121, url: https:\/\/gorest.co.in\/public\/v2\/users?id=100, response: \n[]\nsrc\/test\/java\/feature\/GET_API_Demo.feature:46","millis":0.1236,"status":"failed"},"step":{"line":46,"prefix":"Then","index":4,"text":"status 404"},"stepLog":"14:26:53.464 src\/test\/java\/feature\/GET_API_Demo.feature:46\nThen status 404\nstatus code was: 200, expected: 404, response time in milliseconds: 121, url: https:\/\/gorest.co.in\/public\/v2\/users?id=100, response: \n[]\nsrc\/test\/java\/feature\/GET_API_Demo.feature:46\n"},{"result":{"nanos":0,"millis":0.0,"status":"skipped"},"step":{"line":47,"prefix":"*","index":5,"text":"print response"}}],"line":41,"description":"","durationMillis":131.2284,"failed":true,"error":"status code was: 200, expected: 404, response time in milliseconds: 121, url: https:\/\/gorest.co.in\/public\/v2\/users?id=100, response: \n[]\nsrc\/test\/java\/feature\/GET_API_Demo.feature:46","executorName":"main","name":"Get the user details - query param - negative","startTime":1648889813326,"refId":"[5:41]","endTime":1648889813464,"exampleIndex":-1}],"callDepth":0,"name":"GET API Automation","description":"","resultDate":"2022-04-02 02:26:53 PM","durationMillis":1892.7712,"passedCount":4}