{"failedCount":0,"prefixedPath":"src\/test\/java\/feature\/GET_API_Demo.feature","packageQualifiedName":"src.test.java.feature.GET_API_Demo","loopIndex":-1,"relativePath":"src\/test\/java\/feature\/GET_API_Demo.feature","scenarioResults":[{"sectionIndex":0,"stepResults":[{"result":{"nanos":19105600,"millis":19.1056,"status":"passed"},"step":{"line":4,"prefix":"Given","index":0,"text":"url baseURL+'public\/v2\/users'"}},{"result":{"nanos":840200,"millis":0.8402,"status":"passed"},"step":{"line":5,"prefix":"And","index":1,"text":"path '100'"}},{"result":{"nanos":1526815800,"millis":1526.8158,"status":"passed"},"step":{"line":6,"prefix":"When","index":2,"text":"method GET"},"stepLog":"12:52:22.883 request:\n1 > GET https:\/\/gorest.co.in\/public\/v2\/users\/100\n1 > Host: gorest.co.in\n1 > Connection: Keep-Alive\n1 > User-Agent: Apache-HttpClient\/4.5.13 (Java\/1.8.0_201)\n1 > Accept-Encoding: gzip,deflate\n\n\n12:52:23.420 response time in milliseconds: 529\n1 < 200\n1 < Server: nginx\n1 < Date: Sun, 03 Apr 2022 07:22:24 GMT\n1 < Content-Type: application\/json; charset=utf-8\n1 < Transfer-Encoding: chunked\n1 < Connection: keep-alive\n1 < Vary: Accept-Encoding\n1 < Vary: Origin\n1 < X-Frame-Options: SAMEORIGIN\n1 < X-XSS-Protection: 0\n1 < X-Content-Type-Options: nosniff\n1 < X-Download-Options: noopen\n1 < X-Permitted-Cross-Domain-Policies: none\n1 < Referrer-Policy: strict-origin-when-cross-origin\n1 < ETag: W\/\"60d2850fc18b31e2eea07ccab97d3f4d\"\n1 < Cache-Control: max-age=0, private, must-revalidate\n1 < X-Request-Id: af679642-878b-466e-9ce4-06445011ef19\n1 < X-Runtime: 0.003989\n1 < Strict-Transport-Security: max-age=63072000; includeSubDomains\n{\"id\":100,\"name\":\"Atreyee Kocchar\",\"email\":\"kocchar_atreyee@goldner.com\",\"gender\":\"female\",\"status\":\"inactive\"}\n"},{"result":{"nanos":48000,"millis":0.048,"status":"passed"},"step":{"line":7,"prefix":"Then","index":3,"text":"status 200"}},{"result":{"nanos":39838600,"millis":39.8386,"status":"passed"},"step":{"line":8,"prefix":"*","index":4,"text":"print response"},"stepLog":"12:52:23.590 [print] {\n  \"id\": 100,\n  \"name\": \"Atreyee Kocchar\",\n  \"email\": \"kocchar_atreyee@goldner.com\",\n  \"gender\": \"female\",\n  \"status\": \"inactive\"\n}\n \n"},{"result":{"nanos":8713400,"millis":8.7134,"status":"passed"},"step":{"line":9,"prefix":"*","index":5,"text":"def jsonResponse = response"}},{"result":{"nanos":3886100,"millis":3.8861,"status":"passed"},"step":{"line":10,"prefix":"*","index":6,"text":"print jsonResponse.name"},"stepLog":"12:52:23.605 [print] Atreyee Kocchar \n"},{"result":{"nanos":2502100,"millis":2.5021,"status":"passed"},"step":{"line":11,"prefix":"*","index":7,"text":"def actualName = jsonResponse.name"}},{"result":{"nanos":34438200,"millis":34.4382,"status":"passed"},"step":{"line":12,"prefix":"*","index":8,"text":"match actualName == \"Atreyee Kocchar\""}}],"executorName":"main","line":3,"name":"Get the user details - path param - positive","description":"","durationMillis":1636.188,"startTime":1648970541661,"failed":false,"refId":"[1:3]","endTime":1648970543642,"exampleIndex":-1},{"sectionIndex":1,"stepResults":[{"result":{"nanos":885200,"millis":0.8852,"status":"passed"},"step":{"line":15,"prefix":"Given","index":0,"text":"url 'https:\/\/gorest.co.in\/public\/v2\/users'"}},{"result":{"nanos":787300,"millis":0.7873,"status":"passed"},"step":{"line":16,"prefix":"And","index":1,"text":"path '2'"}},{"result":{"nanos":133703500,"millis":133.7035,"status":"passed"},"step":{"line":17,"prefix":"When","index":2,"text":"method GET"},"stepLog":"12:52:23.662 request:\n1 > GET https:\/\/gorest.co.in\/public\/v2\/users\/2\n1 > Host: gorest.co.in\n1 > Connection: Keep-Alive\n1 > User-Agent: Apache-HttpClient\/4.5.13 (Java\/1.8.0_201)\n1 > Accept-Encoding: gzip,deflate\n\n\n12:52:23.790 response time in milliseconds: 127\n1 < 404\n1 < Server: nginx\n1 < Date: Sun, 03 Apr 2022 07:22:24 GMT\n1 < Content-Type: application\/json; charset=utf-8\n1 < Transfer-Encoding: chunked\n1 < Connection: keep-alive\n1 < Vary: Accept-Encoding\n1 < Vary: Origin\n1 < X-Frame-Options: SAMEORIGIN\n1 < X-XSS-Protection: 0\n1 < X-Content-Type-Options: nosniff\n1 < X-Download-Options: noopen\n1 < X-Permitted-Cross-Domain-Policies: none\n1 < Referrer-Policy: strict-origin-when-cross-origin\n1 < Cache-Control: no-cache\n1 < X-Request-Id: 2cf76017-7d55-4e77-ad10-94676408232f\n1 < X-Runtime: 0.004595\n1 < Strict-Transport-Security: max-age=63072000; includeSubDomains\n{\"message\":\"Resource not found\"}\n"},{"result":{"nanos":28300,"millis":0.0283,"status":"passed"},"step":{"line":18,"prefix":"Then","index":3,"text":"status 404"}},{"result":{"nanos":1570500,"millis":1.5705,"status":"passed"},"step":{"line":19,"prefix":"*","index":4,"text":"print response"},"stepLog":"12:52:23.794 [print] {\n  \"message\": \"Resource not found\"\n}\n \n"},{"result":{"nanos":1150300,"millis":1.1503,"status":"passed"},"step":{"line":20,"prefix":"*","index":5,"text":"def jsonResponse = response"}},{"result":{"nanos":4706800,"millis":4.7068,"status":"passed"},"step":{"line":21,"prefix":"*","index":6,"text":"print jsonResponse.message"},"stepLog":"12:52:23.800 [print] Resource not found \n"}],"executorName":"main","line":14,"name":"Get the user details - path param - negative","description":"","durationMillis":142.8319,"startTime":1648970543655,"failed":false,"refId":"[2:14]","endTime":1648970543801,"exampleIndex":-1},{"sectionIndex":2,"stepResults":[{"result":{"nanos":70282100,"millis":70.2821,"status":"passed"},"step":{"line":24,"prefix":"*","index":0,"text":"def query = {id:100}"}},{"result":{"nanos":1274700,"millis":1.2747,"status":"passed"},"step":{"line":25,"prefix":"Given","index":1,"text":"url baseURL+'public\/v2\/users'"}},{"result":{"nanos":7729100,"millis":7.7291,"status":"passed"},"step":{"line":26,"prefix":"And","index":2,"text":"params query"}},{"result":{"nanos":184146800,"millis":184.1468,"status":"passed"},"step":{"line":27,"prefix":"When","index":3,"text":"method GET"},"stepLog":"12:52:23.935 request:\n1 > GET https:\/\/gorest.co.in\/public\/v2\/users?id=100\n1 > Host: gorest.co.in\n1 > Connection: Keep-Alive\n1 > User-Agent: Apache-HttpClient\/4.5.13 (Java\/1.8.0_201)\n1 > Accept-Encoding: gzip,deflate\n\n\n12:52:24.105 response time in milliseconds: 166\n1 < 200\n1 < Server: nginx\n1 < Date: Sun, 03 Apr 2022 07:22:25 GMT\n1 < Content-Type: application\/json; charset=utf-8\n1 < Transfer-Encoding: chunked\n1 < Connection: keep-alive\n1 < Vary: Accept-Encoding\n1 < Vary: Origin\n1 < X-Frame-Options: SAMEORIGIN\n1 < X-XSS-Protection: 0\n1 < X-Content-Type-Options: nosniff\n1 < X-Download-Options: noopen\n1 < X-Permitted-Cross-Domain-Policies: none\n1 < Referrer-Policy: strict-origin-when-cross-origin\n1 < X-Pagination-Total: 1\n1 < X-Pagination-Pages: 1\n1 < X-Pagination-Page: 1\n1 < X-Pagination-Limit: 20\n1 < X-Links-Previous: \n1 < X-Links-Current: https:\/\/gorest.co.in\/public\/v2\/users?page=1\n1 < X-Links-Next: \n1 < ETag: W\/\"3c0af39ef0e8218d62e8dd669d0aebc4\"\n1 < Cache-Control: max-age=0, private, must-revalidate\n1 < X-Request-Id: 4b40844c-ba83-4ea0-871c-26960ab51423\n1 < X-Runtime: 0.006344\n1 < Strict-Transport-Security: max-age=63072000; includeSubDomains\n[{\"id\":100,\"name\":\"Atreyee Kocchar\",\"email\":\"kocchar_atreyee@goldner.com\",\"gender\":\"female\",\"status\":\"inactive\"}]\n"},{"result":{"nanos":27000,"millis":0.027,"status":"passed"},"step":{"line":28,"prefix":"Then","index":4,"text":"status 200"}},{"result":{"nanos":2084300,"millis":2.0843,"status":"passed"},"step":{"line":29,"prefix":"*","index":5,"text":"print response"},"stepLog":"12:52:24.115 [print] [\n  {\n    \"id\": 100,\n    \"name\": \"Atreyee Kocchar\",\n    \"email\": \"kocchar_atreyee@goldner.com\",\n    \"gender\": \"female\",\n    \"status\": \"inactive\"\n  }\n]\n \n"}],"executorName":"main","line":23,"name":"Get the user details - query param - positive","description":"","durationMillis":265.544,"startTime":1648970543846,"failed":false,"refId":"[3:23]","endTime":1648970544116,"exampleIndex":-1},{"sectionIndex":3,"stepResults":[{"result":{"nanos":1182300,"millis":1.1823,"status":"passed"},"step":{"line":32,"prefix":"*","index":0,"text":"def query = {status:'active'}"}},{"result":{"nanos":1919400,"millis":1.9194,"status":"passed"},"step":{"line":33,"prefix":"Given","index":1,"text":"url baseURL+'public\/v1\/users'"}},{"result":{"nanos":574000,"millis":0.574,"status":"passed"},"step":{"line":34,"prefix":"And","index":2,"text":"params query"}},{"result":{"nanos":174787200,"millis":174.7872,"status":"passed"},"step":{"line":35,"prefix":"When","index":3,"text":"method GET"},"stepLog":"12:52:24.155 request:\n1 > GET https:\/\/gorest.co.in\/public\/v1\/users?status=active\n1 > Host: gorest.co.in\n1 > Connection: Keep-Alive\n1 > User-Agent: Apache-HttpClient\/4.5.13 (Java\/1.8.0_201)\n1 > Accept-Encoding: gzip,deflate\n\n\n12:52:24.319 response time in milliseconds: 163\n1 < 200\n1 < Server: nginx\n1 < Date: Sun, 03 Apr 2022 07:22:25 GMT\n1 < Content-Type: application\/json; charset=utf-8\n1 < Transfer-Encoding: chunked\n1 < Connection: keep-alive\n1 < Vary: Accept-Encoding\n1 < Vary: Origin\n1 < X-Frame-Options: SAMEORIGIN\n1 < X-XSS-Protection: 0\n1 < X-Content-Type-Options: nosniff\n1 < X-Download-Options: noopen\n1 < X-Permitted-Cross-Domain-Policies: none\n1 < Referrer-Policy: strict-origin-when-cross-origin\n1 < ETag: W\/\"3910855ff025b1acb3cd3ae35315e307\"\n1 < Cache-Control: max-age=0, private, must-revalidate\n1 < X-Request-Id: 264f0a3e-4d6c-4e64-a386-4bca3ce55d71\n1 < X-Runtime: 0.009350\n1 < Strict-Transport-Security: max-age=63072000; includeSubDomains\n{\"meta\":{\"pagination\":{\"total\":1789,\"pages\":90,\"page\":1,\"limit\":20,\"links\":{\"previous\":null,\"current\":\"https:\/\/gorest.co.in\/public\/v1\/users?page=1\",\"next\":\"https:\/\/gorest.co.in\/public\/v1\/users?page=2\"}}},\"data\":[{\"id\":3655,\"name\":\"Msgr. Chitrali Bhattacharya\",\"email\":\"msgr_bhattacharya_chitrali@larson.biz\",\"gender\":\"female\",\"status\":\"active\"},{\"id\":3654,\"name\":\"Tara Sinha\",\"email\":\"sinha_tara@huel-okuneva.io\",\"gender\":\"female\",\"status\":\"active\"},{\"id\":3652,\"name\":\"Deeptendu Johar\",\"email\":\"deeptendu_johar@murphy.org\",\"gender\":\"male\",\"status\":\"active\"},{\"id\":3651,\"name\":\"Chaitan Mukhopadhyay\",\"email\":\"chaitan_mukhopadhyay@graham.net\",\"gender\":\"female\",\"status\":\"active\"},{\"id\":3650,\"name\":\"Lakshminath Kocchar DDS\",\"email\":\"dds_kocchar_lakshminath@adams-stehr.co\",\"gender\":\"male\",\"status\":\"active\"},{\"id\":3649,\"name\":\"Bhima Nayar\",\"email\":\"bhima_nayar@ebert-nienow.co\",\"gender\":\"male\",\"status\":\"active\"},{\"id\":3648,\"name\":\"Aishani Talwar\",\"email\":\"talwar_aishani@kunde.biz\",\"gender\":\"male\",\"status\":\"active\"},{\"id\":3646,\"name\":\"Chandan Chaturvedi\",\"email\":\"chaturvedi_chandan@bauch.org\",\"gender\":\"male\",\"status\":\"active\"},{\"id\":3644,\"name\":\"Mr. Jaya Jha\",\"email\":\"jaya_jha_mr@wolf.biz\",\"gender\":\"male\",\"status\":\"active\"},{\"id\":3641,\"name\":\"Dakshayani Dwivedi VM\",\"email\":\"dakshayani_vm_dwivedi@hegmann-barrows.name\",\"gender\":\"female\",\"status\":\"active\"},{\"id\":3638,\"name\":\"Dwaipayan Pothuvaal\",\"email\":\"pothuvaal_dwaipayan@rowe.com\",\"gender\":\"male\",\"status\":\"active\"},{\"id\":3636,\"name\":\"Ms. Rahul Tagore\",\"email\":\"rahul_tagore_ms@borer.io\",\"gender\":\"female\",\"status\":\"active\"},{\"id\":3632,\"name\":\"Chaten Mukhopadhyay Sr.\",\"email\":\"chaten_sr_mukhopadhyay@hartmann.io\",\"gender\":\"female\",\"status\":\"active\"},{\"id\":3631,\"name\":\"Dhanpati Asan III\",\"email\":\"asan_dhanpati_iii@breitenberg-stehr.com\",\"gender\":\"male\",\"status\":\"active\"},{\"id\":3629,\"name\":\"Mr. Javas Varma\",\"email\":\"javas_mr_varma@olson.org\",\"gender\":\"female\",\"status\":\"active\"},{\"id\":3625,\"name\":\"Bhardwaj Nair DC\",\"email\":\"bhardwaj_nair_dc@koelpin-deckow.net\",\"gender\":\"female\",\"status\":\"active\"},{\"id\":3624,\"name\":\"Dayaananda Mishra\",\"email\":\"mishra_dayaananda@kerluke.info\",\"gender\":\"male\",\"status\":\"active\"},{\"id\":3621,\"name\":\"Dhruv Pothuvaal JD\",\"email\":\"dhruv_jd_pothuvaal@baumbach.net\",\"gender\":\"female\",\"status\":\"active\"},{\"id\":3619,\"name\":\"Anala Somayaji\",\"email\":\"somayaji_anala@kuhn.io\",\"gender\":\"male\",\"status\":\"active\"},{\"id\":3617,\"name\":\"Anaadi Dwivedi LLD\",\"email\":\"anaadi_dwivedi_lld@fahey-spinka.org\",\"gender\":\"female\",\"status\":\"active\"}]}\n"},{"result":{"nanos":34600,"millis":0.0346,"status":"passed"},"step":{"line":36,"prefix":"Then","index":4,"text":"status 200"}},{"result":{"nanos":6209600,"millis":6.2096,"status":"passed"},"step":{"line":37,"prefix":"*","index":5,"text":"print response"},"stepLog":"12:52:24.330 [print] {\n  \"meta\": {\n    \"pagination\": {\n      \"total\": 1789,\n      \"pages\": 90,\n      \"page\": 1,\n      \"limit\": 20,\n      \"links\": {\n        \"previous\": null,\n        \"current\": \"https:\/\/gorest.co.in\/public\/v1\/users?page=1\",\n        \"next\": \"https:\/\/gorest.co.in\/public\/v1\/users?page=2\"\n      }\n    }\n  },\n  \"data\": [\n    {\n      \"id\": 3655,\n      \"name\": \"Msgr. Chitrali Bhattacharya\",\n      \"email\": \"msgr_bhattacharya_chitrali@larson.biz\",\n      \"gender\": \"female\",\n      \"status\": \"active\"\n    },\n    {\n      \"id\": 3654,\n      \"name\": \"Tara Sinha\",\n      \"email\": \"sinha_tara@huel-okuneva.io\",\n      \"gender\": \"female\",\n      \"status\": \"active\"\n    },\n    {\n      \"id\": 3652,\n      \"name\": \"Deeptendu Johar\",\n      \"email\": \"deeptendu_johar@murphy.org\",\n      \"gender\": \"male\",\n      \"status\": \"active\"\n    },\n    {\n      \"id\": 3651,\n      \"name\": \"Chaitan Mukhopadhyay\",\n      \"email\": \"chaitan_mukhopadhyay@graham.net\",\n      \"gender\": \"female\",\n      \"status\": \"active\"\n    },\n    {\n      \"id\": 3650,\n      \"name\": \"Lakshminath Kocchar DDS\",\n      \"email\": \"dds_kocchar_lakshminath@adams-stehr.co\",\n      \"gender\": \"male\",\n      \"status\": \"active\"\n    },\n    {\n      \"id\": 3649,\n      \"name\": \"Bhima Nayar\",\n      \"email\": \"bhima_nayar@ebert-nienow.co\",\n      \"gender\": \"male\",\n      \"status\": \"active\"\n    },\n    {\n      \"id\": 3648,\n      \"name\": \"Aishani Talwar\",\n      \"email\": \"talwar_aishani@kunde.biz\",\n      \"gender\": \"male\",\n      \"status\": \"active\"\n    },\n    {\n      \"id\": 3646,\n      \"name\": \"Chandan Chaturvedi\",\n      \"email\": \"chaturvedi_chandan@bauch.org\",\n      \"gender\": \"male\",\n      \"status\": \"active\"\n    },\n    {\n      \"id\": 3644,\n      \"name\": \"Mr. Jaya Jha\",\n      \"email\": \"jaya_jha_mr@wolf.biz\",\n      \"gender\": \"male\",\n      \"status\": \"active\"\n    },\n    {\n      \"id\": 3641,\n      \"name\": \"Dakshayani Dwivedi VM\",\n      \"email\": \"dakshayani_vm_dwivedi@hegmann-barrows.name\",\n      \"gender\": \"female\",\n      \"status\": \"active\"\n    },\n    {\n      \"id\": 3638,\n      \"name\": \"Dwaipayan Pothuvaal\",\n      \"email\": \"pothuvaal_dwaipayan@rowe.com\",\n      \"gender\": \"male\",\n      \"status\": \"active\"\n    },\n    {\n      \"id\": 3636,\n      \"name\": \"Ms. Rahul Tagore\",\n      \"email\": \"rahul_tagore_ms@borer.io\",\n      \"gender\": \"female\",\n      \"status\": \"active\"\n    },\n    {\n      \"id\": 3632,\n      \"name\": \"Chaten Mukhopadhyay Sr.\",\n      \"email\": \"chaten_sr_mukhopadhyay@hartmann.io\",\n      \"gender\": \"female\",\n      \"status\": \"active\"\n    },\n    {\n      \"id\": 3631,\n      \"name\": \"Dhanpati Asan III\",\n      \"email\": \"asan_dhanpati_iii@breitenberg-stehr.com\",\n      \"gender\": \"male\",\n      \"status\": \"active\"\n    },\n    {\n      \"id\": 3629,\n      \"name\": \"Mr. Javas Varma\",\n      \"email\": \"javas_mr_varma@olson.org\",\n      \"gender\": \"female\",\n      \"status\": \"active\"\n    },\n    {\n      \"id\": 3625,\n      \"name\": \"Bhardwaj Nair DC\",\n      \"email\": \"bhardwaj_nair_dc@koelpin-deckow.net\",\n      \"gender\": \"female\",\n      \"status\": \"active\"\n    },\n    {\n      \"id\": 3624,\n      \"name\": \"Dayaananda Mishra\",\n      \"email\": \"mishra_dayaananda@kerluke.info\",\n      \"gender\": \"male\",\n      \"status\": \"active\"\n    },\n    {\n      \"id\": 3621,\n      \"name\": \"Dhruv Pothuvaal JD\",\n      \"email\": \"dhruv_jd_pothuvaal@baumbach.net\",\n      \"gender\": \"female\",\n      \"status\": \"active\"\n    },\n    {\n      \"id\": 3619,\n      \"name\": \"Anala Somayaji\",\n      \"email\": \"somayaji_anala@kuhn.io\",\n      \"gender\": \"male\",\n      \"status\": \"active\"\n    },\n    {\n      \"id\": 3617,\n      \"name\": \"Anaadi Dwivedi LLD\",\n      \"email\": \"anaadi_dwivedi_lld@fahey-spinka.org\",\n      \"gender\": \"female\",\n      \"status\": \"active\"\n    }\n  ]\n}\n \n"},{"result":{"nanos":2883800,"millis":2.8838,"status":"passed"},"step":{"line":38,"prefix":"*","index":6,"text":"def usersCount = response.data.length"}},{"result":{"nanos":7245000,"millis":7.245,"status":"passed"},"step":{"line":39,"prefix":"*","index":7,"text":"match usersCount == 20"}}],"executorName":"main","line":31,"name":"Get the list of active users - query param - positive","description":"","durationMillis":194.8359,"startTime":1648970544142,"failed":false,"refId":"[4:31]","endTime":1648970544341,"exampleIndex":-1},{"sectionIndex":4,"stepResults":[{"result":{"nanos":1574100,"millis":1.5741,"status":"passed"},"step":{"line":42,"prefix":"*","index":0,"text":"def query = {id:2}"}},{"result":{"nanos":915800,"millis":0.9158,"status":"passed"},"step":{"line":43,"prefix":"Given","index":1,"text":"url baseURL+'public\/v2\/users'"}},{"result":{"nanos":477400,"millis":0.4774,"status":"passed"},"step":{"line":44,"prefix":"And","index":2,"text":"params query"}},{"result":{"nanos":149195100,"millis":149.1951,"status":"passed"},"step":{"line":45,"prefix":"When","index":3,"text":"method GET"},"stepLog":"12:52:24.368 request:\n1 > GET https:\/\/gorest.co.in\/public\/v2\/users?id=2\n1 > Host: gorest.co.in\n1 > Connection: Keep-Alive\n1 > User-Agent: Apache-HttpClient\/4.5.13 (Java\/1.8.0_201)\n1 > Accept-Encoding: gzip,deflate\n\n\n12:52:24.511 response time in milliseconds: 143\n1 < 200\n1 < Server: nginx\n1 < Date: Sun, 03 Apr 2022 07:22:25 GMT\n1 < Content-Type: application\/json; charset=utf-8\n1 < Transfer-Encoding: chunked\n1 < Connection: keep-alive\n1 < Vary: Accept-Encoding\n1 < Vary: Origin\n1 < X-Frame-Options: SAMEORIGIN\n1 < X-XSS-Protection: 0\n1 < X-Content-Type-Options: nosniff\n1 < X-Download-Options: noopen\n1 < X-Permitted-Cross-Domain-Policies: none\n1 < Referrer-Policy: strict-origin-when-cross-origin\n1 < X-Pagination-Total: 0\n1 < X-Pagination-Pages: 0\n1 < X-Pagination-Page: 1\n1 < X-Pagination-Limit: 20\n1 < ETag: W\/\"4f53cda18c2baa0c0354bb5f9a3ecbe5\"\n1 < Cache-Control: max-age=0, private, must-revalidate\n1 < X-Request-Id: 5e7ea622-0c62-4f00-ab5d-0dcc6c5227e3\n1 < X-Runtime: 0.005321\n1 < Strict-Transport-Security: max-age=63072000; includeSubDomains\n[]\n"},{"result":{"nanos":15600,"millis":0.0156,"status":"passed"},"step":{"line":46,"prefix":"Then","index":4,"text":"status 200"}},{"result":{"nanos":822900,"millis":0.8229,"status":"passed"},"step":{"line":47,"prefix":"*","index":5,"text":"print response"},"stepLog":"12:52:24.513 [print] [\n]\n \n"},{"result":{"nanos":938300,"millis":0.9383,"status":"passed"},"step":{"line":48,"prefix":"*","index":6,"text":"def userdetail = response"}},{"result":{"nanos":783600,"millis":0.7836,"status":"passed"},"step":{"line":49,"prefix":"*","index":7,"text":"match userdetail == []"}}],"executorName":"main","line":41,"name":"Get the user details - query param - negative","description":"","durationMillis":154.7228,"startTime":1648970544357,"failed":false,"refId":"[5:41]","endTime":1648970544515,"exampleIndex":-1},{"sectionIndex":5,"stepResults":[{"result":{"nanos":1180300,"millis":1.1803,"status":"passed"},"step":{"line":52,"prefix":"Given","index":0,"text":"header Content-Type = 'application\/json; charset=utf-8'"}},{"result":{"nanos":670100,"millis":0.6701,"status":"passed"},"step":{"line":53,"prefix":"When","index":1,"text":"url baseURL+'public\/v2\/users'"}},{"result":{"nanos":263600,"millis":0.2636,"status":"passed"},"step":{"line":54,"prefix":"And","index":2,"text":"path '100'"}},{"result":{"nanos":158131000,"millis":158.131,"status":"passed"},"step":{"line":55,"prefix":"And","index":3,"text":"method GET"},"stepLog":"12:52:24.531 request:\n1 > GET https:\/\/gorest.co.in\/public\/v2\/users\/100\n1 > Content-Type: application\/json; charset=utf-8\n1 > Host: gorest.co.in\n1 > Connection: Keep-Alive\n1 > User-Agent: Apache-HttpClient\/4.5.13 (Java\/1.8.0_201)\n1 > Accept-Encoding: gzip,deflate\n\n\n12:52:24.683 response time in milliseconds: 151\n1 < 200\n1 < Server: nginx\n1 < Date: Sun, 03 Apr 2022 07:22:25 GMT\n1 < Content-Type: application\/json; charset=utf-8\n1 < Transfer-Encoding: chunked\n1 < Connection: keep-alive\n1 < Vary: Accept-Encoding\n1 < Vary: Origin\n1 < X-Frame-Options: SAMEORIGIN\n1 < X-XSS-Protection: 0\n1 < X-Content-Type-Options: nosniff\n1 < X-Download-Options: noopen\n1 < X-Permitted-Cross-Domain-Policies: none\n1 < Referrer-Policy: strict-origin-when-cross-origin\n1 < ETag: W\/\"60d2850fc18b31e2eea07ccab97d3f4d\"\n1 < Cache-Control: max-age=0, private, must-revalidate\n1 < X-Request-Id: ea0b06d5-e608-414e-8ca3-5e96aec3c364\n1 < X-Runtime: 0.005504\n1 < Strict-Transport-Security: max-age=63072000; includeSubDomains\n{\"id\":100,\"name\":\"Atreyee Kocchar\",\"email\":\"kocchar_atreyee@goldner.com\",\"gender\":\"female\",\"status\":\"inactive\"}\n"},{"result":{"nanos":29100,"millis":0.0291,"status":"passed"},"step":{"line":56,"prefix":"Then","index":4,"text":"status 200"}},{"result":{"nanos":1752100,"millis":1.7521,"status":"passed"},"step":{"line":57,"prefix":"*","index":5,"text":"print response"},"stepLog":"12:52:24.687 [print] {\n  \"id\": 100,\n  \"name\": \"Atreyee Kocchar\",\n  \"email\": \"kocchar_atreyee@goldner.com\",\n  \"gender\": \"female\",\n  \"status\": \"inactive\"\n}\n \n"}],"executorName":"main","line":51,"name":"Get the user details - with headers - type 1","description":"","durationMillis":162.0262,"startTime":1648970544523,"failed":false,"refId":"[6:51]","endTime":1648970544687,"exampleIndex":-1},{"sectionIndex":6,"stepResults":[{"result":{"nanos":1272800,"millis":1.2728,"status":"passed"},"step":{"line":60,"prefix":"*","index":0,"text":"def request_headers = {Content-Type:'application\/json; charset=utf-8'}"}},{"result":{"nanos":2123500,"millis":2.1235,"status":"passed"},"step":{"line":61,"prefix":"Given","index":1,"text":"headers request_headers"}},{"result":{"nanos":1062900,"millis":1.0629,"status":"passed"},"step":{"line":62,"prefix":"When","index":2,"text":"url baseURL+'public\/v2\/users'"}},{"result":{"nanos":448500,"millis":0.4485,"status":"passed"},"step":{"line":63,"prefix":"And","index":3,"text":"path '100'"}},{"result":{"nanos":156056700,"millis":156.0567,"status":"passed"},"step":{"line":64,"prefix":"And","index":4,"text":"method GET"},"stepLog":"12:52:24.709 request:\n1 > GET https:\/\/gorest.co.in\/public\/v2\/users\/100\n1 > Content-Type: application\/json; charset=utf-8\n1 > Host: gorest.co.in\n1 > Connection: Keep-Alive\n1 > User-Agent: Apache-HttpClient\/4.5.13 (Java\/1.8.0_201)\n1 > Accept-Encoding: gzip,deflate\n\n\n12:52:24.859 response time in milliseconds: 148\n1 < 200\n1 < Server: nginx\n1 < Date: Sun, 03 Apr 2022 07:22:25 GMT\n1 < Content-Type: application\/json; charset=utf-8\n1 < Transfer-Encoding: chunked\n1 < Connection: keep-alive\n1 < Vary: Accept-Encoding\n1 < Vary: Origin\n1 < X-Frame-Options: SAMEORIGIN\n1 < X-XSS-Protection: 0\n1 < X-Content-Type-Options: nosniff\n1 < X-Download-Options: noopen\n1 < X-Permitted-Cross-Domain-Policies: none\n1 < Referrer-Policy: strict-origin-when-cross-origin\n1 < ETag: W\/\"60d2850fc18b31e2eea07ccab97d3f4d\"\n1 < Cache-Control: max-age=0, private, must-revalidate\n1 < X-Request-Id: 0d06f308-da88-478b-8d86-6754174749c0\n1 < X-Runtime: 0.004238\n1 < Strict-Transport-Security: max-age=63072000; includeSubDomains\n{\"id\":100,\"name\":\"Atreyee Kocchar\",\"email\":\"kocchar_atreyee@goldner.com\",\"gender\":\"female\",\"status\":\"inactive\"}\n"},{"result":{"nanos":23600,"millis":0.0236,"status":"passed"},"step":{"line":65,"prefix":"Then","index":5,"text":"status 200"}},{"result":{"nanos":1942900,"millis":1.9429,"status":"passed"},"step":{"line":66,"prefix":"*","index":6,"text":"print response"},"stepLog":"12:52:24.863 [print] {\n  \"id\": 100,\n  \"name\": \"Atreyee Kocchar\",\n  \"email\": \"kocchar_atreyee@goldner.com\",\n  \"gender\": \"female\",\n  \"status\": \"inactive\"\n}\n \n"}],"executorName":"main","line":59,"name":"Get the user details - with headers - type 2","description":"","durationMillis":162.9309,"startTime":1648970544697,"failed":false,"refId":"[7:59]","endTime":1648970544863,"exampleIndex":-1}],"callDepth":0,"name":"GET API Automation","description":"","resultDate":"2022-04-03 12:52:24 PM","durationMillis":2719.0797,"passedCount":7}