{"failedCount":0,"prefixedPath":"src\/test\/java\/feature\/GET_API_Demo.feature","packageQualifiedName":"src.test.java.feature.GET_API_Demo","loopIndex":-1,"relativePath":"src\/test\/java\/feature\/GET_API_Demo.feature","scenarioResults":[{"sectionIndex":0,"stepResults":[{"result":{"nanos":21220000,"millis":21.22,"status":"passed"},"step":{"line":4,"prefix":"Given","index":0,"text":"url baseURL+'public\/v2\/users'"}},{"result":{"nanos":933600,"millis":0.9336,"status":"passed"},"step":{"line":5,"prefix":"And","index":1,"text":"path '2'"}},{"result":{"nanos":1211616800,"millis":1211.6168,"status":"passed"},"step":{"line":6,"prefix":"When","index":2,"text":"method GET"},"stepLog":"14:29:18.429 request:\n1 > GET https:\/\/gorest.co.in\/public\/v2\/users\/2\n1 > Host: gorest.co.in\n1 > Connection: Keep-Alive\n1 > User-Agent: Apache-HttpClient\/4.5.13 (Java\/1.8.0_201)\n1 > Accept-Encoding: gzip,deflate\n\n\n14:29:18.760 response time in milliseconds: 327\n1 < 200\n1 < Server: nginx\n1 < Date: Sat, 02 Apr 2022 08:59:19 GMT\n1 < Content-Type: application\/json; charset=utf-8\n1 < Transfer-Encoding: chunked\n1 < Connection: keep-alive\n1 < Vary: Accept-Encoding\n1 < Vary: Origin\n1 < X-Frame-Options: SAMEORIGIN\n1 < X-XSS-Protection: 0\n1 < X-Content-Type-Options: nosniff\n1 < X-Download-Options: noopen\n1 < X-Permitted-Cross-Domain-Policies: none\n1 < Referrer-Policy: strict-origin-when-cross-origin\n1 < ETag: W\/\"ee52f7ecb245c152bfe1be2d492c2cc8\"\n1 < Cache-Control: max-age=0, private, must-revalidate\n1 < X-Request-Id: 09fd36e4-d295-4672-aeee-7b34c9ac95dd\n1 < X-Runtime: 0.004808\n1 < Strict-Transport-Security: max-age=63072000; includeSubDomains\n{\"id\":2,\"name\":\"Lal Guneta\",\"email\":\"lal_guneta@auer-harris.io\",\"gender\":\"female\",\"status\":\"inactive\"}\n"},{"result":{"nanos":24700,"millis":0.0247,"status":"passed"},"step":{"line":7,"prefix":"Then","index":3,"text":"status 200"}},{"result":{"nanos":16965100,"millis":16.9651,"status":"passed"},"step":{"line":8,"prefix":"*","index":4,"text":"print response"},"stepLog":"14:29:18.826 [print] {\n  \"id\": 2,\n  \"name\": \"Lal Guneta\",\n  \"email\": \"lal_guneta@auer-harris.io\",\n  \"gender\": \"female\",\n  \"status\": \"inactive\"\n}\n \n"},{"result":{"nanos":3824700,"millis":3.8247,"status":"passed"},"step":{"line":9,"prefix":"*","index":5,"text":"def jsonResponse = response"}},{"result":{"nanos":1314100,"millis":1.3141,"status":"passed"},"step":{"line":10,"prefix":"*","index":6,"text":"print jsonResponse.name"},"stepLog":"14:29:18.832 [print] Lal Guneta \n"},{"result":{"nanos":887000,"millis":0.887,"status":"passed"},"step":{"line":11,"prefix":"*","index":7,"text":"def actualName = jsonResponse.name"}},{"result":{"nanos":10575800,"millis":10.5758,"status":"passed"},"step":{"line":12,"prefix":"*","index":8,"text":"match actualName == \"Lal Guneta\""}}],"executorName":"main","line":3,"name":"Get the user details - path param - positive","description":"","durationMillis":1267.3618,"startTime":1648889957274,"failed":false,"refId":"[1:3]","endTime":1648889958844,"exampleIndex":-1},{"sectionIndex":1,"stepResults":[{"result":{"nanos":707600,"millis":0.7076,"status":"passed"},"step":{"line":15,"prefix":"Given","index":0,"text":"url 'https:\/\/gorest.co.in\/public\/v2\/users'"}},{"result":{"nanos":585400,"millis":0.5854,"status":"passed"},"step":{"line":16,"prefix":"And","index":1,"text":"path '100'"}},{"result":{"nanos":129316200,"millis":129.3162,"status":"passed"},"step":{"line":17,"prefix":"When","index":2,"text":"method GET"},"stepLog":"14:29:18.858 request:\n1 > GET https:\/\/gorest.co.in\/public\/v2\/users\/100\n1 > Host: gorest.co.in\n1 > Connection: Keep-Alive\n1 > User-Agent: Apache-HttpClient\/4.5.13 (Java\/1.8.0_201)\n1 > Accept-Encoding: gzip,deflate\n\n\n14:29:18.984 response time in milliseconds: 125\n1 < 404\n1 < Server: nginx\n1 < Date: Sat, 02 Apr 2022 08:59:19 GMT\n1 < Content-Type: application\/json; charset=utf-8\n1 < Transfer-Encoding: chunked\n1 < Connection: keep-alive\n1 < Vary: Accept-Encoding\n1 < Vary: Origin\n1 < X-Frame-Options: SAMEORIGIN\n1 < X-XSS-Protection: 0\n1 < X-Content-Type-Options: nosniff\n1 < X-Download-Options: noopen\n1 < X-Permitted-Cross-Domain-Policies: none\n1 < Referrer-Policy: strict-origin-when-cross-origin\n1 < Cache-Control: no-cache\n1 < X-Request-Id: 8c5a1f63-4cb2-4370-88e5-1a91afea3c36\n1 < X-Runtime: 0.003927\n1 < Strict-Transport-Security: max-age=63072000; includeSubDomains\n{\"message\":\"Resource not found\"}\n"},{"result":{"nanos":12300,"millis":0.0123,"status":"passed"},"step":{"line":18,"prefix":"Then","index":3,"text":"status 404"}},{"result":{"nanos":820800,"millis":0.8208,"status":"passed"},"step":{"line":19,"prefix":"*","index":4,"text":"print response"},"stepLog":"14:29:18.985 [print] {\n  \"message\": \"Resource not found\"\n}\n \n"},{"result":{"nanos":428100,"millis":0.4281,"status":"passed"},"step":{"line":20,"prefix":"*","index":5,"text":"def jsonResponse = response"}},{"result":{"nanos":1379800,"millis":1.3798,"status":"passed"},"step":{"line":21,"prefix":"*","index":6,"text":"print jsonResponse.message"},"stepLog":"14:29:18.987 [print] Resource not found \n"}],"executorName":"main","line":14,"name":"Get the user details - path param - negative","description":"","durationMillis":133.2502,"startTime":1648889958852,"failed":false,"refId":"[2:14]","endTime":1648889958988,"exampleIndex":-1},{"sectionIndex":2,"stepResults":[{"result":{"nanos":25020900,"millis":25.0209,"status":"passed"},"step":{"line":24,"prefix":"*","index":0,"text":"def query = {id:2}"}},{"result":{"nanos":563200,"millis":0.5632,"status":"passed"},"step":{"line":25,"prefix":"Given","index":1,"text":"url baseURL+'public\/v2\/users'"}},{"result":{"nanos":3853200,"millis":3.8532,"status":"passed"},"step":{"line":26,"prefix":"And","index":2,"text":"params query"}},{"result":{"nanos":129401500,"millis":129.4015,"status":"passed"},"step":{"line":27,"prefix":"When","index":3,"text":"method GET"},"stepLog":"14:29:19.030 request:\n1 > GET https:\/\/gorest.co.in\/public\/v2\/users?id=2\n1 > Host: gorest.co.in\n1 > Connection: Keep-Alive\n1 > User-Agent: Apache-HttpClient\/4.5.13 (Java\/1.8.0_201)\n1 > Accept-Encoding: gzip,deflate\n\n\n14:29:19.154 response time in milliseconds: 123\n1 < 200\n1 < Server: nginx\n1 < Date: Sat, 02 Apr 2022 08:59:19 GMT\n1 < Content-Type: application\/json; charset=utf-8\n1 < Transfer-Encoding: chunked\n1 < Connection: keep-alive\n1 < Vary: Accept-Encoding\n1 < Vary: Origin\n1 < X-Frame-Options: SAMEORIGIN\n1 < X-XSS-Protection: 0\n1 < X-Content-Type-Options: nosniff\n1 < X-Download-Options: noopen\n1 < X-Permitted-Cross-Domain-Policies: none\n1 < Referrer-Policy: strict-origin-when-cross-origin\n1 < X-Pagination-Total: 1\n1 < X-Pagination-Pages: 1\n1 < X-Pagination-Page: 1\n1 < X-Pagination-Limit: 20\n1 < X-Links-Previous: \n1 < X-Links-Current: https:\/\/gorest.co.in\/public\/v2\/users?page=1\n1 < X-Links-Next: \n1 < ETag: W\/\"853bb519e69e6ae1c0b3b519fbcd9d6e\"\n1 < Cache-Control: max-age=0, private, must-revalidate\n1 < X-Request-Id: 93249623-ee1c-4df4-bfef-c20ddad4d938\n1 < X-Runtime: 0.007072\n1 < Strict-Transport-Security: max-age=63072000; includeSubDomains\n[{\"id\":2,\"name\":\"Lal Guneta\",\"email\":\"lal_guneta@auer-harris.io\",\"gender\":\"female\",\"status\":\"inactive\"}]\n"},{"result":{"nanos":16000,"millis":0.016,"status":"passed"},"step":{"line":28,"prefix":"Then","index":4,"text":"status 200"}},{"result":{"nanos":1162700,"millis":1.1627,"status":"passed"},"step":{"line":29,"prefix":"*","index":5,"text":"print response"},"stepLog":"14:29:19.157 [print] [\n  {\n    \"id\": 2,\n    \"name\": \"Lal Guneta\",\n    \"email\": \"lal_guneta@auer-harris.io\",\n    \"gender\": \"female\",\n    \"status\": \"inactive\"\n  }\n]\n \n"}],"executorName":"main","line":23,"name":"Get the user details - query param - positive","description":"","durationMillis":160.0175,"startTime":1648889958996,"failed":false,"refId":"[3:23]","endTime":1648889959158,"exampleIndex":-1},{"sectionIndex":3,"stepResults":[{"result":{"nanos":845600,"millis":0.8456,"status":"passed"},"step":{"line":32,"prefix":"*","index":0,"text":"def query = {status:'active'}"}},{"result":{"nanos":904800,"millis":0.9048,"status":"passed"},"step":{"line":33,"prefix":"Given","index":1,"text":"url baseURL+'public\/v1\/users'"}},{"result":{"nanos":237300,"millis":0.2373,"status":"passed"},"step":{"line":34,"prefix":"And","index":2,"text":"params query"}},{"result":{"nanos":133726500,"millis":133.7265,"status":"passed"},"step":{"line":35,"prefix":"When","index":3,"text":"method GET"},"stepLog":"14:29:19.178 request:\n1 > GET https:\/\/gorest.co.in\/public\/v1\/users?status=active\n1 > Host: gorest.co.in\n1 > Connection: Keep-Alive\n1 > User-Agent: Apache-HttpClient\/4.5.13 (Java\/1.8.0_201)\n1 > Accept-Encoding: gzip,deflate\n\n\n14:29:19.307 response time in milliseconds: 129\n1 < 200\n1 < Server: nginx\n1 < Date: Sat, 02 Apr 2022 08:59:19 GMT\n1 < Content-Type: application\/json; charset=utf-8\n1 < Transfer-Encoding: chunked\n1 < Connection: keep-alive\n1 < Vary: Accept-Encoding\n1 < Vary: Origin\n1 < X-Frame-Options: SAMEORIGIN\n1 < X-XSS-Protection: 0\n1 < X-Content-Type-Options: nosniff\n1 < X-Download-Options: noopen\n1 < X-Permitted-Cross-Domain-Policies: none\n1 < Referrer-Policy: strict-origin-when-cross-origin\n1 < ETag: W\/\"df1ee1c182c123e1c16b72d88cae04be\"\n1 < Cache-Control: max-age=0, private, must-revalidate\n1 < X-Request-Id: c3ff8b98-2db3-40ed-bf33-ec2a3689aa14\n1 < X-Runtime: 0.009937\n1 < Strict-Transport-Security: max-age=63072000; includeSubDomains\n{\"meta\":{\"pagination\":{\"total\":1398,\"pages\":70,\"page\":1,\"limit\":20,\"links\":{\"previous\":null,\"current\":\"https:\/\/gorest.co.in\/public\/v1\/users?page=1\",\"next\":\"https:\/\/gorest.co.in\/public\/v1\/users?page=2\"}}},\"data\":[{\"id\":2935,\"name\":\"Shashikala Embranthiri\",\"email\":\"embranthiri_shashikala@mcglynn-reinger.io\",\"gender\":\"male\",\"status\":\"active\"},{\"id\":2934,\"name\":\"Gov. Atreyee Ganaka\",\"email\":\"ganaka_atreyee_gov@mann.info\",\"gender\":\"female\",\"status\":\"active\"},{\"id\":2933,\"name\":\"Divjot Nair\",\"email\":\"nair_divjot@harris.name\",\"gender\":\"male\",\"status\":\"active\"},{\"id\":2928,\"name\":\"Ekadant Banerjee\",\"email\":\"ekadant_banerjee@bruen-heidenreich.info\",\"gender\":\"female\",\"status\":\"active\"},{\"id\":2927,\"name\":\"Umang Tandon\",\"email\":\"umang_tandon@ward-yundt.info\",\"gender\":\"male\",\"status\":\"active\"},{\"id\":2924,\"name\":\"Miss Dinkar Joshi\",\"email\":\"joshi_dinkar_miss@moen-rowe.org\",\"gender\":\"male\",\"status\":\"active\"},{\"id\":2923,\"name\":\"Dr. Abhirath Naik\",\"email\":\"naik_dr_abhirath@terry.info\",\"gender\":\"female\",\"status\":\"active\"},{\"id\":2921,\"name\":\"Mrs. Narendra Bhattacharya\",\"email\":\"mrs_bhattacharya_narendra@walsh-waters.info\",\"gender\":\"female\",\"status\":\"active\"},{\"id\":2916,\"name\":\"Niro Singh\",\"email\":\"niro_singh@pagac.biz\",\"gender\":\"male\",\"status\":\"active\"},{\"id\":2915,\"name\":\"Chitramala Khatri Ret.\",\"email\":\"ret_chitramala_khatri@nader-schuppe.net\",\"gender\":\"male\",\"status\":\"active\"},{\"id\":2912,\"name\":\"Mr. Chatura Talwar\",\"email\":\"chatura_talwar_mr@schiller.info\",\"gender\":\"female\",\"status\":\"active\"},{\"id\":2911,\"name\":\"Darshan Kakkar\",\"email\":\"darshan_kakkar@kshlerin-padberg.biz\",\"gender\":\"male\",\"status\":\"active\"},{\"id\":2910,\"name\":\"Girika Kaul\",\"email\":\"kaul_girika@wuckert-cummings.name\",\"gender\":\"female\",\"status\":\"active\"},{\"id\":2909,\"name\":\"Mahendra Marar\",\"email\":\"mahendra_marar@renner.co\",\"gender\":\"female\",\"status\":\"active\"},{\"id\":2907,\"name\":\"Bandhu Gandhi\",\"email\":\"bandhu_gandhi@hettinger-zulauf.co\",\"gender\":\"female\",\"status\":\"active\"},{\"id\":2906,\"name\":\"Rev. Nirbhay Chopra\",\"email\":\"nirbhay_chopra_rev@hoppe-ratke.org\",\"gender\":\"female\",\"status\":\"active\"},{\"id\":2905,\"name\":\"Chatura Sethi\",\"email\":\"chatura_sethi@green.name\",\"gender\":\"female\",\"status\":\"active\"},{\"id\":2904,\"name\":\"Deepan Iyengar\",\"email\":\"iyengar_deepan@carroll.info\",\"gender\":\"female\",\"status\":\"active\"},{\"id\":2902,\"name\":\"Hiranya Asan\",\"email\":\"asan_hiranya@okon-okeefe.biz\",\"gender\":\"female\",\"status\":\"active\"},{\"id\":2900,\"name\":\"Ashlesh Khanna\",\"email\":\"ashlesh_khanna@harber.biz\",\"gender\":\"female\",\"status\":\"active\"}]}\n"},{"result":{"nanos":15900,"millis":0.0159,"status":"passed"},"step":{"line":36,"prefix":"Then","index":4,"text":"status 200"}},{"result":{"nanos":3154900,"millis":3.1549,"status":"passed"},"step":{"line":37,"prefix":"*","index":5,"text":"print response"},"stepLog":"14:29:19.312 [print] {\n  \"meta\": {\n    \"pagination\": {\n      \"total\": 1398,\n      \"pages\": 70,\n      \"page\": 1,\n      \"limit\": 20,\n      \"links\": {\n        \"previous\": null,\n        \"current\": \"https:\/\/gorest.co.in\/public\/v1\/users?page=1\",\n        \"next\": \"https:\/\/gorest.co.in\/public\/v1\/users?page=2\"\n      }\n    }\n  },\n  \"data\": [\n    {\n      \"id\": 2935,\n      \"name\": \"Shashikala Embranthiri\",\n      \"email\": \"embranthiri_shashikala@mcglynn-reinger.io\",\n      \"gender\": \"male\",\n      \"status\": \"active\"\n    },\n    {\n      \"id\": 2934,\n      \"name\": \"Gov. Atreyee Ganaka\",\n      \"email\": \"ganaka_atreyee_gov@mann.info\",\n      \"gender\": \"female\",\n      \"status\": \"active\"\n    },\n    {\n      \"id\": 2933,\n      \"name\": \"Divjot Nair\",\n      \"email\": \"nair_divjot@harris.name\",\n      \"gender\": \"male\",\n      \"status\": \"active\"\n    },\n    {\n      \"id\": 2928,\n      \"name\": \"Ekadant Banerjee\",\n      \"email\": \"ekadant_banerjee@bruen-heidenreich.info\",\n      \"gender\": \"female\",\n      \"status\": \"active\"\n    },\n    {\n      \"id\": 2927,\n      \"name\": \"Umang Tandon\",\n      \"email\": \"umang_tandon@ward-yundt.info\",\n      \"gender\": \"male\",\n      \"status\": \"active\"\n    },\n    {\n      \"id\": 2924,\n      \"name\": \"Miss Dinkar Joshi\",\n      \"email\": \"joshi_dinkar_miss@moen-rowe.org\",\n      \"gender\": \"male\",\n      \"status\": \"active\"\n    },\n    {\n      \"id\": 2923,\n      \"name\": \"Dr. Abhirath Naik\",\n      \"email\": \"naik_dr_abhirath@terry.info\",\n      \"gender\": \"female\",\n      \"status\": \"active\"\n    },\n    {\n      \"id\": 2921,\n      \"name\": \"Mrs. Narendra Bhattacharya\",\n      \"email\": \"mrs_bhattacharya_narendra@walsh-waters.info\",\n      \"gender\": \"female\",\n      \"status\": \"active\"\n    },\n    {\n      \"id\": 2916,\n      \"name\": \"Niro Singh\",\n      \"email\": \"niro_singh@pagac.biz\",\n      \"gender\": \"male\",\n      \"status\": \"active\"\n    },\n    {\n      \"id\": 2915,\n      \"name\": \"Chitramala Khatri Ret.\",\n      \"email\": \"ret_chitramala_khatri@nader-schuppe.net\",\n      \"gender\": \"male\",\n      \"status\": \"active\"\n    },\n    {\n      \"id\": 2912,\n      \"name\": \"Mr. Chatura Talwar\",\n      \"email\": \"chatura_talwar_mr@schiller.info\",\n      \"gender\": \"female\",\n      \"status\": \"active\"\n    },\n    {\n      \"id\": 2911,\n      \"name\": \"Darshan Kakkar\",\n      \"email\": \"darshan_kakkar@kshlerin-padberg.biz\",\n      \"gender\": \"male\",\n      \"status\": \"active\"\n    },\n    {\n      \"id\": 2910,\n      \"name\": \"Girika Kaul\",\n      \"email\": \"kaul_girika@wuckert-cummings.name\",\n      \"gender\": \"female\",\n      \"status\": \"active\"\n    },\n    {\n      \"id\": 2909,\n      \"name\": \"Mahendra Marar\",\n      \"email\": \"mahendra_marar@renner.co\",\n      \"gender\": \"female\",\n      \"status\": \"active\"\n    },\n    {\n      \"id\": 2907,\n      \"name\": \"Bandhu Gandhi\",\n      \"email\": \"bandhu_gandhi@hettinger-zulauf.co\",\n      \"gender\": \"female\",\n      \"status\": \"active\"\n    },\n    {\n      \"id\": 2906,\n      \"name\": \"Rev. Nirbhay Chopra\",\n      \"email\": \"nirbhay_chopra_rev@hoppe-ratke.org\",\n      \"gender\": \"female\",\n      \"status\": \"active\"\n    },\n    {\n      \"id\": 2905,\n      \"name\": \"Chatura Sethi\",\n      \"email\": \"chatura_sethi@green.name\",\n      \"gender\": \"female\",\n      \"status\": \"active\"\n    },\n    {\n      \"id\": 2904,\n      \"name\": \"Deepan Iyengar\",\n      \"email\": \"iyengar_deepan@carroll.info\",\n      \"gender\": \"female\",\n      \"status\": \"active\"\n    },\n    {\n      \"id\": 2902,\n      \"name\": \"Hiranya Asan\",\n      \"email\": \"asan_hiranya@okon-okeefe.biz\",\n      \"gender\": \"female\",\n      \"status\": \"active\"\n    },\n    {\n      \"id\": 2900,\n      \"name\": \"Ashlesh Khanna\",\n      \"email\": \"ashlesh_khanna@harber.biz\",\n      \"gender\": \"female\",\n      \"status\": \"active\"\n    }\n  ]\n}\n \n"},{"result":{"nanos":1651800,"millis":1.6518,"status":"passed"},"step":{"line":38,"prefix":"*","index":6,"text":"def usersCount = response.data.length"}},{"result":{"nanos":3593700,"millis":3.5937,"status":"passed"},"step":{"line":39,"prefix":"*","index":7,"text":"match usersCount == 20"}}],"executorName":"main","line":31,"name":"Get the list of active users - query param - positive","description":"","durationMillis":144.1305,"startTime":1648889959172,"failed":false,"refId":"[4:31]","endTime":1648889959318,"exampleIndex":-1},{"sectionIndex":4,"stepResults":[{"result":{"nanos":617900,"millis":0.6179,"status":"passed"},"step":{"line":42,"prefix":"*","index":0,"text":"def query = {id:100}"}},{"result":{"nanos":474600,"millis":0.4746,"status":"passed"},"step":{"line":43,"prefix":"Given","index":1,"text":"url baseURL+'public\/v2\/users'"}},{"result":{"nanos":314600,"millis":0.3146,"status":"passed"},"step":{"line":44,"prefix":"And","index":2,"text":"params query"}},{"result":{"nanos":136614700,"millis":136.6147,"status":"passed"},"step":{"line":45,"prefix":"When","index":3,"text":"method GET"},"stepLog":"14:29:19.331 request:\n1 > GET https:\/\/gorest.co.in\/public\/v2\/users?id=100\n1 > Host: gorest.co.in\n1 > Connection: Keep-Alive\n1 > User-Agent: Apache-HttpClient\/4.5.13 (Java\/1.8.0_201)\n1 > Accept-Encoding: gzip,deflate\n\n\n14:29:19.463 response time in milliseconds: 131\n1 < 200\n1 < Server: nginx\n1 < Date: Sat, 02 Apr 2022 08:59:19 GMT\n1 < Content-Type: application\/json; charset=utf-8\n1 < Transfer-Encoding: chunked\n1 < Connection: keep-alive\n1 < Vary: Accept-Encoding\n1 < Vary: Origin\n1 < X-Frame-Options: SAMEORIGIN\n1 < X-XSS-Protection: 0\n1 < X-Content-Type-Options: nosniff\n1 < X-Download-Options: noopen\n1 < X-Permitted-Cross-Domain-Policies: none\n1 < Referrer-Policy: strict-origin-when-cross-origin\n1 < X-Pagination-Total: 0\n1 < X-Pagination-Pages: 0\n1 < X-Pagination-Page: 1\n1 < X-Pagination-Limit: 20\n1 < ETag: W\/\"4f53cda18c2baa0c0354bb5f9a3ecbe5\"\n1 < Cache-Control: max-age=0, private, must-revalidate\n1 < X-Request-Id: ca1ce7ee-af5a-450f-a1df-c117d7ae3e9c\n1 < X-Runtime: 0.004924\n1 < Strict-Transport-Security: max-age=63072000; includeSubDomains\n[]\n"},{"result":{"nanos":31900,"millis":0.0319,"status":"passed"},"step":{"line":46,"prefix":"Then","index":4,"text":"status 200"}},{"result":{"nanos":1480800,"millis":1.4808,"status":"passed"},"step":{"line":47,"prefix":"*","index":5,"text":"print response"},"stepLog":"14:29:19.467 [print] [\n]\n \n"},{"result":{"nanos":1453700,"millis":1.4537,"status":"passed"},"step":{"line":48,"prefix":"*","index":6,"text":"def userdetail = response"}},{"result":{"nanos":1501600,"millis":1.5016,"status":"passed"},"step":{"line":49,"prefix":"*","index":7,"text":"match userdetail == []"}}],"executorName":"main","line":41,"name":"Get the user details - query param - negative","description":"","durationMillis":142.4898,"startTime":1648889959326,"failed":false,"refId":"[5:41]","endTime":1648889959474,"exampleIndex":-1}],"callDepth":0,"name":"GET API Automation","description":"","resultDate":"2022-04-02 02:29:19 PM","durationMillis":1847.2498,"passedCount":5}