{"failedCount":2,"prefixedPath":"src\/test\/java\/feature\/GET_API_Demo.feature","packageQualifiedName":"src.test.java.feature.GET_API_Demo","loopIndex":-1,"relativePath":"src\/test\/java\/feature\/GET_API_Demo.feature","scenarioResults":[{"sectionIndex":0,"stepResults":[{"result":{"nanos":21148400,"millis":21.1484,"status":"passed"},"step":{"line":4,"prefix":"Given","index":0,"text":"url baseURL+'public\/v2\/users'"}},{"result":{"nanos":998100,"millis":0.9981,"status":"passed"},"step":{"line":5,"prefix":"And","index":1,"text":"path '100'"}},{"result":{"nanos":1418895500,"millis":1418.8955,"status":"passed"},"step":{"line":6,"prefix":"When","index":2,"text":"method GET"},"stepLog":"12:44:39.355 request:\n1 > GET https:\/\/gorest.co.in\/public\/v2\/users\/100\n1 > Host: gorest.co.in\n1 > Connection: Keep-Alive\n1 > User-Agent: Apache-HttpClient\/4.5.13 (Java\/1.8.0_201)\n1 > Accept-Encoding: gzip,deflate\n\n\n12:44:39.799 response time in milliseconds: 437\n1 < 200\n1 < Server: nginx\n1 < Date: Sun, 03 Apr 2022 07:14:40 GMT\n1 < Content-Type: application\/json; charset=utf-8\n1 < Transfer-Encoding: chunked\n1 < Connection: keep-alive\n1 < Vary: Accept-Encoding\n1 < Vary: Origin\n1 < X-Frame-Options: SAMEORIGIN\n1 < X-XSS-Protection: 0\n1 < X-Content-Type-Options: nosniff\n1 < X-Download-Options: noopen\n1 < X-Permitted-Cross-Domain-Policies: none\n1 < Referrer-Policy: strict-origin-when-cross-origin\n1 < ETag: W\/\"60d2850fc18b31e2eea07ccab97d3f4d\"\n1 < Cache-Control: max-age=0, private, must-revalidate\n1 < X-Request-Id: bb8bd21d-70c4-471f-a7c3-f27a1c7fec63\n1 < X-Runtime: 0.003538\n1 < Strict-Transport-Security: max-age=63072000; includeSubDomains\n{\"id\":100,\"name\":\"Atreyee Kocchar\",\"email\":\"kocchar_atreyee@goldner.com\",\"gender\":\"female\",\"status\":\"inactive\"}\n"},{"result":{"nanos":291900,"millis":0.2919,"status":"passed"},"step":{"line":7,"prefix":"Then","index":3,"text":"status 200"}},{"result":{"nanos":33893900,"millis":33.8939,"status":"passed"},"step":{"line":8,"prefix":"*","index":4,"text":"print response"},"stepLog":"12:44:39.940 [print] {\n  \"id\": 100,\n  \"name\": \"Atreyee Kocchar\",\n  \"email\": \"kocchar_atreyee@goldner.com\",\n  \"gender\": \"female\",\n  \"status\": \"inactive\"\n}\n \n"},{"result":{"nanos":8735700,"millis":8.7357,"status":"passed"},"step":{"line":9,"prefix":"*","index":5,"text":"def jsonResponse = response"}},{"result":{"nanos":3228700,"millis":3.2287,"status":"passed"},"step":{"line":10,"prefix":"*","index":6,"text":"print jsonResponse.name"},"stepLog":"12:44:39.954 [print] Atreyee Kocchar \n"},{"result":{"nanos":2973600,"millis":2.9736,"status":"passed"},"step":{"line":11,"prefix":"*","index":7,"text":"def actualName = jsonResponse.name"}},{"result":{"nanos":25947900,"errorMessage":"match failed: EQUALS\n  $ | not equal (STRING:STRING)\n  'Atreyee Kocchar'\n  'Lal Guneta'\n\nsrc\/test\/java\/feature\/GET_API_Demo.feature:12","millis":25.9479,"status":"failed"},"step":{"line":12,"prefix":"*","index":8,"text":"match actualName == \"Lal Guneta\""},"stepLog":"12:44:39.985 src\/test\/java\/feature\/GET_API_Demo.feature:12\n* match actualName == \"Lal Guneta\"\nmatch failed: EQUALS\n  $ | not equal (STRING:STRING)\n  'Atreyee Kocchar'\n  'Lal Guneta'\n\nsrc\/test\/java\/feature\/GET_API_Demo.feature:12\n"}],"line":3,"description":"","durationMillis":1516.1137,"failed":true,"error":"match failed: EQUALS\n  $ | not equal (STRING:STRING)\n  'Atreyee Kocchar'\n  'Lal Guneta'\n\nsrc\/test\/java\/feature\/GET_API_Demo.feature:12","executorName":"main","name":"Get the user details - path param - positive","startTime":1648970078117,"refId":"[1:3]","endTime":1648970079985,"exampleIndex":-1},{"sectionIndex":1,"stepResults":[{"result":{"nanos":945100,"millis":0.9451,"status":"passed"},"step":{"line":15,"prefix":"Given","index":0,"text":"url 'https:\/\/gorest.co.in\/public\/v2\/users'"}},{"result":{"nanos":707800,"millis":0.7078,"status":"passed"},"step":{"line":16,"prefix":"And","index":1,"text":"path '2'"}},{"result":{"nanos":161439900,"millis":161.4399,"status":"passed"},"step":{"line":17,"prefix":"When","index":2,"text":"method GET"},"stepLog":"12:44:40.011 request:\n1 > GET https:\/\/gorest.co.in\/public\/v2\/users\/2\n1 > Host: gorest.co.in\n1 > Connection: Keep-Alive\n1 > User-Agent: Apache-HttpClient\/4.5.13 (Java\/1.8.0_201)\n1 > Accept-Encoding: gzip,deflate\n\n\n12:44:40.168 response time in milliseconds: 156\n1 < 404\n1 < Server: nginx\n1 < Date: Sun, 03 Apr 2022 07:14:41 GMT\n1 < Content-Type: application\/json; charset=utf-8\n1 < Transfer-Encoding: chunked\n1 < Connection: keep-alive\n1 < Vary: Accept-Encoding\n1 < Vary: Origin\n1 < X-Frame-Options: SAMEORIGIN\n1 < X-XSS-Protection: 0\n1 < X-Content-Type-Options: nosniff\n1 < X-Download-Options: noopen\n1 < X-Permitted-Cross-Domain-Policies: none\n1 < Referrer-Policy: strict-origin-when-cross-origin\n1 < Cache-Control: no-cache\n1 < X-Request-Id: c5e9a2bd-f1ce-4d41-941c-0bc5bcd92280\n1 < X-Runtime: 0.004246\n1 < Strict-Transport-Security: max-age=63072000; includeSubDomains\n{\"message\":\"Resource not found\"}\n"},{"result":{"nanos":32700,"millis":0.0327,"status":"passed"},"step":{"line":18,"prefix":"Then","index":3,"text":"status 404"}},{"result":{"nanos":1653000,"millis":1.653,"status":"passed"},"step":{"line":19,"prefix":"*","index":4,"text":"print response"},"stepLog":"12:44:40.172 [print] {\n  \"message\": \"Resource not found\"\n}\n \n"},{"result":{"nanos":1424800,"millis":1.4248,"status":"passed"},"step":{"line":20,"prefix":"*","index":5,"text":"def jsonResponse = response"}},{"result":{"nanos":3307100,"millis":3.3071,"status":"passed"},"step":{"line":21,"prefix":"*","index":6,"text":"print jsonResponse.message"},"stepLog":"12:44:40.177 [print] Resource not found \n"}],"executorName":"main","line":14,"name":"Get the user details - path param - negative","description":"","durationMillis":169.5104,"startTime":1648970080004,"failed":false,"refId":"[2:14]","endTime":1648970080178,"exampleIndex":-1},{"sectionIndex":2,"stepResults":[{"result":{"nanos":71825300,"millis":71.8253,"status":"passed"},"step":{"line":24,"prefix":"*","index":0,"text":"def query = {id:100}"}},{"result":{"nanos":2665100,"millis":2.6651,"status":"passed"},"step":{"line":25,"prefix":"Given","index":1,"text":"url baseURL+'public\/v2\/users'"}},{"result":{"nanos":7953000,"millis":7.953,"status":"passed"},"step":{"line":26,"prefix":"And","index":2,"text":"params query"}},{"result":{"nanos":171706000,"millis":171.706,"status":"passed"},"step":{"line":27,"prefix":"When","index":3,"text":"method GET"},"stepLog":"12:44:40.327 request:\n1 > GET https:\/\/gorest.co.in\/public\/v2\/users?id=100\n1 > Host: gorest.co.in\n1 > Connection: Keep-Alive\n1 > User-Agent: Apache-HttpClient\/4.5.13 (Java\/1.8.0_201)\n1 > Accept-Encoding: gzip,deflate\n\n\n12:44:40.485 response time in milliseconds: 156\n1 < 200\n1 < Server: nginx\n1 < Date: Sun, 03 Apr 2022 07:14:41 GMT\n1 < Content-Type: application\/json; charset=utf-8\n1 < Transfer-Encoding: chunked\n1 < Connection: keep-alive\n1 < Vary: Accept-Encoding\n1 < Vary: Origin\n1 < X-Frame-Options: SAMEORIGIN\n1 < X-XSS-Protection: 0\n1 < X-Content-Type-Options: nosniff\n1 < X-Download-Options: noopen\n1 < X-Permitted-Cross-Domain-Policies: none\n1 < Referrer-Policy: strict-origin-when-cross-origin\n1 < X-Pagination-Total: 1\n1 < X-Pagination-Pages: 1\n1 < X-Pagination-Page: 1\n1 < X-Pagination-Limit: 20\n1 < X-Links-Previous: \n1 < X-Links-Current: https:\/\/gorest.co.in\/public\/v2\/users?page=1\n1 < X-Links-Next: \n1 < ETag: W\/\"3c0af39ef0e8218d62e8dd669d0aebc4\"\n1 < Cache-Control: max-age=0, private, must-revalidate\n1 < X-Request-Id: 46ef348f-9f68-42ba-b60a-3299071ab51d\n1 < X-Runtime: 0.005513\n1 < Strict-Transport-Security: max-age=63072000; includeSubDomains\n[{\"id\":100,\"name\":\"Atreyee Kocchar\",\"email\":\"kocchar_atreyee@goldner.com\",\"gender\":\"female\",\"status\":\"inactive\"}]\n"},{"result":{"nanos":22300,"millis":0.0223,"status":"passed"},"step":{"line":28,"prefix":"Then","index":4,"text":"status 200"}},{"result":{"nanos":2160300,"millis":2.1603,"status":"passed"},"step":{"line":29,"prefix":"*","index":5,"text":"print response"},"stepLog":"12:44:40.491 [print] [\n  {\n    \"id\": 100,\n    \"name\": \"Atreyee Kocchar\",\n    \"email\": \"kocchar_atreyee@goldner.com\",\n    \"gender\": \"female\",\n    \"status\": \"inactive\"\n  }\n]\n \n"}],"executorName":"main","line":23,"name":"Get the user details - query param - positive","description":"","durationMillis":256.332,"startTime":1648970080219,"failed":false,"refId":"[3:23]","endTime":1648970080491,"exampleIndex":-1},{"sectionIndex":3,"stepResults":[{"result":{"nanos":1587500,"millis":1.5875,"status":"passed"},"step":{"line":32,"prefix":"*","index":0,"text":"def query = {status:'active'}"}},{"result":{"nanos":2873600,"millis":2.8736,"status":"passed"},"step":{"line":33,"prefix":"Given","index":1,"text":"url baseURL+'public\/v1\/users'"}},{"result":{"nanos":448900,"millis":0.4489,"status":"passed"},"step":{"line":34,"prefix":"And","index":2,"text":"params query"}},{"result":{"nanos":199215600,"millis":199.2156,"status":"passed"},"step":{"line":35,"prefix":"When","index":3,"text":"method GET"},"stepLog":"12:44:40.541 request:\n1 > GET https:\/\/gorest.co.in\/public\/v1\/users?status=active\n1 > Host: gorest.co.in\n1 > Connection: Keep-Alive\n1 > User-Agent: Apache-HttpClient\/4.5.13 (Java\/1.8.0_201)\n1 > Accept-Encoding: gzip,deflate\n\n\n12:44:40.729 response time in milliseconds: 186\n1 < 200\n1 < Server: nginx\n1 < Date: Sun, 03 Apr 2022 07:14:41 GMT\n1 < Content-Type: application\/json; charset=utf-8\n1 < Transfer-Encoding: chunked\n1 < Connection: keep-alive\n1 < Vary: Accept-Encoding\n1 < Vary: Origin\n1 < X-Frame-Options: SAMEORIGIN\n1 < X-XSS-Protection: 0\n1 < X-Content-Type-Options: nosniff\n1 < X-Download-Options: noopen\n1 < X-Permitted-Cross-Domain-Policies: none\n1 < Referrer-Policy: strict-origin-when-cross-origin\n1 < ETag: W\/\"3910855ff025b1acb3cd3ae35315e307\"\n1 < Cache-Control: max-age=0, private, must-revalidate\n1 < X-Request-Id: d0454eb0-2578-4390-a1fd-399e5f6dd293\n1 < X-Runtime: 0.010402\n1 < Strict-Transport-Security: max-age=63072000; includeSubDomains\n{\"meta\":{\"pagination\":{\"total\":1789,\"pages\":90,\"page\":1,\"limit\":20,\"links\":{\"previous\":null,\"current\":\"https:\/\/gorest.co.in\/public\/v1\/users?page=1\",\"next\":\"https:\/\/gorest.co.in\/public\/v1\/users?page=2\"}}},\"data\":[{\"id\":3655,\"name\":\"Msgr. Chitrali Bhattacharya\",\"email\":\"msgr_bhattacharya_chitrali@larson.biz\",\"gender\":\"female\",\"status\":\"active\"},{\"id\":3654,\"name\":\"Tara Sinha\",\"email\":\"sinha_tara@huel-okuneva.io\",\"gender\":\"female\",\"status\":\"active\"},{\"id\":3652,\"name\":\"Deeptendu Johar\",\"email\":\"deeptendu_johar@murphy.org\",\"gender\":\"male\",\"status\":\"active\"},{\"id\":3651,\"name\":\"Chaitan Mukhopadhyay\",\"email\":\"chaitan_mukhopadhyay@graham.net\",\"gender\":\"female\",\"status\":\"active\"},{\"id\":3650,\"name\":\"Lakshminath Kocchar DDS\",\"email\":\"dds_kocchar_lakshminath@adams-stehr.co\",\"gender\":\"male\",\"status\":\"active\"},{\"id\":3649,\"name\":\"Bhima Nayar\",\"email\":\"bhima_nayar@ebert-nienow.co\",\"gender\":\"male\",\"status\":\"active\"},{\"id\":3648,\"name\":\"Aishani Talwar\",\"email\":\"talwar_aishani@kunde.biz\",\"gender\":\"male\",\"status\":\"active\"},{\"id\":3646,\"name\":\"Chandan Chaturvedi\",\"email\":\"chaturvedi_chandan@bauch.org\",\"gender\":\"male\",\"status\":\"active\"},{\"id\":3644,\"name\":\"Mr. Jaya Jha\",\"email\":\"jaya_jha_mr@wolf.biz\",\"gender\":\"male\",\"status\":\"active\"},{\"id\":3641,\"name\":\"Dakshayani Dwivedi VM\",\"email\":\"dakshayani_vm_dwivedi@hegmann-barrows.name\",\"gender\":\"female\",\"status\":\"active\"},{\"id\":3638,\"name\":\"Dwaipayan Pothuvaal\",\"email\":\"pothuvaal_dwaipayan@rowe.com\",\"gender\":\"male\",\"status\":\"active\"},{\"id\":3636,\"name\":\"Ms. Rahul Tagore\",\"email\":\"rahul_tagore_ms@borer.io\",\"gender\":\"female\",\"status\":\"active\"},{\"id\":3632,\"name\":\"Chaten Mukhopadhyay Sr.\",\"email\":\"chaten_sr_mukhopadhyay@hartmann.io\",\"gender\":\"female\",\"status\":\"active\"},{\"id\":3631,\"name\":\"Dhanpati Asan III\",\"email\":\"asan_dhanpati_iii@breitenberg-stehr.com\",\"gender\":\"male\",\"status\":\"active\"},{\"id\":3629,\"name\":\"Mr. Javas Varma\",\"email\":\"javas_mr_varma@olson.org\",\"gender\":\"female\",\"status\":\"active\"},{\"id\":3625,\"name\":\"Bhardwaj Nair DC\",\"email\":\"bhardwaj_nair_dc@koelpin-deckow.net\",\"gender\":\"female\",\"status\":\"active\"},{\"id\":3624,\"name\":\"Dayaananda Mishra\",\"email\":\"mishra_dayaananda@kerluke.info\",\"gender\":\"male\",\"status\":\"active\"},{\"id\":3621,\"name\":\"Dhruv Pothuvaal JD\",\"email\":\"dhruv_jd_pothuvaal@baumbach.net\",\"gender\":\"female\",\"status\":\"active\"},{\"id\":3619,\"name\":\"Anala Somayaji\",\"email\":\"somayaji_anala@kuhn.io\",\"gender\":\"male\",\"status\":\"active\"},{\"id\":3617,\"name\":\"Anaadi Dwivedi LLD\",\"email\":\"anaadi_dwivedi_lld@fahey-spinka.org\",\"gender\":\"female\",\"status\":\"active\"}]}\n"},{"result":{"nanos":30900,"millis":0.0309,"status":"passed"},"step":{"line":36,"prefix":"Then","index":4,"text":"status 200"}},{"result":{"nanos":8882800,"millis":8.8828,"status":"passed"},"step":{"line":37,"prefix":"*","index":5,"text":"print response"},"stepLog":"12:44:40.743 [print] {\n  \"meta\": {\n    \"pagination\": {\n      \"total\": 1789,\n      \"pages\": 90,\n      \"page\": 1,\n      \"limit\": 20,\n      \"links\": {\n        \"previous\": null,\n        \"current\": \"https:\/\/gorest.co.in\/public\/v1\/users?page=1\",\n        \"next\": \"https:\/\/gorest.co.in\/public\/v1\/users?page=2\"\n      }\n    }\n  },\n  \"data\": [\n    {\n      \"id\": 3655,\n      \"name\": \"Msgr. Chitrali Bhattacharya\",\n      \"email\": \"msgr_bhattacharya_chitrali@larson.biz\",\n      \"gender\": \"female\",\n      \"status\": \"active\"\n    },\n    {\n      \"id\": 3654,\n      \"name\": \"Tara Sinha\",\n      \"email\": \"sinha_tara@huel-okuneva.io\",\n      \"gender\": \"female\",\n      \"status\": \"active\"\n    },\n    {\n      \"id\": 3652,\n      \"name\": \"Deeptendu Johar\",\n      \"email\": \"deeptendu_johar@murphy.org\",\n      \"gender\": \"male\",\n      \"status\": \"active\"\n    },\n    {\n      \"id\": 3651,\n      \"name\": \"Chaitan Mukhopadhyay\",\n      \"email\": \"chaitan_mukhopadhyay@graham.net\",\n      \"gender\": \"female\",\n      \"status\": \"active\"\n    },\n    {\n      \"id\": 3650,\n      \"name\": \"Lakshminath Kocchar DDS\",\n      \"email\": \"dds_kocchar_lakshminath@adams-stehr.co\",\n      \"gender\": \"male\",\n      \"status\": \"active\"\n    },\n    {\n      \"id\": 3649,\n      \"name\": \"Bhima Nayar\",\n      \"email\": \"bhima_nayar@ebert-nienow.co\",\n      \"gender\": \"male\",\n      \"status\": \"active\"\n    },\n    {\n      \"id\": 3648,\n      \"name\": \"Aishani Talwar\",\n      \"email\": \"talwar_aishani@kunde.biz\",\n      \"gender\": \"male\",\n      \"status\": \"active\"\n    },\n    {\n      \"id\": 3646,\n      \"name\": \"Chandan Chaturvedi\",\n      \"email\": \"chaturvedi_chandan@bauch.org\",\n      \"gender\": \"male\",\n      \"status\": \"active\"\n    },\n    {\n      \"id\": 3644,\n      \"name\": \"Mr. Jaya Jha\",\n      \"email\": \"jaya_jha_mr@wolf.biz\",\n      \"gender\": \"male\",\n      \"status\": \"active\"\n    },\n    {\n      \"id\": 3641,\n      \"name\": \"Dakshayani Dwivedi VM\",\n      \"email\": \"dakshayani_vm_dwivedi@hegmann-barrows.name\",\n      \"gender\": \"female\",\n      \"status\": \"active\"\n    },\n    {\n      \"id\": 3638,\n      \"name\": \"Dwaipayan Pothuvaal\",\n      \"email\": \"pothuvaal_dwaipayan@rowe.com\",\n      \"gender\": \"male\",\n      \"status\": \"active\"\n    },\n    {\n      \"id\": 3636,\n      \"name\": \"Ms. Rahul Tagore\",\n      \"email\": \"rahul_tagore_ms@borer.io\",\n      \"gender\": \"female\",\n      \"status\": \"active\"\n    },\n    {\n      \"id\": 3632,\n      \"name\": \"Chaten Mukhopadhyay Sr.\",\n      \"email\": \"chaten_sr_mukhopadhyay@hartmann.io\",\n      \"gender\": \"female\",\n      \"status\": \"active\"\n    },\n    {\n      \"id\": 3631,\n      \"name\": \"Dhanpati Asan III\",\n      \"email\": \"asan_dhanpati_iii@breitenberg-stehr.com\",\n      \"gender\": \"male\",\n      \"status\": \"active\"\n    },\n    {\n      \"id\": 3629,\n      \"name\": \"Mr. Javas Varma\",\n      \"email\": \"javas_mr_varma@olson.org\",\n      \"gender\": \"female\",\n      \"status\": \"active\"\n    },\n    {\n      \"id\": 3625,\n      \"name\": \"Bhardwaj Nair DC\",\n      \"email\": \"bhardwaj_nair_dc@koelpin-deckow.net\",\n      \"gender\": \"female\",\n      \"status\": \"active\"\n    },\n    {\n      \"id\": 3624,\n      \"name\": \"Dayaananda Mishra\",\n      \"email\": \"mishra_dayaananda@kerluke.info\",\n      \"gender\": \"male\",\n      \"status\": \"active\"\n    },\n    {\n      \"id\": 3621,\n      \"name\": \"Dhruv Pothuvaal JD\",\n      \"email\": \"dhruv_jd_pothuvaal@baumbach.net\",\n      \"gender\": \"female\",\n      \"status\": \"active\"\n    },\n    {\n      \"id\": 3619,\n      \"name\": \"Anala Somayaji\",\n      \"email\": \"somayaji_anala@kuhn.io\",\n      \"gender\": \"male\",\n      \"status\": \"active\"\n    },\n    {\n      \"id\": 3617,\n      \"name\": \"Anaadi Dwivedi LLD\",\n      \"email\": \"anaadi_dwivedi_lld@fahey-spinka.org\",\n      \"gender\": \"female\",\n      \"status\": \"active\"\n    }\n  ]\n}\n \n"},{"result":{"nanos":6312400,"millis":6.3124,"status":"passed"},"step":{"line":38,"prefix":"*","index":6,"text":"def usersCount = response.data.length"}},{"result":{"nanos":6890400,"millis":6.8904,"status":"passed"},"step":{"line":39,"prefix":"*","index":7,"text":"match usersCount == 20"}}],"executorName":"main","line":31,"name":"Get the list of active users - query param - positive","description":"","durationMillis":226.2421,"startTime":1648970080526,"failed":false,"refId":"[4:31]","endTime":1648970080757,"exampleIndex":-1},{"sectionIndex":4,"stepResults":[{"result":{"nanos":9546300,"millis":9.5463,"status":"passed"},"step":{"line":42,"prefix":"*","index":0,"text":"def query = {id:100}"}},{"result":{"nanos":1287300,"millis":1.2873,"status":"passed"},"step":{"line":43,"prefix":"Given","index":1,"text":"url baseURL+'public\/v2\/users'"}},{"result":{"nanos":2881900,"millis":2.8819,"status":"passed"},"step":{"line":44,"prefix":"And","index":2,"text":"params query"}},{"result":{"nanos":152777700,"millis":152.7777,"status":"passed"},"step":{"line":45,"prefix":"When","index":3,"text":"method GET"},"stepLog":"12:44:40.818 request:\n1 > GET https:\/\/gorest.co.in\/public\/v2\/users?id=100\n1 > Host: gorest.co.in\n1 > Connection: Keep-Alive\n1 > User-Agent: Apache-HttpClient\/4.5.13 (Java\/1.8.0_201)\n1 > Accept-Encoding: gzip,deflate\n\n\n12:44:40.961 response time in milliseconds: 142\n1 < 200\n1 < Server: nginx\n1 < Date: Sun, 03 Apr 2022 07:14:41 GMT\n1 < Content-Type: application\/json; charset=utf-8\n1 < Transfer-Encoding: chunked\n1 < Connection: keep-alive\n1 < Vary: Accept-Encoding\n1 < Vary: Origin\n1 < X-Frame-Options: SAMEORIGIN\n1 < X-XSS-Protection: 0\n1 < X-Content-Type-Options: nosniff\n1 < X-Download-Options: noopen\n1 < X-Permitted-Cross-Domain-Policies: none\n1 < Referrer-Policy: strict-origin-when-cross-origin\n1 < X-Pagination-Total: 1\n1 < X-Pagination-Pages: 1\n1 < X-Pagination-Page: 1\n1 < X-Pagination-Limit: 20\n1 < X-Links-Previous: \n1 < X-Links-Current: https:\/\/gorest.co.in\/public\/v2\/users?page=1\n1 < X-Links-Next: \n1 < ETag: W\/\"3c0af39ef0e8218d62e8dd669d0aebc4\"\n1 < Cache-Control: max-age=0, private, must-revalidate\n1 < X-Request-Id: b2a2115d-8ccc-473b-86df-5841323e3478\n1 < X-Runtime: 0.006116\n1 < Strict-Transport-Security: max-age=63072000; includeSubDomains\n[{\"id\":100,\"name\":\"Atreyee Kocchar\",\"email\":\"kocchar_atreyee@goldner.com\",\"gender\":\"female\",\"status\":\"inactive\"}]\n"},{"result":{"nanos":18400,"millis":0.0184,"status":"passed"},"step":{"line":46,"prefix":"Then","index":4,"text":"status 200"}},{"result":{"nanos":930700,"millis":0.9307,"status":"passed"},"step":{"line":47,"prefix":"*","index":5,"text":"print response"},"stepLog":"12:44:40.964 [print] [\n  {\n    \"id\": 100,\n    \"name\": \"Atreyee Kocchar\",\n    \"email\": \"kocchar_atreyee@goldner.com\",\n    \"gender\": \"female\",\n    \"status\": \"inactive\"\n  }\n]\n \n"},{"result":{"nanos":397200,"millis":0.3972,"status":"passed"},"step":{"line":48,"prefix":"*","index":6,"text":"def userdetail = response"}},{"result":{"nanos":1583600,"errorMessage":"match failed: EQUALS\n  $ | not equal | actual array length is not equal to expected - 1:0 (LIST:LIST)\n  [{\"id\":100,\"name\":\"Atreyee Kocchar\",\"email\":\"kocchar_atreyee@goldner.com\",\"gender\":\"female\",\"status\":\"inactive\"}]\n  []\n\n\nsrc\/test\/java\/feature\/GET_API_Demo.feature:49","millis":1.5836,"status":"failed"},"step":{"line":49,"prefix":"*","index":7,"text":"match userdetail == []"},"stepLog":"12:44:40.966 src\/test\/java\/feature\/GET_API_Demo.feature:49\n* match userdetail == []\nmatch failed: EQUALS\n  $ | not equal | actual array length is not equal to expected - 1:0 (LIST:LIST)\n  [{\"id\":100,\"name\":\"Atreyee Kocchar\",\"email\":\"kocchar_atreyee@goldner.com\",\"gender\":\"female\",\"status\":\"inactive\"}]\n  []\n\n\nsrc\/test\/java\/feature\/GET_API_Demo.feature:49\n"}],"line":41,"description":"","durationMillis":169.4231,"failed":true,"error":"match failed: EQUALS\n  $ | not equal | actual array length is not equal to expected - 1:0 (LIST:LIST)\n  [{\"id\":100,\"name\":\"Atreyee Kocchar\",\"email\":\"kocchar_atreyee@goldner.com\",\"gender\":\"female\",\"status\":\"inactive\"}]\n  []\n\n\nsrc\/test\/java\/feature\/GET_API_Demo.feature:49","executorName":"main","name":"Get the user details - query param - negative","startTime":1648970080789,"refId":"[5:41]","endTime":1648970080966,"exampleIndex":-1},{"sectionIndex":5,"stepResults":[{"result":{"nanos":814300,"millis":0.8143,"status":"passed"},"step":{"line":52,"prefix":"Given","index":0,"text":"header Content-Tpye = 'application\/json; charset=utf-8'"}},{"result":{"nanos":316700,"millis":0.3167,"status":"passed"},"step":{"line":53,"prefix":"When","index":1,"text":"url baseURL+'public\/v2\/users'"}},{"result":{"nanos":595700,"millis":0.5957,"status":"passed"},"step":{"line":54,"prefix":"And","index":2,"text":"path '100'"}},{"result":{"nanos":154325400,"millis":154.3254,"status":"passed"},"step":{"line":55,"prefix":"And","index":3,"text":"method GET"},"stepLog":"12:44:40.989 request:\n1 > GET https:\/\/gorest.co.in\/public\/v2\/users\/100\n1 > Content-Tpye: application\/json; charset=utf-8\n1 > Host: gorest.co.in\n1 > Connection: Keep-Alive\n1 > User-Agent: Apache-HttpClient\/4.5.13 (Java\/1.8.0_201)\n1 > Accept-Encoding: gzip,deflate\n\n\n12:44:41.138 response time in milliseconds: 148\n1 < 200\n1 < Server: nginx\n1 < Date: Sun, 03 Apr 2022 07:14:42 GMT\n1 < Content-Type: application\/json; charset=utf-8\n1 < Transfer-Encoding: chunked\n1 < Connection: keep-alive\n1 < Vary: Accept-Encoding\n1 < Vary: Origin\n1 < X-Frame-Options: SAMEORIGIN\n1 < X-XSS-Protection: 0\n1 < X-Content-Type-Options: nosniff\n1 < X-Download-Options: noopen\n1 < X-Permitted-Cross-Domain-Policies: none\n1 < Referrer-Policy: strict-origin-when-cross-origin\n1 < ETag: W\/\"60d2850fc18b31e2eea07ccab97d3f4d\"\n1 < Cache-Control: max-age=0, private, must-revalidate\n1 < X-Request-Id: ec539592-48c9-4c6b-8692-622d6243352b\n1 < X-Runtime: 0.004366\n1 < Strict-Transport-Security: max-age=63072000; includeSubDomains\n{\"id\":100,\"name\":\"Atreyee Kocchar\",\"email\":\"kocchar_atreyee@goldner.com\",\"gender\":\"female\",\"status\":\"inactive\"}\n"},{"result":{"nanos":29500,"millis":0.0295,"status":"passed"},"step":{"line":56,"prefix":"Then","index":4,"text":"status 200"}},{"result":{"nanos":1779500,"millis":1.7795,"status":"passed"},"step":{"line":57,"prefix":"*","index":5,"text":"print response"},"stepLog":"12:44:41.142 [print] {\n  \"id\": 100,\n  \"name\": \"Atreyee Kocchar\",\n  \"email\": \"kocchar_atreyee@goldner.com\",\n  \"gender\": \"female\",\n  \"status\": \"inactive\"\n}\n \n"}],"executorName":"main","line":51,"name":"Get the user details - with headers - type 1","description":"","durationMillis":157.8611,"startTime":1648970080973,"failed":false,"refId":"[6:51]","endTime":1648970081142,"exampleIndex":-1}],"callDepth":0,"name":"GET API Automation","description":"","resultDate":"2022-04-03 12:44:41 PM","durationMillis":2495.4824,"passedCount":4}