{"failedCount":0,"prefixedPath":"src\/test\/java\/feature\/GET_API_Demo.feature","packageQualifiedName":"src.test.java.feature.GET_API_Demo","loopIndex":-1,"relativePath":"src\/test\/java\/feature\/GET_API_Demo.feature","scenarioResults":[{"sectionIndex":0,"stepResults":[{"result":{"nanos":15487000,"millis":15.487,"status":"passed"},"step":{"line":4,"prefix":"Given","index":0,"text":"url baseURL+'public\/v2\/users'"}},{"result":{"nanos":886900,"millis":0.8869,"status":"passed"},"step":{"line":5,"prefix":"And","index":1,"text":"path '2'"}},{"result":{"nanos":1398315000,"millis":1398.315,"status":"passed"},"step":{"line":6,"prefix":"When","index":2,"text":"method GET"},"stepLog":"14:21:37.184 request:\n1 > GET https:\/\/gorest.co.in\/public\/v2\/users\/2\n1 > Host: gorest.co.in\n1 > Connection: Keep-Alive\n1 > User-Agent: Apache-HttpClient\/4.5.13 (Java\/1.8.0_201)\n1 > Accept-Encoding: gzip,deflate\n\n\n14:21:37.686 response time in milliseconds: 498\n1 < 200\n1 < Server: nginx\n1 < Date: Sat, 02 Apr 2022 08:51:38 GMT\n1 < Content-Type: application\/json; charset=utf-8\n1 < Transfer-Encoding: chunked\n1 < Connection: keep-alive\n1 < Vary: Accept-Encoding\n1 < Vary: Origin\n1 < X-Frame-Options: SAMEORIGIN\n1 < X-XSS-Protection: 0\n1 < X-Content-Type-Options: nosniff\n1 < X-Download-Options: noopen\n1 < X-Permitted-Cross-Domain-Policies: none\n1 < Referrer-Policy: strict-origin-when-cross-origin\n1 < ETag: W\/\"ee52f7ecb245c152bfe1be2d492c2cc8\"\n1 < Cache-Control: max-age=0, private, must-revalidate\n1 < X-Request-Id: 9898bee0-7534-4547-a76b-e73ff36fe8a9\n1 < X-Runtime: 0.005165\n1 < Strict-Transport-Security: max-age=63072000; includeSubDomains\n{\"id\":2,\"name\":\"Lal Guneta\",\"email\":\"lal_guneta@auer-harris.io\",\"gender\":\"female\",\"status\":\"inactive\"}\n"},{"result":{"nanos":24900,"millis":0.0249,"status":"passed"},"step":{"line":7,"prefix":"Then","index":3,"text":"status 200"}},{"result":{"nanos":20470400,"millis":20.4704,"status":"passed"},"step":{"line":8,"prefix":"*","index":4,"text":"print response"},"stepLog":"14:21:37.757 [print] {\n  \"id\": 2,\n  \"name\": \"Lal Guneta\",\n  \"email\": \"lal_guneta@auer-harris.io\",\n  \"gender\": \"female\",\n  \"status\": \"inactive\"\n}\n \n"},{"result":{"nanos":3396700,"millis":3.3967,"status":"passed"},"step":{"line":9,"prefix":"*","index":5,"text":"def jsonResponse = response"}},{"result":{"nanos":1342300,"millis":1.3423,"status":"passed"},"step":{"line":10,"prefix":"*","index":6,"text":"print jsonResponse.name"},"stepLog":"14:21:37.763 [print] Lal Guneta \n"},{"result":{"nanos":941900,"millis":0.9419,"status":"passed"},"step":{"line":11,"prefix":"*","index":7,"text":"def actualName = jsonResponse.name"}},{"result":{"nanos":10559100,"millis":10.5591,"status":"passed"},"step":{"line":12,"prefix":"*","index":8,"text":"match actualName == \"Lal Guneta\""}}],"executorName":"main","line":3,"name":"Get the user details - path param - positive","description":"","durationMillis":1451.4242,"startTime":1648889496023,"failed":false,"refId":"[1:3]","endTime":1648889497775,"exampleIndex":-1},{"sectionIndex":1,"stepResults":[{"result":{"nanos":702800,"millis":0.7028,"status":"passed"},"step":{"line":15,"prefix":"Given","index":0,"text":"url 'https:\/\/gorest.co.in\/public\/v2\/users'"}},{"result":{"nanos":637500,"millis":0.6375,"status":"passed"},"step":{"line":16,"prefix":"And","index":1,"text":"path '100'"}},{"result":{"nanos":145506400,"millis":145.5064,"status":"passed"},"step":{"line":17,"prefix":"When","index":2,"text":"method GET"},"stepLog":"14:21:37.790 request:\n1 > GET https:\/\/gorest.co.in\/public\/v2\/users\/100\n1 > Host: gorest.co.in\n1 > Connection: Keep-Alive\n1 > User-Agent: Apache-HttpClient\/4.5.13 (Java\/1.8.0_201)\n1 > Accept-Encoding: gzip,deflate\n\n\n14:21:37.930 response time in milliseconds: 139\n1 < 404\n1 < Server: nginx\n1 < Date: Sat, 02 Apr 2022 08:51:38 GMT\n1 < Content-Type: application\/json; charset=utf-8\n1 < Transfer-Encoding: chunked\n1 < Connection: keep-alive\n1 < Vary: Accept-Encoding\n1 < Vary: Origin\n1 < X-Frame-Options: SAMEORIGIN\n1 < X-XSS-Protection: 0\n1 < X-Content-Type-Options: nosniff\n1 < X-Download-Options: noopen\n1 < X-Permitted-Cross-Domain-Policies: none\n1 < Referrer-Policy: strict-origin-when-cross-origin\n1 < Cache-Control: no-cache\n1 < X-Request-Id: fd171777-c768-489d-baa3-a6ce518d9950\n1 < X-Runtime: 0.003500\n1 < Strict-Transport-Security: max-age=63072000; includeSubDomains\n{\"message\":\"Resource not found\"}\n"},{"result":{"nanos":23700,"millis":0.0237,"status":"passed"},"step":{"line":18,"prefix":"Then","index":3,"text":"status 404"}},{"result":{"nanos":1522200,"millis":1.5222,"status":"passed"},"step":{"line":19,"prefix":"*","index":4,"text":"print response"},"stepLog":"14:21:37.934 [print] {\n  \"message\": \"Resource not found\"\n}\n \n"},{"result":{"nanos":1055700,"millis":1.0557,"status":"passed"},"step":{"line":20,"prefix":"*","index":5,"text":"def jsonResponse = response"}},{"result":{"nanos":3667800,"millis":3.6678,"status":"passed"},"step":{"line":21,"prefix":"*","index":6,"text":"print jsonResponse.message"},"stepLog":"14:21:37.939 [print] Resource not found \n"}],"executorName":"main","line":14,"name":"Get the user details - path param - negative","description":"","durationMillis":153.1161,"startTime":1648889497785,"failed":false,"refId":"[2:14]","endTime":1648889497940,"exampleIndex":-1},{"sectionIndex":2,"stepResults":[{"result":{"nanos":27682400,"millis":27.6824,"status":"passed"},"step":{"line":24,"prefix":"*","index":0,"text":"def query = {id:2}"}},{"result":{"nanos":418800,"millis":0.4188,"status":"passed"},"step":{"line":25,"prefix":"Given","index":1,"text":"url baseURL+'public\/v2\/users'"}},{"result":{"nanos":3076600,"millis":3.0766,"status":"passed"},"step":{"line":26,"prefix":"And","index":2,"text":"params query"}},{"result":{"nanos":129343300,"millis":129.3433,"status":"passed"},"step":{"line":27,"prefix":"When","index":3,"text":"method GET"},"stepLog":"14:21:37.999 request:\n1 > GET https:\/\/gorest.co.in\/public\/v2\/users?id=2\n1 > Host: gorest.co.in\n1 > Connection: Keep-Alive\n1 > User-Agent: Apache-HttpClient\/4.5.13 (Java\/1.8.0_201)\n1 > Accept-Encoding: gzip,deflate\n\n\n14:21:38.122 response time in milliseconds: 123\n1 < 200\n1 < Server: nginx\n1 < Date: Sat, 02 Apr 2022 08:51:38 GMT\n1 < Content-Type: application\/json; charset=utf-8\n1 < Transfer-Encoding: chunked\n1 < Connection: keep-alive\n1 < Vary: Accept-Encoding\n1 < Vary: Origin\n1 < X-Frame-Options: SAMEORIGIN\n1 < X-XSS-Protection: 0\n1 < X-Content-Type-Options: nosniff\n1 < X-Download-Options: noopen\n1 < X-Permitted-Cross-Domain-Policies: none\n1 < Referrer-Policy: strict-origin-when-cross-origin\n1 < X-Pagination-Total: 1\n1 < X-Pagination-Pages: 1\n1 < X-Pagination-Page: 1\n1 < X-Pagination-Limit: 20\n1 < X-Links-Previous: \n1 < X-Links-Current: https:\/\/gorest.co.in\/public\/v2\/users?page=1\n1 < X-Links-Next: \n1 < ETag: W\/\"853bb519e69e6ae1c0b3b519fbcd9d6e\"\n1 < Cache-Control: max-age=0, private, must-revalidate\n1 < X-Request-Id: bc7f1616-68d2-444e-83d1-24df2fdd8921\n1 < X-Runtime: 0.006416\n1 < Strict-Transport-Security: max-age=63072000; includeSubDomains\n[{\"id\":2,\"name\":\"Lal Guneta\",\"email\":\"lal_guneta@auer-harris.io\",\"gender\":\"female\",\"status\":\"inactive\"}]\n"},{"result":{"nanos":14100,"millis":0.0141,"status":"passed"},"step":{"line":28,"prefix":"Then","index":4,"text":"status 200"}},{"result":{"nanos":805500,"millis":0.8055,"status":"passed"},"step":{"line":29,"prefix":"*","index":5,"text":"print response"},"stepLog":"14:21:38.125 [print] [\n  {\n    \"id\": 2,\n    \"name\": \"Lal Guneta\",\n    \"email\": \"lal_guneta@auer-harris.io\",\n    \"gender\": \"female\",\n    \"status\": \"inactive\"\n  }\n]\n \n"}],"executorName":"main","line":23,"name":"Get the user details - query param - positive","description":"","durationMillis":161.3407,"startTime":1648889497961,"failed":false,"refId":"[3:23]","endTime":1648889498126,"exampleIndex":-1},{"sectionIndex":3,"stepResults":[{"result":{"nanos":593100,"millis":0.5931,"status":"passed"},"step":{"line":32,"prefix":"*","index":0,"text":"def query = {status:'active'}"}},{"result":{"nanos":1166800,"millis":1.1668,"status":"passed"},"step":{"line":34,"prefix":"Given","index":1,"text":"url baseURL+'public\/v1\/users'"}},{"result":{"nanos":729200,"millis":0.7292,"status":"passed"},"step":{"line":35,"prefix":"And","index":2,"text":"params query"}},{"result":{"nanos":141046100,"millis":141.0461,"status":"passed"},"step":{"line":36,"prefix":"When","index":3,"text":"method GET"},"stepLog":"14:21:38.153 request:\n1 > GET https:\/\/gorest.co.in\/public\/v1\/users?status=active\n1 > Host: gorest.co.in\n1 > Connection: Keep-Alive\n1 > User-Agent: Apache-HttpClient\/4.5.13 (Java\/1.8.0_201)\n1 > Accept-Encoding: gzip,deflate\n\n\n14:21:38.290 response time in milliseconds: 137\n1 < 200\n1 < Server: nginx\n1 < Date: Sat, 02 Apr 2022 08:51:38 GMT\n1 < Content-Type: application\/json; charset=utf-8\n1 < Transfer-Encoding: chunked\n1 < Connection: keep-alive\n1 < Vary: Accept-Encoding\n1 < Vary: Origin\n1 < X-Frame-Options: SAMEORIGIN\n1 < X-XSS-Protection: 0\n1 < X-Content-Type-Options: nosniff\n1 < X-Download-Options: noopen\n1 < X-Permitted-Cross-Domain-Policies: none\n1 < Referrer-Policy: strict-origin-when-cross-origin\n1 < ETag: W\/\"df1ee1c182c123e1c16b72d88cae04be\"\n1 < Cache-Control: max-age=0, private, must-revalidate\n1 < X-Request-Id: 101a85f3-8df6-46b1-bad1-205db2909cf8\n1 < X-Runtime: 0.011174\n1 < Strict-Transport-Security: max-age=63072000; includeSubDomains\n{\"meta\":{\"pagination\":{\"total\":1398,\"pages\":70,\"page\":1,\"limit\":20,\"links\":{\"previous\":null,\"current\":\"https:\/\/gorest.co.in\/public\/v1\/users?page=1\",\"next\":\"https:\/\/gorest.co.in\/public\/v1\/users?page=2\"}}},\"data\":[{\"id\":2935,\"name\":\"Shashikala Embranthiri\",\"email\":\"embranthiri_shashikala@mcglynn-reinger.io\",\"gender\":\"male\",\"status\":\"active\"},{\"id\":2934,\"name\":\"Gov. Atreyee Ganaka\",\"email\":\"ganaka_atreyee_gov@mann.info\",\"gender\":\"female\",\"status\":\"active\"},{\"id\":2933,\"name\":\"Divjot Nair\",\"email\":\"nair_divjot@harris.name\",\"gender\":\"male\",\"status\":\"active\"},{\"id\":2928,\"name\":\"Ekadant Banerjee\",\"email\":\"ekadant_banerjee@bruen-heidenreich.info\",\"gender\":\"female\",\"status\":\"active\"},{\"id\":2927,\"name\":\"Umang Tandon\",\"email\":\"umang_tandon@ward-yundt.info\",\"gender\":\"male\",\"status\":\"active\"},{\"id\":2924,\"name\":\"Miss Dinkar Joshi\",\"email\":\"joshi_dinkar_miss@moen-rowe.org\",\"gender\":\"male\",\"status\":\"active\"},{\"id\":2923,\"name\":\"Dr. Abhirath Naik\",\"email\":\"naik_dr_abhirath@terry.info\",\"gender\":\"female\",\"status\":\"active\"},{\"id\":2921,\"name\":\"Mrs. Narendra Bhattacharya\",\"email\":\"mrs_bhattacharya_narendra@walsh-waters.info\",\"gender\":\"female\",\"status\":\"active\"},{\"id\":2916,\"name\":\"Niro Singh\",\"email\":\"niro_singh@pagac.biz\",\"gender\":\"male\",\"status\":\"active\"},{\"id\":2915,\"name\":\"Chitramala Khatri Ret.\",\"email\":\"ret_chitramala_khatri@nader-schuppe.net\",\"gender\":\"male\",\"status\":\"active\"},{\"id\":2912,\"name\":\"Mr. Chatura Talwar\",\"email\":\"chatura_talwar_mr@schiller.info\",\"gender\":\"female\",\"status\":\"active\"},{\"id\":2911,\"name\":\"Darshan Kakkar\",\"email\":\"darshan_kakkar@kshlerin-padberg.biz\",\"gender\":\"male\",\"status\":\"active\"},{\"id\":2910,\"name\":\"Girika Kaul\",\"email\":\"kaul_girika@wuckert-cummings.name\",\"gender\":\"female\",\"status\":\"active\"},{\"id\":2909,\"name\":\"Mahendra Marar\",\"email\":\"mahendra_marar@renner.co\",\"gender\":\"female\",\"status\":\"active\"},{\"id\":2907,\"name\":\"Bandhu Gandhi\",\"email\":\"bandhu_gandhi@hettinger-zulauf.co\",\"gender\":\"female\",\"status\":\"active\"},{\"id\":2906,\"name\":\"Rev. Nirbhay Chopra\",\"email\":\"nirbhay_chopra_rev@hoppe-ratke.org\",\"gender\":\"female\",\"status\":\"active\"},{\"id\":2905,\"name\":\"Chatura Sethi\",\"email\":\"chatura_sethi@green.name\",\"gender\":\"female\",\"status\":\"active\"},{\"id\":2904,\"name\":\"Deepan Iyengar\",\"email\":\"iyengar_deepan@carroll.info\",\"gender\":\"female\",\"status\":\"active\"},{\"id\":2902,\"name\":\"Hiranya Asan\",\"email\":\"asan_hiranya@okon-okeefe.biz\",\"gender\":\"female\",\"status\":\"active\"},{\"id\":2900,\"name\":\"Ashlesh Khanna\",\"email\":\"ashlesh_khanna@harber.biz\",\"gender\":\"female\",\"status\":\"active\"}]}\n"},{"result":{"nanos":12200,"millis":0.0122,"status":"passed"},"step":{"line":37,"prefix":"Then","index":4,"text":"status 200"}},{"result":{"nanos":2395000,"millis":2.395,"status":"passed"},"step":{"line":38,"prefix":"*","index":5,"text":"print response"},"stepLog":"14:21:38.294 [print] {\n  \"meta\": {\n    \"pagination\": {\n      \"total\": 1398,\n      \"pages\": 70,\n      \"page\": 1,\n      \"limit\": 20,\n      \"links\": {\n        \"previous\": null,\n        \"current\": \"https:\/\/gorest.co.in\/public\/v1\/users?page=1\",\n        \"next\": \"https:\/\/gorest.co.in\/public\/v1\/users?page=2\"\n      }\n    }\n  },\n  \"data\": [\n    {\n      \"id\": 2935,\n      \"name\": \"Shashikala Embranthiri\",\n      \"email\": \"embranthiri_shashikala@mcglynn-reinger.io\",\n      \"gender\": \"male\",\n      \"status\": \"active\"\n    },\n    {\n      \"id\": 2934,\n      \"name\": \"Gov. Atreyee Ganaka\",\n      \"email\": \"ganaka_atreyee_gov@mann.info\",\n      \"gender\": \"female\",\n      \"status\": \"active\"\n    },\n    {\n      \"id\": 2933,\n      \"name\": \"Divjot Nair\",\n      \"email\": \"nair_divjot@harris.name\",\n      \"gender\": \"male\",\n      \"status\": \"active\"\n    },\n    {\n      \"id\": 2928,\n      \"name\": \"Ekadant Banerjee\",\n      \"email\": \"ekadant_banerjee@bruen-heidenreich.info\",\n      \"gender\": \"female\",\n      \"status\": \"active\"\n    },\n    {\n      \"id\": 2927,\n      \"name\": \"Umang Tandon\",\n      \"email\": \"umang_tandon@ward-yundt.info\",\n      \"gender\": \"male\",\n      \"status\": \"active\"\n    },\n    {\n      \"id\": 2924,\n      \"name\": \"Miss Dinkar Joshi\",\n      \"email\": \"joshi_dinkar_miss@moen-rowe.org\",\n      \"gender\": \"male\",\n      \"status\": \"active\"\n    },\n    {\n      \"id\": 2923,\n      \"name\": \"Dr. Abhirath Naik\",\n      \"email\": \"naik_dr_abhirath@terry.info\",\n      \"gender\": \"female\",\n      \"status\": \"active\"\n    },\n    {\n      \"id\": 2921,\n      \"name\": \"Mrs. Narendra Bhattacharya\",\n      \"email\": \"mrs_bhattacharya_narendra@walsh-waters.info\",\n      \"gender\": \"female\",\n      \"status\": \"active\"\n    },\n    {\n      \"id\": 2916,\n      \"name\": \"Niro Singh\",\n      \"email\": \"niro_singh@pagac.biz\",\n      \"gender\": \"male\",\n      \"status\": \"active\"\n    },\n    {\n      \"id\": 2915,\n      \"name\": \"Chitramala Khatri Ret.\",\n      \"email\": \"ret_chitramala_khatri@nader-schuppe.net\",\n      \"gender\": \"male\",\n      \"status\": \"active\"\n    },\n    {\n      \"id\": 2912,\n      \"name\": \"Mr. Chatura Talwar\",\n      \"email\": \"chatura_talwar_mr@schiller.info\",\n      \"gender\": \"female\",\n      \"status\": \"active\"\n    },\n    {\n      \"id\": 2911,\n      \"name\": \"Darshan Kakkar\",\n      \"email\": \"darshan_kakkar@kshlerin-padberg.biz\",\n      \"gender\": \"male\",\n      \"status\": \"active\"\n    },\n    {\n      \"id\": 2910,\n      \"name\": \"Girika Kaul\",\n      \"email\": \"kaul_girika@wuckert-cummings.name\",\n      \"gender\": \"female\",\n      \"status\": \"active\"\n    },\n    {\n      \"id\": 2909,\n      \"name\": \"Mahendra Marar\",\n      \"email\": \"mahendra_marar@renner.co\",\n      \"gender\": \"female\",\n      \"status\": \"active\"\n    },\n    {\n      \"id\": 2907,\n      \"name\": \"Bandhu Gandhi\",\n      \"email\": \"bandhu_gandhi@hettinger-zulauf.co\",\n      \"gender\": \"female\",\n      \"status\": \"active\"\n    },\n    {\n      \"id\": 2906,\n      \"name\": \"Rev. Nirbhay Chopra\",\n      \"email\": \"nirbhay_chopra_rev@hoppe-ratke.org\",\n      \"gender\": \"female\",\n      \"status\": \"active\"\n    },\n    {\n      \"id\": 2905,\n      \"name\": \"Chatura Sethi\",\n      \"email\": \"chatura_sethi@green.name\",\n      \"gender\": \"female\",\n      \"status\": \"active\"\n    },\n    {\n      \"id\": 2904,\n      \"name\": \"Deepan Iyengar\",\n      \"email\": \"iyengar_deepan@carroll.info\",\n      \"gender\": \"female\",\n      \"status\": \"active\"\n    },\n    {\n      \"id\": 2902,\n      \"name\": \"Hiranya Asan\",\n      \"email\": \"asan_hiranya@okon-okeefe.biz\",\n      \"gender\": \"female\",\n      \"status\": \"active\"\n    },\n    {\n      \"id\": 2900,\n      \"name\": \"Ashlesh Khanna\",\n      \"email\": \"ashlesh_khanna@harber.biz\",\n      \"gender\": \"female\",\n      \"status\": \"active\"\n    }\n  ]\n}\n \n"},{"result":{"nanos":1705400,"millis":1.7054,"status":"passed"},"step":{"line":39,"prefix":"*","index":6,"text":"print response.data.length"},"stepLog":"14:21:38.296 [print] 20 \n"}],"executorName":"main","line":31,"name":"Get the list of active users - query param - positive","description":"","durationMillis":147.6478,"startTime":1648889498146,"failed":false,"refId":"[4:31]","endTime":1648889498296,"exampleIndex":-1}],"callDepth":0,"name":"GET API Automation","description":"","resultDate":"2022-04-02 02:21:38 PM","durationMillis":1913.5288,"passedCount":4}