{"failedCount":0,"prefixedPath":"src\/test\/java\/feature\/GET_API_Demo.feature","packageQualifiedName":"src.test.java.feature.GET_API_Demo","loopIndex":-1,"relativePath":"src\/test\/java\/feature\/GET_API_Demo.feature","scenarioResults":[{"sectionIndex":0,"stepResults":[{"result":{"nanos":15157700,"millis":15.1577,"status":"passed"},"step":{"line":4,"prefix":"Given","index":0,"text":"url baseURL+'public\/v2\/users'"}},{"result":{"nanos":657700,"millis":0.6577,"status":"passed"},"step":{"line":5,"prefix":"And","index":1,"text":"path '100'"}},{"result":{"nanos":1698894000,"millis":1698.894,"status":"passed"},"step":{"line":6,"prefix":"When","index":2,"text":"method GET"},"stepLog":"12:56:29.331 request:\n1 > GET https:\/\/gorest.co.in\/public\/v2\/users\/100\n1 > Host: gorest.co.in\n1 > Connection: Keep-Alive\n1 > User-Agent: Apache-HttpClient\/4.5.13 (Java\/1.8.0_201)\n1 > Accept-Encoding: gzip,deflate\n\n\n12:56:30.053 response time in milliseconds: 714\n1 < 200\n1 < Server: nginx\n1 < Date: Sun, 03 Apr 2022 07:26:30 GMT\n1 < Content-Type: application\/json; charset=utf-8\n1 < Transfer-Encoding: chunked\n1 < Connection: keep-alive\n1 < Vary: Accept-Encoding\n1 < Vary: Origin\n1 < X-Frame-Options: SAMEORIGIN\n1 < X-XSS-Protection: 0\n1 < X-Content-Type-Options: nosniff\n1 < X-Download-Options: noopen\n1 < X-Permitted-Cross-Domain-Policies: none\n1 < Referrer-Policy: strict-origin-when-cross-origin\n1 < ETag: W\/\"60d2850fc18b31e2eea07ccab97d3f4d\"\n1 < Cache-Control: max-age=0, private, must-revalidate\n1 < X-Request-Id: 4d0d11fd-096e-4976-b2a9-ce074178bdb1\n1 < X-Runtime: 0.004037\n1 < Strict-Transport-Security: max-age=63072000; includeSubDomains\n{\"id\":100,\"name\":\"Atreyee Kocchar\",\"email\":\"kocchar_atreyee@goldner.com\",\"gender\":\"female\",\"status\":\"inactive\"}\n"},{"result":{"nanos":248300,"millis":0.2483,"status":"passed"},"step":{"line":7,"prefix":"Then","index":3,"text":"status 200"}},{"result":{"nanos":57190700,"millis":57.1907,"status":"passed"},"step":{"line":8,"prefix":"*","index":4,"text":"print response"},"stepLog":"12:56:30.225 [print] {\n  \"id\": 100,\n  \"name\": \"Atreyee Kocchar\",\n  \"email\": \"kocchar_atreyee@goldner.com\",\n  \"gender\": \"female\",\n  \"status\": \"inactive\"\n}\n \n"},{"result":{"nanos":8647500,"millis":8.6475,"status":"passed"},"step":{"line":9,"prefix":"*","index":5,"text":"def jsonResponse = response"}},{"result":{"nanos":3779800,"millis":3.7798,"status":"passed"},"step":{"line":10,"prefix":"*","index":6,"text":"print jsonResponse.name"},"stepLog":"12:56:30.240 [print] Atreyee Kocchar \n"},{"result":{"nanos":2576900,"millis":2.5769,"status":"passed"},"step":{"line":11,"prefix":"*","index":7,"text":"def actualName = jsonResponse.name"}},{"result":{"nanos":28172500,"millis":28.1725,"status":"passed"},"step":{"line":12,"prefix":"*","index":8,"text":"match actualName == \"Atreyee Kocchar\""}}],"executorName":"main","line":3,"name":"Get the user details - path param - positive","description":"","durationMillis":1815.3251,"startTime":1648970788155,"failed":false,"refId":"[1:3]","endTime":1648970790271,"exampleIndex":-1},{"sectionIndex":1,"stepResults":[{"result":{"nanos":1865600,"millis":1.8656,"status":"passed"},"step":{"line":15,"prefix":"Given","index":0,"text":"url 'https:\/\/gorest.co.in\/public\/v2\/users'"}},{"result":{"nanos":1199500,"millis":1.1995,"status":"passed"},"step":{"line":16,"prefix":"And","index":1,"text":"path '2'"}},{"result":{"nanos":157376300,"millis":157.3763,"status":"passed"},"step":{"line":17,"prefix":"When","index":2,"text":"method GET"},"stepLog":"12:56:30.300 request:\n1 > GET https:\/\/gorest.co.in\/public\/v2\/users\/2\n1 > Host: gorest.co.in\n1 > Connection: Keep-Alive\n1 > User-Agent: Apache-HttpClient\/4.5.13 (Java\/1.8.0_201)\n1 > Accept-Encoding: gzip,deflate\n\n\n12:56:30.450 response time in milliseconds: 149\n1 < 404\n1 < Server: nginx\n1 < Date: Sun, 03 Apr 2022 07:26:31 GMT\n1 < Content-Type: application\/json; charset=utf-8\n1 < Transfer-Encoding: chunked\n1 < Connection: keep-alive\n1 < Vary: Accept-Encoding\n1 < Vary: Origin\n1 < X-Frame-Options: SAMEORIGIN\n1 < X-XSS-Protection: 0\n1 < X-Content-Type-Options: nosniff\n1 < X-Download-Options: noopen\n1 < X-Permitted-Cross-Domain-Policies: none\n1 < Referrer-Policy: strict-origin-when-cross-origin\n1 < Cache-Control: no-cache\n1 < X-Request-Id: 7394ead1-25de-4f71-93b9-3907181f6d0c\n1 < X-Runtime: 0.003649\n1 < Strict-Transport-Security: max-age=63072000; includeSubDomains\n{\"message\":\"Resource not found\"}\n"},{"result":{"nanos":26100,"millis":0.0261,"status":"passed"},"step":{"line":18,"prefix":"Then","index":3,"text":"status 404"}},{"result":{"nanos":1300900,"millis":1.3009,"status":"passed"},"step":{"line":19,"prefix":"*","index":4,"text":"print response"},"stepLog":"12:56:30.454 [print] {\n  \"message\": \"Resource not found\"\n}\n \n"},{"result":{"nanos":881600,"millis":0.8816,"status":"passed"},"step":{"line":20,"prefix":"*","index":5,"text":"def jsonResponse = response"}},{"result":{"nanos":3361100,"millis":3.3611,"status":"passed"},"step":{"line":21,"prefix":"*","index":6,"text":"print jsonResponse.message"},"stepLog":"12:56:30.459 [print] Resource not found \n"}],"executorName":"main","line":14,"name":"Get the user details - path param - negative","description":"","durationMillis":166.0111,"startTime":1648970790288,"failed":false,"refId":"[2:14]","endTime":1648970790460,"exampleIndex":-1},{"sectionIndex":2,"stepResults":[{"result":{"nanos":68406700,"millis":68.4067,"status":"passed"},"step":{"line":24,"prefix":"*","index":0,"text":"def query = {id:100}"}},{"result":{"nanos":1340900,"millis":1.3409,"status":"passed"},"step":{"line":25,"prefix":"Given","index":1,"text":"url baseURL+'public\/v2\/users'"}},{"result":{"nanos":9062600,"millis":9.0626,"status":"passed"},"step":{"line":26,"prefix":"And","index":2,"text":"params query"}},{"result":{"nanos":176566000,"millis":176.566,"status":"passed"},"step":{"line":27,"prefix":"When","index":3,"text":"method GET"},"stepLog":"12:56:30.572 request:\n1 > GET https:\/\/gorest.co.in\/public\/v2\/users?id=100\n1 > Host: gorest.co.in\n1 > Connection: Keep-Alive\n1 > User-Agent: Apache-HttpClient\/4.5.13 (Java\/1.8.0_201)\n1 > Accept-Encoding: gzip,deflate\n\n\n12:56:30.737 response time in milliseconds: 164\n1 < 200\n1 < Server: nginx\n1 < Date: Sun, 03 Apr 2022 07:26:31 GMT\n1 < Content-Type: application\/json; charset=utf-8\n1 < Transfer-Encoding: chunked\n1 < Connection: keep-alive\n1 < Vary: Accept-Encoding\n1 < Vary: Origin\n1 < X-Frame-Options: SAMEORIGIN\n1 < X-XSS-Protection: 0\n1 < X-Content-Type-Options: nosniff\n1 < X-Download-Options: noopen\n1 < X-Permitted-Cross-Domain-Policies: none\n1 < Referrer-Policy: strict-origin-when-cross-origin\n1 < X-Pagination-Total: 1\n1 < X-Pagination-Pages: 1\n1 < X-Pagination-Page: 1\n1 < X-Pagination-Limit: 20\n1 < X-Links-Previous: \n1 < X-Links-Current: https:\/\/gorest.co.in\/public\/v2\/users?page=1\n1 < X-Links-Next: \n1 < ETag: W\/\"3c0af39ef0e8218d62e8dd669d0aebc4\"\n1 < Cache-Control: max-age=0, private, must-revalidate\n1 < X-Request-Id: b36304c6-79f6-4b5b-b8f0-5605dd2a769f\n1 < X-Runtime: 0.005723\n1 < Strict-Transport-Security: max-age=63072000; includeSubDomains\n[{\"id\":100,\"name\":\"Atreyee Kocchar\",\"email\":\"kocchar_atreyee@goldner.com\",\"gender\":\"female\",\"status\":\"inactive\"}]\n"},{"result":{"nanos":25200,"millis":0.0252,"status":"passed"},"step":{"line":28,"prefix":"Then","index":4,"text":"status 200"}},{"result":{"nanos":2042700,"millis":2.0427,"status":"passed"},"step":{"line":29,"prefix":"*","index":5,"text":"print response"},"stepLog":"12:56:30.745 [print] [\n  {\n    \"id\": 100,\n    \"name\": \"Atreyee Kocchar\",\n    \"email\": \"kocchar_atreyee@goldner.com\",\n    \"gender\": \"female\",\n    \"status\": \"inactive\"\n  }\n]\n \n"}],"executorName":"main","line":23,"name":"Get the user details - query param - positive","description":"","durationMillis":257.4441,"startTime":1648970790484,"failed":false,"refId":"[3:23]","endTime":1648970790745,"exampleIndex":-1},{"sectionIndex":3,"stepResults":[{"result":{"nanos":943200,"millis":0.9432,"status":"passed"},"step":{"line":32,"prefix":"*","index":0,"text":"def query = {status:'active'}"}},{"result":{"nanos":1799000,"millis":1.799,"status":"passed"},"step":{"line":33,"prefix":"Given","index":1,"text":"url baseURL+'public\/v1\/users'"}},{"result":{"nanos":523600,"millis":0.5236,"status":"passed"},"step":{"line":34,"prefix":"And","index":2,"text":"params query"}},{"result":{"nanos":164102900,"millis":164.1029,"status":"passed"},"step":{"line":35,"prefix":"When","index":3,"text":"method GET"},"stepLog":"12:56:30.772 request:\n1 > GET https:\/\/gorest.co.in\/public\/v1\/users?status=active\n1 > Host: gorest.co.in\n1 > Connection: Keep-Alive\n1 > User-Agent: Apache-HttpClient\/4.5.13 (Java\/1.8.0_201)\n1 > Accept-Encoding: gzip,deflate\n\n\n12:56:30.928 response time in milliseconds: 155\n1 < 200\n1 < Server: nginx\n1 < Date: Sun, 03 Apr 2022 07:26:31 GMT\n1 < Content-Type: application\/json; charset=utf-8\n1 < Transfer-Encoding: chunked\n1 < Connection: keep-alive\n1 < Vary: Accept-Encoding\n1 < Vary: Origin\n1 < X-Frame-Options: SAMEORIGIN\n1 < X-XSS-Protection: 0\n1 < X-Content-Type-Options: nosniff\n1 < X-Download-Options: noopen\n1 < X-Permitted-Cross-Domain-Policies: none\n1 < Referrer-Policy: strict-origin-when-cross-origin\n1 < ETag: W\/\"2c21c0dc2316e39ca927045db56c2459\"\n1 < Cache-Control: max-age=0, private, must-revalidate\n1 < X-Request-Id: 085d2554-1b92-4fdc-bb92-6ee90ef9049b\n1 < X-Runtime: 0.009965\n1 < Strict-Transport-Security: max-age=63072000; includeSubDomains\n{\"meta\":{\"pagination\":{\"total\":1788,\"pages\":90,\"page\":1,\"limit\":20,\"links\":{\"previous\":null,\"current\":\"https:\/\/gorest.co.in\/public\/v1\/users?page=1\",\"next\":\"https:\/\/gorest.co.in\/public\/v1\/users?page=2\"}}},\"data\":[{\"id\":3655,\"name\":\"Msgr. Chitrali Bhattacharya\",\"email\":\"msgr_bhattacharya_chitrali@larson.biz\",\"gender\":\"female\",\"status\":\"active\"},{\"id\":3654,\"name\":\"Tara Sinha\",\"email\":\"sinha_tara@huel-okuneva.io\",\"gender\":\"female\",\"status\":\"active\"},{\"id\":3652,\"name\":\"Deeptendu Johar\",\"email\":\"deeptendu_johar@murphy.org\",\"gender\":\"male\",\"status\":\"active\"},{\"id\":3651,\"name\":\"Chaitan Mukhopadhyay\",\"email\":\"chaitan_mukhopadhyay@graham.net\",\"gender\":\"female\",\"status\":\"active\"},{\"id\":3650,\"name\":\"Lakshminath Kocchar DDS\",\"email\":\"dds_kocchar_lakshminath@adams-stehr.co\",\"gender\":\"male\",\"status\":\"active\"},{\"id\":3649,\"name\":\"Bhima Nayar\",\"email\":\"bhima_nayar@ebert-nienow.co\",\"gender\":\"male\",\"status\":\"active\"},{\"id\":3648,\"name\":\"Aishani Talwar\",\"email\":\"talwar_aishani@kunde.biz\",\"gender\":\"male\",\"status\":\"active\"},{\"id\":3646,\"name\":\"Chandan Chaturvedi\",\"email\":\"chaturvedi_chandan@bauch.org\",\"gender\":\"male\",\"status\":\"active\"},{\"id\":3644,\"name\":\"Mr. Jaya Jha\",\"email\":\"jaya_jha_mr@wolf.biz\",\"gender\":\"male\",\"status\":\"active\"},{\"id\":3641,\"name\":\"Dakshayani Dwivedi VM\",\"email\":\"dakshayani_vm_dwivedi@hegmann-barrows.name\",\"gender\":\"female\",\"status\":\"active\"},{\"id\":3638,\"name\":\"Dwaipayan Pothuvaal\",\"email\":\"pothuvaal_dwaipayan@rowe.com\",\"gender\":\"male\",\"status\":\"active\"},{\"id\":3636,\"name\":\"Ms. Rahul Tagore\",\"email\":\"rahul_tagore_ms@borer.io\",\"gender\":\"female\",\"status\":\"active\"},{\"id\":3632,\"name\":\"Chaten Mukhopadhyay Sr.\",\"email\":\"chaten_sr_mukhopadhyay@hartmann.io\",\"gender\":\"female\",\"status\":\"active\"},{\"id\":3631,\"name\":\"Dhanpati Asan III\",\"email\":\"asan_dhanpati_iii@breitenberg-stehr.com\",\"gender\":\"male\",\"status\":\"active\"},{\"id\":3629,\"name\":\"Mr. Javas Varma\",\"email\":\"javas_mr_varma@olson.org\",\"gender\":\"female\",\"status\":\"active\"},{\"id\":3625,\"name\":\"Bhardwaj Nair DC\",\"email\":\"bhardwaj_nair_dc@koelpin-deckow.net\",\"gender\":\"female\",\"status\":\"active\"},{\"id\":3624,\"name\":\"Dayaananda Mishra\",\"email\":\"mishra_dayaananda@kerluke.info\",\"gender\":\"male\",\"status\":\"active\"},{\"id\":3621,\"name\":\"Dhruv Pothuvaal JD\",\"email\":\"dhruv_jd_pothuvaal@baumbach.net\",\"gender\":\"female\",\"status\":\"active\"},{\"id\":3619,\"name\":\"Anala Somayaji\",\"email\":\"somayaji_anala@kuhn.io\",\"gender\":\"male\",\"status\":\"active\"},{\"id\":3617,\"name\":\"Anaadi Dwivedi LLD\",\"email\":\"anaadi_dwivedi_lld@fahey-spinka.org\",\"gender\":\"female\",\"status\":\"active\"}]}\n"},{"result":{"nanos":34900,"millis":0.0349,"status":"passed"},"step":{"line":36,"prefix":"Then","index":4,"text":"status 200"}},{"result":{"nanos":9566000,"millis":9.566,"status":"passed"},"step":{"line":37,"prefix":"*","index":5,"text":"print response"},"stepLog":"12:56:30.941 [print] {\n  \"meta\": {\n    \"pagination\": {\n      \"total\": 1788,\n      \"pages\": 90,\n      \"page\": 1,\n      \"limit\": 20,\n      \"links\": {\n        \"previous\": null,\n        \"current\": \"https:\/\/gorest.co.in\/public\/v1\/users?page=1\",\n        \"next\": \"https:\/\/gorest.co.in\/public\/v1\/users?page=2\"\n      }\n    }\n  },\n  \"data\": [\n    {\n      \"id\": 3655,\n      \"name\": \"Msgr. Chitrali Bhattacharya\",\n      \"email\": \"msgr_bhattacharya_chitrali@larson.biz\",\n      \"gender\": \"female\",\n      \"status\": \"active\"\n    },\n    {\n      \"id\": 3654,\n      \"name\": \"Tara Sinha\",\n      \"email\": \"sinha_tara@huel-okuneva.io\",\n      \"gender\": \"female\",\n      \"status\": \"active\"\n    },\n    {\n      \"id\": 3652,\n      \"name\": \"Deeptendu Johar\",\n      \"email\": \"deeptendu_johar@murphy.org\",\n      \"gender\": \"male\",\n      \"status\": \"active\"\n    },\n    {\n      \"id\": 3651,\n      \"name\": \"Chaitan Mukhopadhyay\",\n      \"email\": \"chaitan_mukhopadhyay@graham.net\",\n      \"gender\": \"female\",\n      \"status\": \"active\"\n    },\n    {\n      \"id\": 3650,\n      \"name\": \"Lakshminath Kocchar DDS\",\n      \"email\": \"dds_kocchar_lakshminath@adams-stehr.co\",\n      \"gender\": \"male\",\n      \"status\": \"active\"\n    },\n    {\n      \"id\": 3649,\n      \"name\": \"Bhima Nayar\",\n      \"email\": \"bhima_nayar@ebert-nienow.co\",\n      \"gender\": \"male\",\n      \"status\": \"active\"\n    },\n    {\n      \"id\": 3648,\n      \"name\": \"Aishani Talwar\",\n      \"email\": \"talwar_aishani@kunde.biz\",\n      \"gender\": \"male\",\n      \"status\": \"active\"\n    },\n    {\n      \"id\": 3646,\n      \"name\": \"Chandan Chaturvedi\",\n      \"email\": \"chaturvedi_chandan@bauch.org\",\n      \"gender\": \"male\",\n      \"status\": \"active\"\n    },\n    {\n      \"id\": 3644,\n      \"name\": \"Mr. Jaya Jha\",\n      \"email\": \"jaya_jha_mr@wolf.biz\",\n      \"gender\": \"male\",\n      \"status\": \"active\"\n    },\n    {\n      \"id\": 3641,\n      \"name\": \"Dakshayani Dwivedi VM\",\n      \"email\": \"dakshayani_vm_dwivedi@hegmann-barrows.name\",\n      \"gender\": \"female\",\n      \"status\": \"active\"\n    },\n    {\n      \"id\": 3638,\n      \"name\": \"Dwaipayan Pothuvaal\",\n      \"email\": \"pothuvaal_dwaipayan@rowe.com\",\n      \"gender\": \"male\",\n      \"status\": \"active\"\n    },\n    {\n      \"id\": 3636,\n      \"name\": \"Ms. Rahul Tagore\",\n      \"email\": \"rahul_tagore_ms@borer.io\",\n      \"gender\": \"female\",\n      \"status\": \"active\"\n    },\n    {\n      \"id\": 3632,\n      \"name\": \"Chaten Mukhopadhyay Sr.\",\n      \"email\": \"chaten_sr_mukhopadhyay@hartmann.io\",\n      \"gender\": \"female\",\n      \"status\": \"active\"\n    },\n    {\n      \"id\": 3631,\n      \"name\": \"Dhanpati Asan III\",\n      \"email\": \"asan_dhanpati_iii@breitenberg-stehr.com\",\n      \"gender\": \"male\",\n      \"status\": \"active\"\n    },\n    {\n      \"id\": 3629,\n      \"name\": \"Mr. Javas Varma\",\n      \"email\": \"javas_mr_varma@olson.org\",\n      \"gender\": \"female\",\n      \"status\": \"active\"\n    },\n    {\n      \"id\": 3625,\n      \"name\": \"Bhardwaj Nair DC\",\n      \"email\": \"bhardwaj_nair_dc@koelpin-deckow.net\",\n      \"gender\": \"female\",\n      \"status\": \"active\"\n    },\n    {\n      \"id\": 3624,\n      \"name\": \"Dayaananda Mishra\",\n      \"email\": \"mishra_dayaananda@kerluke.info\",\n      \"gender\": \"male\",\n      \"status\": \"active\"\n    },\n    {\n      \"id\": 3621,\n      \"name\": \"Dhruv Pothuvaal JD\",\n      \"email\": \"dhruv_jd_pothuvaal@baumbach.net\",\n      \"gender\": \"female\",\n      \"status\": \"active\"\n    },\n    {\n      \"id\": 3619,\n      \"name\": \"Anala Somayaji\",\n      \"email\": \"somayaji_anala@kuhn.io\",\n      \"gender\": \"male\",\n      \"status\": \"active\"\n    },\n    {\n      \"id\": 3617,\n      \"name\": \"Anaadi Dwivedi LLD\",\n      \"email\": \"anaadi_dwivedi_lld@fahey-spinka.org\",\n      \"gender\": \"female\",\n      \"status\": \"active\"\n    }\n  ]\n}\n \n"},{"result":{"nanos":5421500,"millis":5.4215,"status":"passed"},"step":{"line":38,"prefix":"*","index":6,"text":"def usersCount = response.data.length"}},{"result":{"nanos":7233400,"millis":7.2334,"status":"passed"},"step":{"line":39,"prefix":"*","index":7,"text":"match usersCount == 20"}}],"executorName":"main","line":31,"name":"Get the list of active users - query param - positive","description":"","durationMillis":189.6245,"startTime":1648970790762,"failed":false,"refId":"[4:31]","endTime":1648970790955,"exampleIndex":-1},{"sectionIndex":4,"stepResults":[{"result":{"nanos":9746700,"millis":9.7467,"status":"passed"},"step":{"line":42,"prefix":"*","index":0,"text":"def query = {id:2}"}},{"result":{"nanos":1114600,"millis":1.1146,"status":"passed"},"step":{"line":43,"prefix":"Given","index":1,"text":"url baseURL+'public\/v2\/users'"}},{"result":{"nanos":2185300,"millis":2.1853,"status":"passed"},"step":{"line":44,"prefix":"And","index":2,"text":"params query"}},{"result":{"nanos":136173500,"millis":136.1735,"status":"passed"},"step":{"line":45,"prefix":"When","index":3,"text":"method GET"},"stepLog":"12:56:31.007 request:\n1 > GET https:\/\/gorest.co.in\/public\/v2\/users?id=2\n1 > Host: gorest.co.in\n1 > Connection: Keep-Alive\n1 > User-Agent: Apache-HttpClient\/4.5.13 (Java\/1.8.0_201)\n1 > Accept-Encoding: gzip,deflate\n\n\n12:56:31.133 response time in milliseconds: 125\n1 < 200\n1 < Server: nginx\n1 < Date: Sun, 03 Apr 2022 07:26:32 GMT\n1 < Content-Type: application\/json; charset=utf-8\n1 < Transfer-Encoding: chunked\n1 < Connection: keep-alive\n1 < Vary: Accept-Encoding\n1 < Vary: Origin\n1 < X-Frame-Options: SAMEORIGIN\n1 < X-XSS-Protection: 0\n1 < X-Content-Type-Options: nosniff\n1 < X-Download-Options: noopen\n1 < X-Permitted-Cross-Domain-Policies: none\n1 < Referrer-Policy: strict-origin-when-cross-origin\n1 < X-Pagination-Total: 0\n1 < X-Pagination-Pages: 0\n1 < X-Pagination-Page: 1\n1 < X-Pagination-Limit: 20\n1 < ETag: W\/\"4f53cda18c2baa0c0354bb5f9a3ecbe5\"\n1 < Cache-Control: max-age=0, private, must-revalidate\n1 < X-Request-Id: f60ee2a4-ced1-449a-9f25-ccc82511cc1b\n1 < X-Runtime: 0.006023\n1 < Strict-Transport-Security: max-age=63072000; includeSubDomains\n[]\n"},{"result":{"nanos":12800,"millis":0.0128,"status":"passed"},"step":{"line":46,"prefix":"Then","index":4,"text":"status 200"}},{"result":{"nanos":666100,"millis":0.6661,"status":"passed"},"step":{"line":47,"prefix":"*","index":5,"text":"print response"},"stepLog":"12:56:31.134 [print] [\n]\n \n"},{"result":{"nanos":356000,"millis":0.356,"status":"passed"},"step":{"line":48,"prefix":"*","index":6,"text":"def userdetail = response"}},{"result":{"nanos":519100,"millis":0.5191,"status":"passed"},"step":{"line":49,"prefix":"*","index":7,"text":"match userdetail == []"}}],"executorName":"main","line":41,"name":"Get the user details - query param - negative","description":"","durationMillis":150.7741,"startTime":1648970790977,"failed":false,"refId":"[5:41]","endTime":1648970791135,"exampleIndex":-1},{"sectionIndex":5,"stepResults":[{"result":{"nanos":736600,"millis":0.7366,"status":"passed"},"step":{"line":52,"prefix":"Given","index":0,"text":"header Content-Type = 'application\/json; charset=utf-8'"}},{"result":{"nanos":410000,"millis":0.41,"status":"passed"},"step":{"line":53,"prefix":"When","index":1,"text":"url baseURL+'public\/v2\/users'"}},{"result":{"nanos":167300,"millis":0.1673,"status":"passed"},"step":{"line":54,"prefix":"And","index":2,"text":"path '100'"}},{"result":{"nanos":155424000,"millis":155.424,"status":"passed"},"step":{"line":55,"prefix":"And","index":3,"text":"method GET"},"stepLog":"12:56:31.146 request:\n1 > GET https:\/\/gorest.co.in\/public\/v2\/users\/100\n1 > Content-Type: application\/json; charset=utf-8\n1 > Host: gorest.co.in\n1 > Connection: Keep-Alive\n1 > User-Agent: Apache-HttpClient\/4.5.13 (Java\/1.8.0_201)\n1 > Accept-Encoding: gzip,deflate\n\n\n12:56:31.296 response time in milliseconds: 150\n1 < 200\n1 < Server: nginx\n1 < Date: Sun, 03 Apr 2022 07:26:32 GMT\n1 < Content-Type: application\/json; charset=utf-8\n1 < Transfer-Encoding: chunked\n1 < Connection: keep-alive\n1 < Vary: Accept-Encoding\n1 < Vary: Origin\n1 < X-Frame-Options: SAMEORIGIN\n1 < X-XSS-Protection: 0\n1 < X-Content-Type-Options: nosniff\n1 < X-Download-Options: noopen\n1 < X-Permitted-Cross-Domain-Policies: none\n1 < Referrer-Policy: strict-origin-when-cross-origin\n1 < ETag: W\/\"60d2850fc18b31e2eea07ccab97d3f4d\"\n1 < Cache-Control: max-age=0, private, must-revalidate\n1 < X-Request-Id: 68ab26dc-fe40-4d59-94ca-8f7b1390242c\n1 < X-Runtime: 0.004934\n1 < Strict-Transport-Security: max-age=63072000; includeSubDomains\n{\"id\":100,\"name\":\"Atreyee Kocchar\",\"email\":\"kocchar_atreyee@goldner.com\",\"gender\":\"female\",\"status\":\"inactive\"}\n"},{"result":{"nanos":32500,"millis":0.0325,"status":"passed"},"step":{"line":56,"prefix":"Then","index":4,"text":"status 200"}},{"result":{"nanos":2000000,"millis":2.0,"status":"passed"},"step":{"line":57,"prefix":"*","index":5,"text":"print response"},"stepLog":"12:56:31.301 [print] {\n  \"id\": 100,\n  \"name\": \"Atreyee Kocchar\",\n  \"email\": \"kocchar_atreyee@goldner.com\",\n  \"gender\": \"female\",\n  \"status\": \"inactive\"\n}\n \n"}],"executorName":"main","line":51,"name":"Get the user details - with headers - type 1","description":"","durationMillis":158.7704,"startTime":1648970791140,"failed":false,"refId":"[6:51]","endTime":1648970791302,"exampleIndex":-1},{"sectionIndex":6,"stepResults":[{"result":{"nanos":1346900,"millis":1.3469,"status":"passed"},"step":{"line":60,"prefix":"*","index":0,"text":"def request_headers = {Content-Type:'application\/json; charset=utf-8'}"}},{"result":{"nanos":1867400,"millis":1.8674,"status":"passed"},"step":{"line":61,"prefix":"Given","index":1,"text":"headers request_headers"}},{"result":{"nanos":871000,"millis":0.871,"status":"passed"},"step":{"line":62,"prefix":"When","index":2,"text":"url baseURL+'public\/v2\/users'"}},{"result":{"nanos":290200,"millis":0.2902,"status":"passed"},"step":{"line":63,"prefix":"And","index":3,"text":"path '100'"}},{"result":{"nanos":159396500,"millis":159.3965,"status":"passed"},"step":{"line":64,"prefix":"And","index":4,"text":"method GET"},"stepLog":"12:56:31.326 request:\n1 > GET https:\/\/gorest.co.in\/public\/v2\/users\/100\n1 > Content-Type: application\/json; charset=utf-8\n1 > Host: gorest.co.in\n1 > Connection: Keep-Alive\n1 > User-Agent: Apache-HttpClient\/4.5.13 (Java\/1.8.0_201)\n1 > Accept-Encoding: gzip,deflate\n\n\n12:56:31.478 response time in milliseconds: 151\n1 < 200\n1 < Server: nginx\n1 < Date: Sun, 03 Apr 2022 07:26:32 GMT\n1 < Content-Type: application\/json; charset=utf-8\n1 < Transfer-Encoding: chunked\n1 < Connection: keep-alive\n1 < Vary: Accept-Encoding\n1 < Vary: Origin\n1 < X-Frame-Options: SAMEORIGIN\n1 < X-XSS-Protection: 0\n1 < X-Content-Type-Options: nosniff\n1 < X-Download-Options: noopen\n1 < X-Permitted-Cross-Domain-Policies: none\n1 < Referrer-Policy: strict-origin-when-cross-origin\n1 < ETag: W\/\"60d2850fc18b31e2eea07ccab97d3f4d\"\n1 < Cache-Control: max-age=0, private, must-revalidate\n1 < X-Request-Id: b543e934-b590-4eef-9211-321c7096de10\n1 < X-Runtime: 0.004618\n1 < Strict-Transport-Security: max-age=63072000; includeSubDomains\n{\"id\":100,\"name\":\"Atreyee Kocchar\",\"email\":\"kocchar_atreyee@goldner.com\",\"gender\":\"female\",\"status\":\"inactive\"}\n"},{"result":{"nanos":30500,"millis":0.0305,"status":"passed"},"step":{"line":65,"prefix":"Then","index":5,"text":"status 200"}},{"result":{"nanos":1855800,"millis":1.8558,"status":"passed"},"step":{"line":66,"prefix":"*","index":6,"text":"print response"},"stepLog":"12:56:31.482 [print] {\n  \"id\": 100,\n  \"name\": \"Atreyee Kocchar\",\n  \"email\": \"kocchar_atreyee@goldner.com\",\n  \"gender\": \"female\",\n  \"status\": \"inactive\"\n}\n \n"}],"executorName":"main","line":59,"name":"Get the user details - with headers - type 2","description":"","durationMillis":165.6583,"startTime":1648970791313,"failed":false,"refId":"[7:59]","endTime":1648970791482,"exampleIndex":-1},{"sectionIndex":7,"stepResults":[{"result":{"nanos":857900,"millis":0.8579,"status":"passed"},"step":{"line":69,"prefix":"*","index":0,"text":"configure headers = {Content-Type:'application\/json; charset=utf-8'}"}},{"result":{"nanos":1079700,"millis":1.0797,"status":"passed"},"step":{"line":70,"prefix":"When","index":1,"text":"url baseURL+'public\/v2\/users'"}},{"result":{"nanos":439600,"millis":0.4396,"status":"passed"},"step":{"line":71,"prefix":"And","index":2,"text":"path '100'"}},{"result":{"nanos":169385500,"millis":169.3855,"status":"passed"},"step":{"line":72,"prefix":"And","index":3,"text":"method GET"},"stepLog":"12:56:31.510 request:\n1 > GET https:\/\/gorest.co.in\/public\/v2\/users\/100\n1 > Content-Type: application\/json; charset=utf-8\n1 > Host: gorest.co.in\n1 > Connection: Keep-Alive\n1 > User-Agent: Apache-HttpClient\/4.5.13 (Java\/1.8.0_201)\n1 > Accept-Encoding: gzip,deflate\n\n\n12:56:31.670 response time in milliseconds: 159\n1 < 200\n1 < Server: nginx\n1 < Date: Sun, 03 Apr 2022 07:26:32 GMT\n1 < Content-Type: application\/json; charset=utf-8\n1 < Transfer-Encoding: chunked\n1 < Connection: keep-alive\n1 < Vary: Accept-Encoding\n1 < Vary: Origin\n1 < X-Frame-Options: SAMEORIGIN\n1 < X-XSS-Protection: 0\n1 < X-Content-Type-Options: nosniff\n1 < X-Download-Options: noopen\n1 < X-Permitted-Cross-Domain-Policies: none\n1 < Referrer-Policy: strict-origin-when-cross-origin\n1 < ETag: W\/\"60d2850fc18b31e2eea07ccab97d3f4d\"\n1 < Cache-Control: max-age=0, private, must-revalidate\n1 < X-Request-Id: 3a115fe1-f65c-4ee4-ae52-dce71e31bd16\n1 < X-Runtime: 0.005009\n1 < Strict-Transport-Security: max-age=63072000; includeSubDomains\n{\"id\":100,\"name\":\"Atreyee Kocchar\",\"email\":\"kocchar_atreyee@goldner.com\",\"gender\":\"female\",\"status\":\"inactive\"}\n"},{"result":{"nanos":33800,"millis":0.0338,"status":"passed"},"step":{"line":73,"prefix":"Then","index":4,"text":"status 200"}},{"result":{"nanos":2235700,"millis":2.2357,"status":"passed"},"step":{"line":74,"prefix":"*","index":5,"text":"print response"},"stepLog":"12:56:31.675 [print] {\n  \"id\": 100,\n  \"name\": \"Atreyee Kocchar\",\n  \"email\": \"kocchar_atreyee@goldner.com\",\n  \"gender\": \"female\",\n  \"status\": \"inactive\"\n}\n \n"}],"executorName":"main","line":68,"name":"Get the user details - with headers - type 3","description":"","durationMillis":174.0322,"startTime":1648970791498,"failed":false,"refId":"[8:68]","endTime":1648970791675,"exampleIndex":-1}],"callDepth":0,"name":"GET API Automation","description":"","resultDate":"2022-04-03 12:56:31 PM","durationMillis":3077.6398,"passedCount":8}