{"failedCount":1,"prefixedPath":"src\/test\/java\/feature\/GET_API_Demo.feature","packageQualifiedName":"src.test.java.feature.GET_API_Demo","loopIndex":-1,"relativePath":"src\/test\/java\/feature\/GET_API_Demo.feature","scenarioResults":[{"sectionIndex":0,"stepResults":[{"result":{"nanos":15842800,"millis":15.8428,"status":"passed"},"step":{"line":4,"prefix":"Given","index":0,"text":"url baseURL+'public\/v2\/users'"}},{"result":{"nanos":1010000,"millis":1.01,"status":"passed"},"step":{"line":5,"prefix":"And","index":1,"text":"path '100'"}},{"result":{"nanos":1644287400,"millis":1644.2874,"status":"passed"},"step":{"line":6,"prefix":"When","index":2,"text":"method GET"},"stepLog":"12:51:13.155 request:\n1 > GET https:\/\/gorest.co.in\/public\/v2\/users\/100\n1 > Host: gorest.co.in\n1 > Connection: Keep-Alive\n1 > User-Agent: Apache-HttpClient\/4.5.13 (Java\/1.8.0_201)\n1 > Accept-Encoding: gzip,deflate\n\n\n12:51:13.731 response time in milliseconds: 569\n1 < 200\n1 < Server: nginx\n1 < Date: Sun, 03 Apr 2022 07:21:14 GMT\n1 < Content-Type: application\/json; charset=utf-8\n1 < Transfer-Encoding: chunked\n1 < Connection: keep-alive\n1 < Vary: Accept-Encoding\n1 < Vary: Origin\n1 < X-Frame-Options: SAMEORIGIN\n1 < X-XSS-Protection: 0\n1 < X-Content-Type-Options: nosniff\n1 < X-Download-Options: noopen\n1 < X-Permitted-Cross-Domain-Policies: none\n1 < Referrer-Policy: strict-origin-when-cross-origin\n1 < ETag: W\/\"60d2850fc18b31e2eea07ccab97d3f4d\"\n1 < Cache-Control: max-age=0, private, must-revalidate\n1 < X-Request-Id: 9e1f34e0-9beb-4114-a040-eec1539b9a74\n1 < X-Runtime: 0.003984\n1 < Strict-Transport-Security: max-age=63072000; includeSubDomains\n{\"id\":100,\"name\":\"Atreyee Kocchar\",\"email\":\"kocchar_atreyee@goldner.com\",\"gender\":\"female\",\"status\":\"inactive\"}\n"},{"result":{"nanos":52500,"millis":0.0525,"status":"passed"},"step":{"line":7,"prefix":"Then","index":3,"text":"status 200"}},{"result":{"nanos":43440800,"millis":43.4408,"status":"passed"},"step":{"line":8,"prefix":"*","index":4,"text":"print response"},"stepLog":"12:51:13.919 [print] {\n  \"id\": 100,\n  \"name\": \"Atreyee Kocchar\",\n  \"email\": \"kocchar_atreyee@goldner.com\",\n  \"gender\": \"female\",\n  \"status\": \"inactive\"\n}\n \n"},{"result":{"nanos":5991500,"millis":5.9915,"status":"passed"},"step":{"line":9,"prefix":"*","index":5,"text":"def jsonResponse = response"}},{"result":{"nanos":2477800,"millis":2.4778,"status":"passed"},"step":{"line":10,"prefix":"*","index":6,"text":"print jsonResponse.name"},"stepLog":"12:51:13.930 [print] Atreyee Kocchar \n"},{"result":{"nanos":1755900,"millis":1.7559,"status":"passed"},"step":{"line":11,"prefix":"*","index":7,"text":"def actualName = jsonResponse.name"}},{"result":{"nanos":14324200,"millis":14.3242,"status":"passed"},"step":{"line":12,"prefix":"*","index":8,"text":"match actualName == \"Atreyee Kocchar\""}}],"executorName":"main","line":3,"name":"Get the user details - path param - positive","description":"","durationMillis":1729.1829,"startTime":1648970471834,"failed":false,"refId":"[1:3]","endTime":1648970473947,"exampleIndex":-1},{"sectionIndex":1,"stepResults":[{"result":{"nanos":780300,"millis":0.7803,"status":"passed"},"step":{"line":15,"prefix":"Given","index":0,"text":"url 'https:\/\/gorest.co.in\/public\/v2\/users'"}},{"result":{"nanos":564100,"millis":0.5641,"status":"passed"},"step":{"line":16,"prefix":"And","index":1,"text":"path '2'"}},{"result":{"nanos":178126300,"millis":178.1263,"status":"passed"},"step":{"line":17,"prefix":"When","index":2,"text":"method GET"},"stepLog":"12:51:13.963 request:\n1 > GET https:\/\/gorest.co.in\/public\/v2\/users\/2\n1 > Host: gorest.co.in\n1 > Connection: Keep-Alive\n1 > User-Agent: Apache-HttpClient\/4.5.13 (Java\/1.8.0_201)\n1 > Accept-Encoding: gzip,deflate\n\n\n12:51:14.135 response time in milliseconds: 171\n1 < 404\n1 < Server: nginx\n1 < Date: Sun, 03 Apr 2022 07:21:15 GMT\n1 < Content-Type: application\/json; charset=utf-8\n1 < Transfer-Encoding: chunked\n1 < Connection: keep-alive\n1 < Vary: Accept-Encoding\n1 < Vary: Origin\n1 < X-Frame-Options: SAMEORIGIN\n1 < X-XSS-Protection: 0\n1 < X-Content-Type-Options: nosniff\n1 < X-Download-Options: noopen\n1 < X-Permitted-Cross-Domain-Policies: none\n1 < Referrer-Policy: strict-origin-when-cross-origin\n1 < Cache-Control: no-cache\n1 < X-Request-Id: ee9de1d4-9d68-4117-99db-0b69c4931661\n1 < X-Runtime: 0.011200\n1 < Strict-Transport-Security: max-age=63072000; includeSubDomains\n{\"message\":\"Resource not found\"}\n"},{"result":{"nanos":23000,"millis":0.023,"status":"passed"},"step":{"line":18,"prefix":"Then","index":3,"text":"status 404"}},{"result":{"nanos":1754500,"millis":1.7545,"status":"passed"},"step":{"line":19,"prefix":"*","index":4,"text":"print response"},"stepLog":"12:51:14.139 [print] {\n  \"message\": \"Resource not found\"\n}\n \n"},{"result":{"nanos":815700,"millis":0.8157,"status":"passed"},"step":{"line":20,"prefix":"*","index":5,"text":"def jsonResponse = response"}},{"result":{"nanos":2309100,"millis":2.3091,"status":"passed"},"step":{"line":21,"prefix":"*","index":6,"text":"print jsonResponse.message"},"stepLog":"12:51:14.143 [print] Resource not found \n"}],"executorName":"main","line":14,"name":"Get the user details - path param - negative","description":"","durationMillis":184.373,"startTime":1648970473955,"failed":false,"refId":"[2:14]","endTime":1648970474143,"exampleIndex":-1},{"sectionIndex":2,"stepResults":[{"result":{"nanos":56086400,"millis":56.0864,"status":"passed"},"step":{"line":24,"prefix":"*","index":0,"text":"def query = {id:100}"}},{"result":{"nanos":2103500,"millis":2.1035,"status":"passed"},"step":{"line":25,"prefix":"Given","index":1,"text":"url baseURL+'public\/v2\/users'"}},{"result":{"nanos":8368600,"millis":8.3686,"status":"passed"},"step":{"line":26,"prefix":"And","index":2,"text":"params query"}},{"result":{"nanos":187501500,"millis":187.5015,"status":"passed"},"step":{"line":27,"prefix":"When","index":3,"text":"method GET"},"stepLog":"12:51:14.242 request:\n1 > GET https:\/\/gorest.co.in\/public\/v2\/users?id=100\n1 > Host: gorest.co.in\n1 > Connection: Keep-Alive\n1 > User-Agent: Apache-HttpClient\/4.5.13 (Java\/1.8.0_201)\n1 > Accept-Encoding: gzip,deflate\n\n\n12:51:14.413 response time in milliseconds: 170\n1 < 200\n1 < Server: nginx\n1 < Date: Sun, 03 Apr 2022 07:21:15 GMT\n1 < Content-Type: application\/json; charset=utf-8\n1 < Transfer-Encoding: chunked\n1 < Connection: keep-alive\n1 < Vary: Accept-Encoding\n1 < Vary: Origin\n1 < X-Frame-Options: SAMEORIGIN\n1 < X-XSS-Protection: 0\n1 < X-Content-Type-Options: nosniff\n1 < X-Download-Options: noopen\n1 < X-Permitted-Cross-Domain-Policies: none\n1 < Referrer-Policy: strict-origin-when-cross-origin\n1 < X-Pagination-Total: 1\n1 < X-Pagination-Pages: 1\n1 < X-Pagination-Page: 1\n1 < X-Pagination-Limit: 20\n1 < X-Links-Previous: \n1 < X-Links-Current: https:\/\/gorest.co.in\/public\/v2\/users?page=1\n1 < X-Links-Next: \n1 < ETag: W\/\"3c0af39ef0e8218d62e8dd669d0aebc4\"\n1 < Cache-Control: max-age=0, private, must-revalidate\n1 < X-Request-Id: 25c1b43b-6074-4754-8f22-0f53632f668d\n1 < X-Runtime: 0.020133\n1 < Strict-Transport-Security: max-age=63072000; includeSubDomains\n[{\"id\":100,\"name\":\"Atreyee Kocchar\",\"email\":\"kocchar_atreyee@goldner.com\",\"gender\":\"female\",\"status\":\"inactive\"}]\n"},{"result":{"nanos":23200,"millis":0.0232,"status":"passed"},"step":{"line":28,"prefix":"Then","index":4,"text":"status 200"}},{"result":{"nanos":2513400,"millis":2.5134,"status":"passed"},"step":{"line":29,"prefix":"*","index":5,"text":"print response"},"stepLog":"12:51:14.420 [print] [\n  {\n    \"id\": 100,\n    \"name\": \"Atreyee Kocchar\",\n    \"email\": \"kocchar_atreyee@goldner.com\",\n    \"gender\": \"female\",\n    \"status\": \"inactive\"\n  }\n]\n \n"}],"executorName":"main","line":23,"name":"Get the user details - query param - positive","description":"","durationMillis":256.5966,"startTime":1648970474161,"failed":false,"refId":"[3:23]","endTime":1648970474421,"exampleIndex":-1},{"sectionIndex":3,"stepResults":[{"result":{"nanos":1404400,"millis":1.4044,"status":"passed"},"step":{"line":32,"prefix":"*","index":0,"text":"def query = {status:'active'}"}},{"result":{"nanos":1649500,"millis":1.6495,"status":"passed"},"step":{"line":33,"prefix":"Given","index":1,"text":"url baseURL+'public\/v1\/users'"}},{"result":{"nanos":433200,"millis":0.4332,"status":"passed"},"step":{"line":34,"prefix":"And","index":2,"text":"params query"}},{"result":{"nanos":186269100,"millis":186.2691,"status":"passed"},"step":{"line":35,"prefix":"When","index":3,"text":"method GET"},"stepLog":"12:51:14.446 request:\n1 > GET https:\/\/gorest.co.in\/public\/v1\/users?status=active\n1 > Host: gorest.co.in\n1 > Connection: Keep-Alive\n1 > User-Agent: Apache-HttpClient\/4.5.13 (Java\/1.8.0_201)\n1 > Accept-Encoding: gzip,deflate\n\n\n12:51:14.626 response time in milliseconds: 179\n1 < 200\n1 < Server: nginx\n1 < Date: Sun, 03 Apr 2022 07:21:15 GMT\n1 < Content-Type: application\/json; charset=utf-8\n1 < Transfer-Encoding: chunked\n1 < Connection: keep-alive\n1 < Vary: Accept-Encoding\n1 < Vary: Origin\n1 < X-Frame-Options: SAMEORIGIN\n1 < X-XSS-Protection: 0\n1 < X-Content-Type-Options: nosniff\n1 < X-Download-Options: noopen\n1 < X-Permitted-Cross-Domain-Policies: none\n1 < Referrer-Policy: strict-origin-when-cross-origin\n1 < ETag: W\/\"3910855ff025b1acb3cd3ae35315e307\"\n1 < Cache-Control: max-age=0, private, must-revalidate\n1 < X-Request-Id: bc5d5a88-b67a-48ca-99af-510246aa92c5\n1 < X-Runtime: 0.012491\n1 < Strict-Transport-Security: max-age=63072000; includeSubDomains\n{\"meta\":{\"pagination\":{\"total\":1789,\"pages\":90,\"page\":1,\"limit\":20,\"links\":{\"previous\":null,\"current\":\"https:\/\/gorest.co.in\/public\/v1\/users?page=1\",\"next\":\"https:\/\/gorest.co.in\/public\/v1\/users?page=2\"}}},\"data\":[{\"id\":3655,\"name\":\"Msgr. Chitrali Bhattacharya\",\"email\":\"msgr_bhattacharya_chitrali@larson.biz\",\"gender\":\"female\",\"status\":\"active\"},{\"id\":3654,\"name\":\"Tara Sinha\",\"email\":\"sinha_tara@huel-okuneva.io\",\"gender\":\"female\",\"status\":\"active\"},{\"id\":3652,\"name\":\"Deeptendu Johar\",\"email\":\"deeptendu_johar@murphy.org\",\"gender\":\"male\",\"status\":\"active\"},{\"id\":3651,\"name\":\"Chaitan Mukhopadhyay\",\"email\":\"chaitan_mukhopadhyay@graham.net\",\"gender\":\"female\",\"status\":\"active\"},{\"id\":3650,\"name\":\"Lakshminath Kocchar DDS\",\"email\":\"dds_kocchar_lakshminath@adams-stehr.co\",\"gender\":\"male\",\"status\":\"active\"},{\"id\":3649,\"name\":\"Bhima Nayar\",\"email\":\"bhima_nayar@ebert-nienow.co\",\"gender\":\"male\",\"status\":\"active\"},{\"id\":3648,\"name\":\"Aishani Talwar\",\"email\":\"talwar_aishani@kunde.biz\",\"gender\":\"male\",\"status\":\"active\"},{\"id\":3646,\"name\":\"Chandan Chaturvedi\",\"email\":\"chaturvedi_chandan@bauch.org\",\"gender\":\"male\",\"status\":\"active\"},{\"id\":3644,\"name\":\"Mr. Jaya Jha\",\"email\":\"jaya_jha_mr@wolf.biz\",\"gender\":\"male\",\"status\":\"active\"},{\"id\":3641,\"name\":\"Dakshayani Dwivedi VM\",\"email\":\"dakshayani_vm_dwivedi@hegmann-barrows.name\",\"gender\":\"female\",\"status\":\"active\"},{\"id\":3638,\"name\":\"Dwaipayan Pothuvaal\",\"email\":\"pothuvaal_dwaipayan@rowe.com\",\"gender\":\"male\",\"status\":\"active\"},{\"id\":3636,\"name\":\"Ms. Rahul Tagore\",\"email\":\"rahul_tagore_ms@borer.io\",\"gender\":\"female\",\"status\":\"active\"},{\"id\":3632,\"name\":\"Chaten Mukhopadhyay Sr.\",\"email\":\"chaten_sr_mukhopadhyay@hartmann.io\",\"gender\":\"female\",\"status\":\"active\"},{\"id\":3631,\"name\":\"Dhanpati Asan III\",\"email\":\"asan_dhanpati_iii@breitenberg-stehr.com\",\"gender\":\"male\",\"status\":\"active\"},{\"id\":3629,\"name\":\"Mr. Javas Varma\",\"email\":\"javas_mr_varma@olson.org\",\"gender\":\"female\",\"status\":\"active\"},{\"id\":3625,\"name\":\"Bhardwaj Nair DC\",\"email\":\"bhardwaj_nair_dc@koelpin-deckow.net\",\"gender\":\"female\",\"status\":\"active\"},{\"id\":3624,\"name\":\"Dayaananda Mishra\",\"email\":\"mishra_dayaananda@kerluke.info\",\"gender\":\"male\",\"status\":\"active\"},{\"id\":3621,\"name\":\"Dhruv Pothuvaal JD\",\"email\":\"dhruv_jd_pothuvaal@baumbach.net\",\"gender\":\"female\",\"status\":\"active\"},{\"id\":3619,\"name\":\"Anala Somayaji\",\"email\":\"somayaji_anala@kuhn.io\",\"gender\":\"male\",\"status\":\"active\"},{\"id\":3617,\"name\":\"Anaadi Dwivedi LLD\",\"email\":\"anaadi_dwivedi_lld@fahey-spinka.org\",\"gender\":\"female\",\"status\":\"active\"}]}\n"},{"result":{"nanos":22700,"millis":0.0227,"status":"passed"},"step":{"line":36,"prefix":"Then","index":4,"text":"status 200"}},{"result":{"nanos":3922400,"millis":3.9224,"status":"passed"},"step":{"line":37,"prefix":"*","index":5,"text":"print response"},"stepLog":"12:51:14.632 [print] {\n  \"meta\": {\n    \"pagination\": {\n      \"total\": 1789,\n      \"pages\": 90,\n      \"page\": 1,\n      \"limit\": 20,\n      \"links\": {\n        \"previous\": null,\n        \"current\": \"https:\/\/gorest.co.in\/public\/v1\/users?page=1\",\n        \"next\": \"https:\/\/gorest.co.in\/public\/v1\/users?page=2\"\n      }\n    }\n  },\n  \"data\": [\n    {\n      \"id\": 3655,\n      \"name\": \"Msgr. Chitrali Bhattacharya\",\n      \"email\": \"msgr_bhattacharya_chitrali@larson.biz\",\n      \"gender\": \"female\",\n      \"status\": \"active\"\n    },\n    {\n      \"id\": 3654,\n      \"name\": \"Tara Sinha\",\n      \"email\": \"sinha_tara@huel-okuneva.io\",\n      \"gender\": \"female\",\n      \"status\": \"active\"\n    },\n    {\n      \"id\": 3652,\n      \"name\": \"Deeptendu Johar\",\n      \"email\": \"deeptendu_johar@murphy.org\",\n      \"gender\": \"male\",\n      \"status\": \"active\"\n    },\n    {\n      \"id\": 3651,\n      \"name\": \"Chaitan Mukhopadhyay\",\n      \"email\": \"chaitan_mukhopadhyay@graham.net\",\n      \"gender\": \"female\",\n      \"status\": \"active\"\n    },\n    {\n      \"id\": 3650,\n      \"name\": \"Lakshminath Kocchar DDS\",\n      \"email\": \"dds_kocchar_lakshminath@adams-stehr.co\",\n      \"gender\": \"male\",\n      \"status\": \"active\"\n    },\n    {\n      \"id\": 3649,\n      \"name\": \"Bhima Nayar\",\n      \"email\": \"bhima_nayar@ebert-nienow.co\",\n      \"gender\": \"male\",\n      \"status\": \"active\"\n    },\n    {\n      \"id\": 3648,\n      \"name\": \"Aishani Talwar\",\n      \"email\": \"talwar_aishani@kunde.biz\",\n      \"gender\": \"male\",\n      \"status\": \"active\"\n    },\n    {\n      \"id\": 3646,\n      \"name\": \"Chandan Chaturvedi\",\n      \"email\": \"chaturvedi_chandan@bauch.org\",\n      \"gender\": \"male\",\n      \"status\": \"active\"\n    },\n    {\n      \"id\": 3644,\n      \"name\": \"Mr. Jaya Jha\",\n      \"email\": \"jaya_jha_mr@wolf.biz\",\n      \"gender\": \"male\",\n      \"status\": \"active\"\n    },\n    {\n      \"id\": 3641,\n      \"name\": \"Dakshayani Dwivedi VM\",\n      \"email\": \"dakshayani_vm_dwivedi@hegmann-barrows.name\",\n      \"gender\": \"female\",\n      \"status\": \"active\"\n    },\n    {\n      \"id\": 3638,\n      \"name\": \"Dwaipayan Pothuvaal\",\n      \"email\": \"pothuvaal_dwaipayan@rowe.com\",\n      \"gender\": \"male\",\n      \"status\": \"active\"\n    },\n    {\n      \"id\": 3636,\n      \"name\": \"Ms. Rahul Tagore\",\n      \"email\": \"rahul_tagore_ms@borer.io\",\n      \"gender\": \"female\",\n      \"status\": \"active\"\n    },\n    {\n      \"id\": 3632,\n      \"name\": \"Chaten Mukhopadhyay Sr.\",\n      \"email\": \"chaten_sr_mukhopadhyay@hartmann.io\",\n      \"gender\": \"female\",\n      \"status\": \"active\"\n    },\n    {\n      \"id\": 3631,\n      \"name\": \"Dhanpati Asan III\",\n      \"email\": \"asan_dhanpati_iii@breitenberg-stehr.com\",\n      \"gender\": \"male\",\n      \"status\": \"active\"\n    },\n    {\n      \"id\": 3629,\n      \"name\": \"Mr. Javas Varma\",\n      \"email\": \"javas_mr_varma@olson.org\",\n      \"gender\": \"female\",\n      \"status\": \"active\"\n    },\n    {\n      \"id\": 3625,\n      \"name\": \"Bhardwaj Nair DC\",\n      \"email\": \"bhardwaj_nair_dc@koelpin-deckow.net\",\n      \"gender\": \"female\",\n      \"status\": \"active\"\n    },\n    {\n      \"id\": 3624,\n      \"name\": \"Dayaananda Mishra\",\n      \"email\": \"mishra_dayaananda@kerluke.info\",\n      \"gender\": \"male\",\n      \"status\": \"active\"\n    },\n    {\n      \"id\": 3621,\n      \"name\": \"Dhruv Pothuvaal JD\",\n      \"email\": \"dhruv_jd_pothuvaal@baumbach.net\",\n      \"gender\": \"female\",\n      \"status\": \"active\"\n    },\n    {\n      \"id\": 3619,\n      \"name\": \"Anala Somayaji\",\n      \"email\": \"somayaji_anala@kuhn.io\",\n      \"gender\": \"male\",\n      \"status\": \"active\"\n    },\n    {\n      \"id\": 3617,\n      \"name\": \"Anaadi Dwivedi LLD\",\n      \"email\": \"anaadi_dwivedi_lld@fahey-spinka.org\",\n      \"gender\": \"female\",\n      \"status\": \"active\"\n    }\n  ]\n}\n \n"},{"result":{"nanos":2632000,"millis":2.632,"status":"passed"},"step":{"line":38,"prefix":"*","index":6,"text":"def usersCount = response.data.length"}},{"result":{"nanos":5802900,"millis":5.8029,"status":"passed"},"step":{"line":39,"prefix":"*","index":7,"text":"match usersCount == 20"}}],"executorName":"main","line":31,"name":"Get the list of active users - query param - positive","description":"","durationMillis":202.1362,"startTime":1648970474435,"failed":false,"refId":"[4:31]","endTime":1648970474641,"exampleIndex":-1},{"sectionIndex":4,"stepResults":[{"result":{"nanos":1340800,"millis":1.3408,"status":"passed"},"step":{"line":42,"prefix":"*","index":0,"text":"def query = {id:2}"}},{"result":{"nanos":1013700,"millis":1.0137,"status":"passed"},"step":{"line":43,"prefix":"Given","index":1,"text":"url baseURL+'public\/v2\/users'"}},{"result":{"nanos":516700,"millis":0.5167,"status":"passed"},"step":{"line":44,"prefix":"And","index":2,"text":"params query"}},{"result":{"nanos":217080400,"millis":217.0804,"status":"passed"},"step":{"line":45,"prefix":"When","index":3,"text":"method GET"},"stepLog":"12:51:14.665 request:\n1 > GET https:\/\/gorest.co.in\/public\/v2\/users?id=2\n1 > Host: gorest.co.in\n1 > Connection: Keep-Alive\n1 > User-Agent: Apache-HttpClient\/4.5.13 (Java\/1.8.0_201)\n1 > Accept-Encoding: gzip,deflate\n\n\n12:51:14.875 response time in milliseconds: 209\n1 < 200\n1 < Server: nginx\n1 < Date: Sun, 03 Apr 2022 07:21:15 GMT\n1 < Content-Type: application\/json; charset=utf-8\n1 < Transfer-Encoding: chunked\n1 < Connection: keep-alive\n1 < Vary: Accept-Encoding\n1 < Vary: Origin\n1 < X-Frame-Options: SAMEORIGIN\n1 < X-XSS-Protection: 0\n1 < X-Content-Type-Options: nosniff\n1 < X-Download-Options: noopen\n1 < X-Permitted-Cross-Domain-Policies: none\n1 < Referrer-Policy: strict-origin-when-cross-origin\n1 < X-Pagination-Total: 0\n1 < X-Pagination-Pages: 0\n1 < X-Pagination-Page: 1\n1 < X-Pagination-Limit: 20\n1 < ETag: W\/\"4f53cda18c2baa0c0354bb5f9a3ecbe5\"\n1 < Cache-Control: max-age=0, private, must-revalidate\n1 < X-Request-Id: 69cac144-e849-4ee1-a125-a0f8a535706a\n1 < X-Runtime: 0.066550\n1 < Strict-Transport-Security: max-age=63072000; includeSubDomains\n[]\n"},{"result":{"nanos":28800,"millis":0.0288,"status":"passed"},"step":{"line":46,"prefix":"Then","index":4,"text":"status 200"}},{"result":{"nanos":1178400,"millis":1.1784,"status":"passed"},"step":{"line":47,"prefix":"*","index":5,"text":"print response"},"stepLog":"12:51:14.878 [print] [\n]\n \n"},{"result":{"nanos":546100,"millis":0.5461,"status":"passed"},"step":{"line":48,"prefix":"*","index":6,"text":"def userdetail = response"}},{"result":{"nanos":1227000,"millis":1.227,"status":"passed"},"step":{"line":49,"prefix":"*","index":7,"text":"match userdetail == []"}}],"executorName":"main","line":41,"name":"Get the user details - query param - negative","description":"","durationMillis":222.9319,"startTime":1648970474654,"failed":false,"refId":"[5:41]","endTime":1648970474880,"exampleIndex":-1},{"sectionIndex":5,"stepResults":[{"result":{"nanos":1357300,"millis":1.3573,"status":"passed"},"step":{"line":52,"prefix":"Given","index":0,"text":"header Content-Type = 'application\/json; charset=utf-8'"}},{"result":{"nanos":650500,"millis":0.6505,"status":"passed"},"step":{"line":53,"prefix":"When","index":1,"text":"url baseURL+'public\/v2\/users'"}},{"result":{"nanos":1132500,"millis":1.1325,"status":"passed"},"step":{"line":54,"prefix":"And","index":2,"text":"path '100'"}},{"result":{"nanos":167593300,"millis":167.5933,"status":"passed"},"step":{"line":55,"prefix":"And","index":3,"text":"method GET"},"stepLog":"12:51:14.904 request:\n1 > GET https:\/\/gorest.co.in\/public\/v2\/users\/100\n1 > Content-Type: application\/json; charset=utf-8\n1 > Host: gorest.co.in\n1 > Connection: Keep-Alive\n1 > User-Agent: Apache-HttpClient\/4.5.13 (Java\/1.8.0_201)\n1 > Accept-Encoding: gzip,deflate\n\n\n12:51:15.063 response time in milliseconds: 158\n1 < 200\n1 < Server: nginx\n1 < Date: Sun, 03 Apr 2022 07:21:16 GMT\n1 < Content-Type: application\/json; charset=utf-8\n1 < Transfer-Encoding: chunked\n1 < Connection: keep-alive\n1 < Vary: Accept-Encoding\n1 < Vary: Origin\n1 < X-Frame-Options: SAMEORIGIN\n1 < X-XSS-Protection: 0\n1 < X-Content-Type-Options: nosniff\n1 < X-Download-Options: noopen\n1 < X-Permitted-Cross-Domain-Policies: none\n1 < Referrer-Policy: strict-origin-when-cross-origin\n1 < ETag: W\/\"60d2850fc18b31e2eea07ccab97d3f4d\"\n1 < Cache-Control: max-age=0, private, must-revalidate\n1 < X-Request-Id: ca5faa65-4135-474e-a65f-d182d36d2adf\n1 < X-Runtime: 0.005089\n1 < Strict-Transport-Security: max-age=63072000; includeSubDomains\n{\"id\":100,\"name\":\"Atreyee Kocchar\",\"email\":\"kocchar_atreyee@goldner.com\",\"gender\":\"female\",\"status\":\"inactive\"}\n"},{"result":{"nanos":23300,"millis":0.0233,"status":"passed"},"step":{"line":56,"prefix":"Then","index":4,"text":"status 200"}},{"result":{"nanos":1354900,"millis":1.3549,"status":"passed"},"step":{"line":57,"prefix":"*","index":5,"text":"print response"},"stepLog":"12:51:15.067 [print] {\n  \"id\": 100,\n  \"name\": \"Atreyee Kocchar\",\n  \"email\": \"kocchar_atreyee@goldner.com\",\n  \"gender\": \"female\",\n  \"status\": \"inactive\"\n}\n \n"}],"executorName":"main","line":51,"name":"Get the user details - with headers - type 1","description":"","durationMillis":172.1118,"startTime":1648970474892,"failed":false,"refId":"[6:51]","endTime":1648970475067,"exampleIndex":-1},{"sectionIndex":6,"stepResults":[{"result":{"nanos":1091200,"millis":1.0912,"status":"passed"},"step":{"line":60,"prefix":"*","index":0,"text":"def request_headers = {Content-Type:'application\/json; charset=utf-8'}"}},{"result":{"nanos":0,"errorMessage":"no step-definition method match found for: header request_headers\nsrc\/test\/java\/feature\/GET_API_Demo.feature:61","millis":0.0,"status":"failed"},"step":{"line":61,"prefix":"Given","index":1,"text":"header request_headers"},"stepLog":"12:51:15.087 src\/test\/java\/feature\/GET_API_Demo.feature:61\nGiven header request_headers\nno step-definition method match found for: header request_headers\nsrc\/test\/java\/feature\/GET_API_Demo.feature:61\n"},{"result":{"nanos":0,"millis":0.0,"status":"skipped"},"step":{"line":62,"prefix":"When","index":2,"text":"url baseURL+'public\/v2\/users'"}},{"result":{"nanos":0,"millis":0.0,"status":"skipped"},"step":{"line":63,"prefix":"And","index":3,"text":"path '100'"}},{"result":{"nanos":0,"millis":0.0,"status":"skipped"},"step":{"line":64,"prefix":"And","index":4,"text":"method GET"}},{"result":{"nanos":0,"millis":0.0,"status":"skipped"},"step":{"line":65,"prefix":"Then","index":5,"text":"status 200"}},{"result":{"nanos":0,"millis":0.0,"status":"skipped"},"step":{"line":66,"prefix":"*","index":6,"text":"print response"}}],"line":59,"description":"","durationMillis":1.0912,"failed":true,"error":"no step-definition method match found for: header request_headers\nsrc\/test\/java\/feature\/GET_API_Demo.feature:61","executorName":"main","name":"Get the user details - with headers - type 2","startTime":1648970475083,"refId":"[7:59]","endTime":1648970475088,"exampleIndex":-1}],"callDepth":0,"name":"GET API Automation","description":"","resultDate":"2022-04-03 12:51:15 PM","durationMillis":2768.4236,"passedCount":6}