{"failedCount":1,"prefixedPath":"src\/test\/java\/feature\/GET_API_Demo.feature","packageQualifiedName":"src.test.java.feature.GET_API_Demo","loopIndex":-1,"relativePath":"src\/test\/java\/feature\/GET_API_Demo.feature","scenarioResults":[{"sectionIndex":0,"stepResults":[{"result":{"nanos":17793400,"millis":17.7934,"status":"passed"},"step":{"line":4,"prefix":"Given","index":0,"text":"url baseURL+'public\/v2\/users'"}},{"result":{"nanos":770200,"millis":0.7702,"status":"passed"},"step":{"line":5,"prefix":"And","index":1,"text":"path '2'"}},{"result":{"nanos":1418241600,"millis":1418.2416,"status":"passed"},"step":{"line":6,"prefix":"When","index":2,"text":"method GET"},"stepLog":"14:28:31.442 request:\n1 > GET https:\/\/gorest.co.in\/public\/v2\/users\/2\n1 > Host: gorest.co.in\n1 > Connection: Keep-Alive\n1 > User-Agent: Apache-HttpClient\/4.5.13 (Java\/1.8.0_201)\n1 > Accept-Encoding: gzip,deflate\n\n\n14:28:31.992 response time in milliseconds: 547\n1 < 200\n1 < Server: nginx\n1 < Date: Sat, 02 Apr 2022 08:58:32 GMT\n1 < Content-Type: application\/json; charset=utf-8\n1 < Transfer-Encoding: chunked\n1 < Connection: keep-alive\n1 < Vary: Accept-Encoding\n1 < Vary: Origin\n1 < X-Frame-Options: SAMEORIGIN\n1 < X-XSS-Protection: 0\n1 < X-Content-Type-Options: nosniff\n1 < X-Download-Options: noopen\n1 < X-Permitted-Cross-Domain-Policies: none\n1 < Referrer-Policy: strict-origin-when-cross-origin\n1 < ETag: W\/\"ee52f7ecb245c152bfe1be2d492c2cc8\"\n1 < Cache-Control: max-age=0, private, must-revalidate\n1 < X-Request-Id: 28ef6c56-6f4d-4e42-999d-494fbd5c4905\n1 < X-Runtime: 0.004876\n1 < Strict-Transport-Security: max-age=63072000; includeSubDomains\n{\"id\":2,\"name\":\"Lal Guneta\",\"email\":\"lal_guneta@auer-harris.io\",\"gender\":\"female\",\"status\":\"inactive\"}\n"},{"result":{"nanos":24000,"millis":0.024,"status":"passed"},"step":{"line":7,"prefix":"Then","index":3,"text":"status 200"}},{"result":{"nanos":20735600,"millis":20.7356,"status":"passed"},"step":{"line":8,"prefix":"*","index":4,"text":"print response"},"stepLog":"14:28:32.056 [print] {\n  \"id\": 2,\n  \"name\": \"Lal Guneta\",\n  \"email\": \"lal_guneta@auer-harris.io\",\n  \"gender\": \"female\",\n  \"status\": \"inactive\"\n}\n \n"},{"result":{"nanos":3120300,"millis":3.1203,"status":"passed"},"step":{"line":9,"prefix":"*","index":5,"text":"def jsonResponse = response"}},{"result":{"nanos":1347400,"millis":1.3474,"status":"passed"},"step":{"line":10,"prefix":"*","index":6,"text":"print jsonResponse.name"},"stepLog":"14:28:32.062 [print] Lal Guneta \n"},{"result":{"nanos":852500,"millis":0.8525,"status":"passed"},"step":{"line":11,"prefix":"*","index":7,"text":"def actualName = jsonResponse.name"}},{"result":{"nanos":11005400,"millis":11.0054,"status":"passed"},"step":{"line":12,"prefix":"*","index":8,"text":"match actualName == \"Lal Guneta\""}}],"executorName":"main","line":3,"name":"Get the user details - path param - positive","description":"","durationMillis":1473.8904,"startTime":1648889910305,"failed":false,"refId":"[1:3]","endTime":1648889912074,"exampleIndex":-1},{"sectionIndex":1,"stepResults":[{"result":{"nanos":790500,"millis":0.7905,"status":"passed"},"step":{"line":15,"prefix":"Given","index":0,"text":"url 'https:\/\/gorest.co.in\/public\/v2\/users'"}},{"result":{"nanos":743200,"millis":0.7432,"status":"passed"},"step":{"line":16,"prefix":"And","index":1,"text":"path '100'"}},{"result":{"nanos":129031300,"millis":129.0313,"status":"passed"},"step":{"line":17,"prefix":"When","index":2,"text":"method GET"},"stepLog":"14:28:32.093 request:\n1 > GET https:\/\/gorest.co.in\/public\/v2\/users\/100\n1 > Host: gorest.co.in\n1 > Connection: Keep-Alive\n1 > User-Agent: Apache-HttpClient\/4.5.13 (Java\/1.8.0_201)\n1 > Accept-Encoding: gzip,deflate\n\n\n14:28:32.219 response time in milliseconds: 126\n1 < 404\n1 < Server: nginx\n1 < Date: Sat, 02 Apr 2022 08:58:32 GMT\n1 < Content-Type: application\/json; charset=utf-8\n1 < Transfer-Encoding: chunked\n1 < Connection: keep-alive\n1 < Vary: Accept-Encoding\n1 < Vary: Origin\n1 < X-Frame-Options: SAMEORIGIN\n1 < X-XSS-Protection: 0\n1 < X-Content-Type-Options: nosniff\n1 < X-Download-Options: noopen\n1 < X-Permitted-Cross-Domain-Policies: none\n1 < Referrer-Policy: strict-origin-when-cross-origin\n1 < Cache-Control: no-cache\n1 < X-Request-Id: 3d0350ad-3ac5-491e-8cf8-37d554dd1116\n1 < X-Runtime: 0.003266\n1 < Strict-Transport-Security: max-age=63072000; includeSubDomains\n{\"message\":\"Resource not found\"}\n"},{"result":{"nanos":12800,"millis":0.0128,"status":"passed"},"step":{"line":18,"prefix":"Then","index":3,"text":"status 404"}},{"result":{"nanos":673500,"millis":0.6735,"status":"passed"},"step":{"line":19,"prefix":"*","index":4,"text":"print response"},"stepLog":"14:28:32.221 [print] {\n  \"message\": \"Resource not found\"\n}\n \n"},{"result":{"nanos":549900,"millis":0.5499,"status":"passed"},"step":{"line":20,"prefix":"*","index":5,"text":"def jsonResponse = response"}},{"result":{"nanos":1418800,"millis":1.4188,"status":"passed"},"step":{"line":21,"prefix":"*","index":6,"text":"print jsonResponse.message"},"stepLog":"14:28:32.223 [print] Resource not found \n"}],"executorName":"main","line":14,"name":"Get the user details - path param - negative","description":"","durationMillis":133.22,"startTime":1648889912086,"failed":false,"refId":"[2:14]","endTime":1648889912223,"exampleIndex":-1},{"sectionIndex":2,"stepResults":[{"result":{"nanos":27237000,"millis":27.237,"status":"passed"},"step":{"line":24,"prefix":"*","index":0,"text":"def query = {id:2}"}},{"result":{"nanos":501000,"millis":0.501,"status":"passed"},"step":{"line":25,"prefix":"Given","index":1,"text":"url baseURL+'public\/v2\/users'"}},{"result":{"nanos":3306900,"millis":3.3069,"status":"passed"},"step":{"line":26,"prefix":"And","index":2,"text":"params query"}},{"result":{"nanos":123874700,"millis":123.8747,"status":"passed"},"step":{"line":27,"prefix":"When","index":3,"text":"method GET"},"stepLog":"14:28:32.266 request:\n1 > GET https:\/\/gorest.co.in\/public\/v2\/users?id=2\n1 > Host: gorest.co.in\n1 > Connection: Keep-Alive\n1 > User-Agent: Apache-HttpClient\/4.5.13 (Java\/1.8.0_201)\n1 > Accept-Encoding: gzip,deflate\n\n\n14:28:32.385 response time in milliseconds: 118\n1 < 200\n1 < Server: nginx\n1 < Date: Sat, 02 Apr 2022 08:58:32 GMT\n1 < Content-Type: application\/json; charset=utf-8\n1 < Transfer-Encoding: chunked\n1 < Connection: keep-alive\n1 < Vary: Accept-Encoding\n1 < Vary: Origin\n1 < X-Frame-Options: SAMEORIGIN\n1 < X-XSS-Protection: 0\n1 < X-Content-Type-Options: nosniff\n1 < X-Download-Options: noopen\n1 < X-Permitted-Cross-Domain-Policies: none\n1 < Referrer-Policy: strict-origin-when-cross-origin\n1 < X-Pagination-Total: 1\n1 < X-Pagination-Pages: 1\n1 < X-Pagination-Page: 1\n1 < X-Pagination-Limit: 20\n1 < X-Links-Previous: \n1 < X-Links-Current: https:\/\/gorest.co.in\/public\/v2\/users?page=1\n1 < X-Links-Next: \n1 < ETag: W\/\"853bb519e69e6ae1c0b3b519fbcd9d6e\"\n1 < Cache-Control: max-age=0, private, must-revalidate\n1 < X-Request-Id: aa8da703-4441-445a-933d-d5fcbabffb81\n1 < X-Runtime: 0.006837\n1 < Strict-Transport-Security: max-age=63072000; includeSubDomains\n[{\"id\":2,\"name\":\"Lal Guneta\",\"email\":\"lal_guneta@auer-harris.io\",\"gender\":\"female\",\"status\":\"inactive\"}]\n"},{"result":{"nanos":10100,"millis":0.0101,"status":"passed"},"step":{"line":28,"prefix":"Then","index":4,"text":"status 200"}},{"result":{"nanos":857400,"millis":0.8574,"status":"passed"},"step":{"line":29,"prefix":"*","index":5,"text":"print response"},"stepLog":"14:28:32.387 [print] [\n  {\n    \"id\": 2,\n    \"name\": \"Lal Guneta\",\n    \"email\": \"lal_guneta@auer-harris.io\",\n    \"gender\": \"female\",\n    \"status\": \"inactive\"\n  }\n]\n \n"}],"executorName":"main","line":23,"name":"Get the user details - query param - positive","description":"","durationMillis":155.7871,"startTime":1648889912230,"failed":false,"refId":"[3:23]","endTime":1648889912387,"exampleIndex":-1},{"sectionIndex":3,"stepResults":[{"result":{"nanos":502100,"millis":0.5021,"status":"passed"},"step":{"line":32,"prefix":"*","index":0,"text":"def query = {status:'active'}"}},{"result":{"nanos":887100,"millis":0.8871,"status":"passed"},"step":{"line":33,"prefix":"Given","index":1,"text":"url baseURL+'public\/v1\/users'"}},{"result":{"nanos":226700,"millis":0.2267,"status":"passed"},"step":{"line":34,"prefix":"And","index":2,"text":"params query"}},{"result":{"nanos":142466900,"millis":142.4669,"status":"passed"},"step":{"line":35,"prefix":"When","index":3,"text":"method GET"},"stepLog":"14:28:32.399 request:\n1 > GET https:\/\/gorest.co.in\/public\/v1\/users?status=active\n1 > Host: gorest.co.in\n1 > Connection: Keep-Alive\n1 > User-Agent: Apache-HttpClient\/4.5.13 (Java\/1.8.0_201)\n1 > Accept-Encoding: gzip,deflate\n\n\n14:28:32.538 response time in milliseconds: 139\n1 < 200\n1 < Server: nginx\n1 < Date: Sat, 02 Apr 2022 08:58:32 GMT\n1 < Content-Type: application\/json; charset=utf-8\n1 < Transfer-Encoding: chunked\n1 < Connection: keep-alive\n1 < Vary: Accept-Encoding\n1 < Vary: Origin\n1 < X-Frame-Options: SAMEORIGIN\n1 < X-XSS-Protection: 0\n1 < X-Content-Type-Options: nosniff\n1 < X-Download-Options: noopen\n1 < X-Permitted-Cross-Domain-Policies: none\n1 < Referrer-Policy: strict-origin-when-cross-origin\n1 < ETag: W\/\"df1ee1c182c123e1c16b72d88cae04be\"\n1 < Cache-Control: max-age=0, private, must-revalidate\n1 < X-Request-Id: f1f41e36-0e56-408b-96ac-a8bcfc9ba6ea\n1 < X-Runtime: 0.012580\n1 < Strict-Transport-Security: max-age=63072000; includeSubDomains\n{\"meta\":{\"pagination\":{\"total\":1398,\"pages\":70,\"page\":1,\"limit\":20,\"links\":{\"previous\":null,\"current\":\"https:\/\/gorest.co.in\/public\/v1\/users?page=1\",\"next\":\"https:\/\/gorest.co.in\/public\/v1\/users?page=2\"}}},\"data\":[{\"id\":2935,\"name\":\"Shashikala Embranthiri\",\"email\":\"embranthiri_shashikala@mcglynn-reinger.io\",\"gender\":\"male\",\"status\":\"active\"},{\"id\":2934,\"name\":\"Gov. Atreyee Ganaka\",\"email\":\"ganaka_atreyee_gov@mann.info\",\"gender\":\"female\",\"status\":\"active\"},{\"id\":2933,\"name\":\"Divjot Nair\",\"email\":\"nair_divjot@harris.name\",\"gender\":\"male\",\"status\":\"active\"},{\"id\":2928,\"name\":\"Ekadant Banerjee\",\"email\":\"ekadant_banerjee@bruen-heidenreich.info\",\"gender\":\"female\",\"status\":\"active\"},{\"id\":2927,\"name\":\"Umang Tandon\",\"email\":\"umang_tandon@ward-yundt.info\",\"gender\":\"male\",\"status\":\"active\"},{\"id\":2924,\"name\":\"Miss Dinkar Joshi\",\"email\":\"joshi_dinkar_miss@moen-rowe.org\",\"gender\":\"male\",\"status\":\"active\"},{\"id\":2923,\"name\":\"Dr. Abhirath Naik\",\"email\":\"naik_dr_abhirath@terry.info\",\"gender\":\"female\",\"status\":\"active\"},{\"id\":2921,\"name\":\"Mrs. Narendra Bhattacharya\",\"email\":\"mrs_bhattacharya_narendra@walsh-waters.info\",\"gender\":\"female\",\"status\":\"active\"},{\"id\":2916,\"name\":\"Niro Singh\",\"email\":\"niro_singh@pagac.biz\",\"gender\":\"male\",\"status\":\"active\"},{\"id\":2915,\"name\":\"Chitramala Khatri Ret.\",\"email\":\"ret_chitramala_khatri@nader-schuppe.net\",\"gender\":\"male\",\"status\":\"active\"},{\"id\":2912,\"name\":\"Mr. Chatura Talwar\",\"email\":\"chatura_talwar_mr@schiller.info\",\"gender\":\"female\",\"status\":\"active\"},{\"id\":2911,\"name\":\"Darshan Kakkar\",\"email\":\"darshan_kakkar@kshlerin-padberg.biz\",\"gender\":\"male\",\"status\":\"active\"},{\"id\":2910,\"name\":\"Girika Kaul\",\"email\":\"kaul_girika@wuckert-cummings.name\",\"gender\":\"female\",\"status\":\"active\"},{\"id\":2909,\"name\":\"Mahendra Marar\",\"email\":\"mahendra_marar@renner.co\",\"gender\":\"female\",\"status\":\"active\"},{\"id\":2907,\"name\":\"Bandhu Gandhi\",\"email\":\"bandhu_gandhi@hettinger-zulauf.co\",\"gender\":\"female\",\"status\":\"active\"},{\"id\":2906,\"name\":\"Rev. Nirbhay Chopra\",\"email\":\"nirbhay_chopra_rev@hoppe-ratke.org\",\"gender\":\"female\",\"status\":\"active\"},{\"id\":2905,\"name\":\"Chatura Sethi\",\"email\":\"chatura_sethi@green.name\",\"gender\":\"female\",\"status\":\"active\"},{\"id\":2904,\"name\":\"Deepan Iyengar\",\"email\":\"iyengar_deepan@carroll.info\",\"gender\":\"female\",\"status\":\"active\"},{\"id\":2902,\"name\":\"Hiranya Asan\",\"email\":\"asan_hiranya@okon-okeefe.biz\",\"gender\":\"female\",\"status\":\"active\"},{\"id\":2900,\"name\":\"Ashlesh Khanna\",\"email\":\"ashlesh_khanna@harber.biz\",\"gender\":\"female\",\"status\":\"active\"}]}\n"},{"result":{"nanos":12000,"millis":0.012,"status":"passed"},"step":{"line":36,"prefix":"Then","index":4,"text":"status 200"}},{"result":{"nanos":2041900,"millis":2.0419,"status":"passed"},"step":{"line":37,"prefix":"*","index":5,"text":"print response"},"stepLog":"14:28:32.542 [print] {\n  \"meta\": {\n    \"pagination\": {\n      \"total\": 1398,\n      \"pages\": 70,\n      \"page\": 1,\n      \"limit\": 20,\n      \"links\": {\n        \"previous\": null,\n        \"current\": \"https:\/\/gorest.co.in\/public\/v1\/users?page=1\",\n        \"next\": \"https:\/\/gorest.co.in\/public\/v1\/users?page=2\"\n      }\n    }\n  },\n  \"data\": [\n    {\n      \"id\": 2935,\n      \"name\": \"Shashikala Embranthiri\",\n      \"email\": \"embranthiri_shashikala@mcglynn-reinger.io\",\n      \"gender\": \"male\",\n      \"status\": \"active\"\n    },\n    {\n      \"id\": 2934,\n      \"name\": \"Gov. Atreyee Ganaka\",\n      \"email\": \"ganaka_atreyee_gov@mann.info\",\n      \"gender\": \"female\",\n      \"status\": \"active\"\n    },\n    {\n      \"id\": 2933,\n      \"name\": \"Divjot Nair\",\n      \"email\": \"nair_divjot@harris.name\",\n      \"gender\": \"male\",\n      \"status\": \"active\"\n    },\n    {\n      \"id\": 2928,\n      \"name\": \"Ekadant Banerjee\",\n      \"email\": \"ekadant_banerjee@bruen-heidenreich.info\",\n      \"gender\": \"female\",\n      \"status\": \"active\"\n    },\n    {\n      \"id\": 2927,\n      \"name\": \"Umang Tandon\",\n      \"email\": \"umang_tandon@ward-yundt.info\",\n      \"gender\": \"male\",\n      \"status\": \"active\"\n    },\n    {\n      \"id\": 2924,\n      \"name\": \"Miss Dinkar Joshi\",\n      \"email\": \"joshi_dinkar_miss@moen-rowe.org\",\n      \"gender\": \"male\",\n      \"status\": \"active\"\n    },\n    {\n      \"id\": 2923,\n      \"name\": \"Dr. Abhirath Naik\",\n      \"email\": \"naik_dr_abhirath@terry.info\",\n      \"gender\": \"female\",\n      \"status\": \"active\"\n    },\n    {\n      \"id\": 2921,\n      \"name\": \"Mrs. Narendra Bhattacharya\",\n      \"email\": \"mrs_bhattacharya_narendra@walsh-waters.info\",\n      \"gender\": \"female\",\n      \"status\": \"active\"\n    },\n    {\n      \"id\": 2916,\n      \"name\": \"Niro Singh\",\n      \"email\": \"niro_singh@pagac.biz\",\n      \"gender\": \"male\",\n      \"status\": \"active\"\n    },\n    {\n      \"id\": 2915,\n      \"name\": \"Chitramala Khatri Ret.\",\n      \"email\": \"ret_chitramala_khatri@nader-schuppe.net\",\n      \"gender\": \"male\",\n      \"status\": \"active\"\n    },\n    {\n      \"id\": 2912,\n      \"name\": \"Mr. Chatura Talwar\",\n      \"email\": \"chatura_talwar_mr@schiller.info\",\n      \"gender\": \"female\",\n      \"status\": \"active\"\n    },\n    {\n      \"id\": 2911,\n      \"name\": \"Darshan Kakkar\",\n      \"email\": \"darshan_kakkar@kshlerin-padberg.biz\",\n      \"gender\": \"male\",\n      \"status\": \"active\"\n    },\n    {\n      \"id\": 2910,\n      \"name\": \"Girika Kaul\",\n      \"email\": \"kaul_girika@wuckert-cummings.name\",\n      \"gender\": \"female\",\n      \"status\": \"active\"\n    },\n    {\n      \"id\": 2909,\n      \"name\": \"Mahendra Marar\",\n      \"email\": \"mahendra_marar@renner.co\",\n      \"gender\": \"female\",\n      \"status\": \"active\"\n    },\n    {\n      \"id\": 2907,\n      \"name\": \"Bandhu Gandhi\",\n      \"email\": \"bandhu_gandhi@hettinger-zulauf.co\",\n      \"gender\": \"female\",\n      \"status\": \"active\"\n    },\n    {\n      \"id\": 2906,\n      \"name\": \"Rev. Nirbhay Chopra\",\n      \"email\": \"nirbhay_chopra_rev@hoppe-ratke.org\",\n      \"gender\": \"female\",\n      \"status\": \"active\"\n    },\n    {\n      \"id\": 2905,\n      \"name\": \"Chatura Sethi\",\n      \"email\": \"chatura_sethi@green.name\",\n      \"gender\": \"female\",\n      \"status\": \"active\"\n    },\n    {\n      \"id\": 2904,\n      \"name\": \"Deepan Iyengar\",\n      \"email\": \"iyengar_deepan@carroll.info\",\n      \"gender\": \"female\",\n      \"status\": \"active\"\n    },\n    {\n      \"id\": 2902,\n      \"name\": \"Hiranya Asan\",\n      \"email\": \"asan_hiranya@okon-okeefe.biz\",\n      \"gender\": \"female\",\n      \"status\": \"active\"\n    },\n    {\n      \"id\": 2900,\n      \"name\": \"Ashlesh Khanna\",\n      \"email\": \"ashlesh_khanna@harber.biz\",\n      \"gender\": \"female\",\n      \"status\": \"active\"\n    }\n  ]\n}\n \n"},{"result":{"nanos":1470400,"millis":1.4704,"status":"passed"},"step":{"line":38,"prefix":"*","index":6,"text":"def usersCount = response.data.length"}},{"result":{"nanos":2483300,"millis":2.4833,"status":"passed"},"step":{"line":39,"prefix":"*","index":7,"text":"match usersCount == 20"}}],"executorName":"main","line":31,"name":"Get the list of active users - query param - positive","description":"","durationMillis":150.0904,"startTime":1648889912394,"failed":false,"refId":"[4:31]","endTime":1648889912546,"exampleIndex":-1},{"sectionIndex":4,"stepResults":[{"result":{"nanos":647900,"millis":0.6479,"status":"passed"},"step":{"line":42,"prefix":"*","index":0,"text":"def query = {id:100}"}},{"result":{"nanos":433800,"millis":0.4338,"status":"passed"},"step":{"line":43,"prefix":"Given","index":1,"text":"url baseURL+'public\/v2\/users'"}},{"result":{"nanos":912300,"millis":0.9123,"status":"passed"},"step":{"line":44,"prefix":"And","index":2,"text":"params query"}},{"result":{"nanos":125361600,"millis":125.3616,"status":"passed"},"step":{"line":45,"prefix":"When","index":3,"text":"method GET"},"stepLog":"14:28:32.562 request:\n1 > GET https:\/\/gorest.co.in\/public\/v2\/users?id=100\n1 > Host: gorest.co.in\n1 > Connection: Keep-Alive\n1 > User-Agent: Apache-HttpClient\/4.5.13 (Java\/1.8.0_201)\n1 > Accept-Encoding: gzip,deflate\n\n\n14:28:32.684 response time in milliseconds: 121\n1 < 200\n1 < Server: nginx\n1 < Date: Sat, 02 Apr 2022 08:58:33 GMT\n1 < Content-Type: application\/json; charset=utf-8\n1 < Transfer-Encoding: chunked\n1 < Connection: keep-alive\n1 < Vary: Accept-Encoding\n1 < Vary: Origin\n1 < X-Frame-Options: SAMEORIGIN\n1 < X-XSS-Protection: 0\n1 < X-Content-Type-Options: nosniff\n1 < X-Download-Options: noopen\n1 < X-Permitted-Cross-Domain-Policies: none\n1 < Referrer-Policy: strict-origin-when-cross-origin\n1 < X-Pagination-Total: 0\n1 < X-Pagination-Pages: 0\n1 < X-Pagination-Page: 1\n1 < X-Pagination-Limit: 20\n1 < ETag: W\/\"4f53cda18c2baa0c0354bb5f9a3ecbe5\"\n1 < Cache-Control: max-age=0, private, must-revalidate\n1 < X-Request-Id: 6042e5ff-1193-42d7-bac0-11cc0ee276bd\n1 < X-Runtime: 0.006020\n1 < Strict-Transport-Security: max-age=63072000; includeSubDomains\n[]\n"},{"result":{"nanos":14200,"millis":0.0142,"status":"passed"},"step":{"line":46,"prefix":"Then","index":4,"text":"status 200"}},{"result":{"nanos":694400,"millis":0.6944,"status":"passed"},"step":{"line":47,"prefix":"*","index":5,"text":"print response"},"stepLog":"14:28:32.685 [print] [\n]\n \n"},{"result":{"nanos":281100,"millis":0.2811,"status":"passed"},"step":{"line":48,"prefix":"*","index":6,"text":"def userdetail = response"}},{"result":{"nanos":1719500,"errorMessage":"match failed: EQUALS\n  $ | data types don't match (LIST:STRING)\n  []\n  ''\n\nsrc\/test\/java\/feature\/GET_API_Demo.feature:49","millis":1.7195,"status":"failed"},"step":{"line":49,"prefix":"*","index":7,"text":"match userdetail == ''"},"stepLog":"14:28:32.688 src\/test\/java\/feature\/GET_API_Demo.feature:49\n* match userdetail == ''\nmatch failed: EQUALS\n  $ | data types don't match (LIST:STRING)\n  []\n  ''\n\nsrc\/test\/java\/feature\/GET_API_Demo.feature:49\n"}],"line":41,"description":"","durationMillis":130.0648,"failed":true,"error":"match failed: EQUALS\n  $ | data types don't match (LIST:STRING)\n  []\n  ''\n\nsrc\/test\/java\/feature\/GET_API_Demo.feature:49","executorName":"main","name":"Get the user details - query param - negative","startTime":1648889912554,"refId":"[5:41]","endTime":1648889912688,"exampleIndex":-1}],"callDepth":0,"name":"GET API Automation","description":"","resultDate":"2022-04-02 02:28:32 PM","durationMillis":2043.0527,"passedCount":4}