{"failedCount":4,"prefixedPath":"src\/test\/java\/feature\/GET_API_Demo.feature","packageQualifiedName":"src.test.java.feature.GET_API_Demo","loopIndex":-1,"relativePath":"src\/test\/java\/feature\/GET_API_Demo.feature","scenarioResults":[{"sectionIndex":0,"stepResults":[{"result":{"nanos":29146500,"millis":29.1465,"status":"passed"},"step":{"line":4,"prefix":"Given","index":0,"text":"url baseURL+'public\/v2\/users'"}},{"result":{"nanos":792500,"millis":0.7925,"status":"passed"},"step":{"line":5,"prefix":"And","index":1,"text":"path '2'"}},{"result":{"nanos":1655608800,"millis":1655.6088,"status":"passed"},"step":{"line":6,"prefix":"When","index":2,"text":"method GET"},"stepLog":"12:43:09.269 request:\n1 > GET https:\/\/gorest.co.in\/public\/v2\/users\/2\n1 > Host: gorest.co.in\n1 > Connection: Keep-Alive\n1 > User-Agent: Apache-HttpClient\/4.5.13 (Java\/1.8.0_201)\n1 > Accept-Encoding: gzip,deflate\n\n\n12:43:09.838 response time in milliseconds: 560\n1 < 404\n1 < Server: nginx\n1 < Date: Sun, 03 Apr 2022 07:13:10 GMT\n1 < Content-Type: application\/json; charset=utf-8\n1 < Transfer-Encoding: chunked\n1 < Connection: keep-alive\n1 < Vary: Accept-Encoding\n1 < Vary: Origin\n1 < X-Frame-Options: SAMEORIGIN\n1 < X-XSS-Protection: 0\n1 < X-Content-Type-Options: nosniff\n1 < X-Download-Options: noopen\n1 < X-Permitted-Cross-Domain-Policies: none\n1 < Referrer-Policy: strict-origin-when-cross-origin\n1 < Cache-Control: no-cache\n1 < X-Request-Id: 204cec20-3cd4-4fbb-a17c-dde46c8205c2\n1 < X-Runtime: 0.003627\n1 < Strict-Transport-Security: max-age=63072000; includeSubDomains\n{\"message\":\"Resource not found\"}\n"},{"result":{"nanos":148100,"errorMessage":"status code was: 404, expected: 200, response time in milliseconds: 560, url: https:\/\/gorest.co.in\/public\/v2\/users\/2, response: \n{\"message\":\"Resource not found\"}\nsrc\/test\/java\/feature\/GET_API_Demo.feature:7","millis":0.1481,"status":"failed"},"step":{"line":7,"prefix":"Then","index":3,"text":"status 200"},"stepLog":"12:43:09.966 src\/test\/java\/feature\/GET_API_Demo.feature:7\nThen status 200\nstatus code was: 404, expected: 200, response time in milliseconds: 560, url: https:\/\/gorest.co.in\/public\/v2\/users\/2, response: \n{\"message\":\"Resource not found\"}\nsrc\/test\/java\/feature\/GET_API_Demo.feature:7\n"},{"result":{"nanos":0,"millis":0.0,"status":"skipped"},"step":{"line":8,"prefix":"*","index":4,"text":"print response"}},{"result":{"nanos":0,"millis":0.0,"status":"skipped"},"step":{"line":9,"prefix":"*","index":5,"text":"def jsonResponse = response"}},{"result":{"nanos":0,"millis":0.0,"status":"skipped"},"step":{"line":10,"prefix":"*","index":6,"text":"print jsonResponse.name"}},{"result":{"nanos":0,"millis":0.0,"status":"skipped"},"step":{"line":11,"prefix":"*","index":7,"text":"def actualName = jsonResponse.name"}},{"result":{"nanos":0,"millis":0.0,"status":"skipped"},"step":{"line":12,"prefix":"*","index":8,"text":"match actualName == \"Lal Guneta\""}}],"line":3,"description":"","durationMillis":1685.6959,"failed":true,"error":"status code was: 404, expected: 200, response time in milliseconds: 560, url: https:\/\/gorest.co.in\/public\/v2\/users\/2, response: \n{\"message\":\"Resource not found\"}\nsrc\/test\/java\/feature\/GET_API_Demo.feature:7","executorName":"main","name":"Get the user details - path param - positive","startTime":1648969987854,"refId":"[1:3]","endTime":1648969989966,"exampleIndex":-1},{"sectionIndex":1,"stepResults":[{"result":{"nanos":1439600,"millis":1.4396,"status":"passed"},"step":{"line":15,"prefix":"Given","index":0,"text":"url 'https:\/\/gorest.co.in\/public\/v2\/users'"}},{"result":{"nanos":3603600,"millis":3.6036,"status":"passed"},"step":{"line":16,"prefix":"And","index":1,"text":"path '100'"}},{"result":{"nanos":134872800,"millis":134.8728,"status":"passed"},"step":{"line":17,"prefix":"When","index":2,"text":"method GET"},"stepLog":"12:43:09.993 request:\n1 > GET https:\/\/gorest.co.in\/public\/v2\/users\/100\n1 > Host: gorest.co.in\n1 > Connection: Keep-Alive\n1 > User-Agent: Apache-HttpClient\/4.5.13 (Java\/1.8.0_201)\n1 > Accept-Encoding: gzip,deflate\n\n\n12:43:10.124 response time in milliseconds: 130\n1 < 200\n1 < Server: nginx\n1 < Date: Sun, 03 Apr 2022 07:13:11 GMT\n1 < Content-Type: application\/json; charset=utf-8\n1 < Transfer-Encoding: chunked\n1 < Connection: keep-alive\n1 < Vary: Accept-Encoding\n1 < Vary: Origin\n1 < X-Frame-Options: SAMEORIGIN\n1 < X-XSS-Protection: 0\n1 < X-Content-Type-Options: nosniff\n1 < X-Download-Options: noopen\n1 < X-Permitted-Cross-Domain-Policies: none\n1 < Referrer-Policy: strict-origin-when-cross-origin\n1 < ETag: W\/\"60d2850fc18b31e2eea07ccab97d3f4d\"\n1 < Cache-Control: max-age=0, private, must-revalidate\n1 < X-Request-Id: 86df65ff-446a-4aec-ac6c-f6e9b0533471\n1 < X-Runtime: 0.005308\n1 < Strict-Transport-Security: max-age=63072000; includeSubDomains\n{\"id\":100,\"name\":\"Atreyee Kocchar\",\"email\":\"kocchar_atreyee@goldner.com\",\"gender\":\"female\",\"status\":\"inactive\"}\n"},{"result":{"nanos":55200,"errorMessage":"status code was: 200, expected: 404, response time in milliseconds: 130, url: https:\/\/gorest.co.in\/public\/v2\/users\/100, response: \n{\"id\":100,\"name\":\"Atreyee Kocchar\",\"email\":\"kocchar_atreyee@goldner.com\",\"gender\":\"female\",\"status\":\"inactive\"}\nsrc\/test\/java\/feature\/GET_API_Demo.feature:18","millis":0.0552,"status":"failed"},"step":{"line":18,"prefix":"Then","index":3,"text":"status 404"},"stepLog":"12:43:10.125 src\/test\/java\/feature\/GET_API_Demo.feature:18\nThen status 404\nstatus code was: 200, expected: 404, response time in milliseconds: 130, url: https:\/\/gorest.co.in\/public\/v2\/users\/100, response: \n{\"id\":100,\"name\":\"Atreyee Kocchar\",\"email\":\"kocchar_atreyee@goldner.com\",\"gender\":\"female\",\"status\":\"inactive\"}\nsrc\/test\/java\/feature\/GET_API_Demo.feature:18\n"},{"result":{"nanos":0,"millis":0.0,"status":"skipped"},"step":{"line":19,"prefix":"*","index":4,"text":"print response"}},{"result":{"nanos":0,"millis":0.0,"status":"skipped"},"step":{"line":20,"prefix":"*","index":5,"text":"def jsonResponse = response"}},{"result":{"nanos":0,"millis":0.0,"status":"skipped"},"step":{"line":21,"prefix":"*","index":6,"text":"print jsonResponse.message"}}],"line":14,"description":"","durationMillis":139.9712,"failed":true,"error":"status code was: 200, expected: 404, response time in milliseconds: 130, url: https:\/\/gorest.co.in\/public\/v2\/users\/100, response: \n{\"id\":100,\"name\":\"Atreyee Kocchar\",\"email\":\"kocchar_atreyee@goldner.com\",\"gender\":\"female\",\"status\":\"inactive\"}\nsrc\/test\/java\/feature\/GET_API_Demo.feature:18","executorName":"main","name":"Get the user details - path param - negative","startTime":1648969989979,"refId":"[2:14]","endTime":1648969990125,"exampleIndex":-1},{"sectionIndex":2,"stepResults":[{"result":{"nanos":29345100,"millis":29.3451,"status":"passed"},"step":{"line":24,"prefix":"*","index":0,"text":"def query = {id:2}"}},{"result":{"nanos":779200,"millis":0.7792,"status":"passed"},"step":{"line":25,"prefix":"Given","index":1,"text":"url baseURL+'public\/v2\/users'"}},{"result":{"nanos":15681600,"millis":15.6816,"status":"passed"},"step":{"line":26,"prefix":"And","index":2,"text":"params query"}},{"result":{"nanos":164130400,"millis":164.1304,"status":"passed"},"step":{"line":27,"prefix":"When","index":3,"text":"method GET"},"stepLog":"12:43:10.205 request:\n1 > GET https:\/\/gorest.co.in\/public\/v2\/users?id=2\n1 > Host: gorest.co.in\n1 > Connection: Keep-Alive\n1 > User-Agent: Apache-HttpClient\/4.5.13 (Java\/1.8.0_201)\n1 > Accept-Encoding: gzip,deflate\n\n\n12:43:10.360 response time in milliseconds: 155\n1 < 200\n1 < Server: nginx\n1 < Date: Sun, 03 Apr 2022 07:13:11 GMT\n1 < Content-Type: application\/json; charset=utf-8\n1 < Transfer-Encoding: chunked\n1 < Connection: keep-alive\n1 < Vary: Accept-Encoding\n1 < Vary: Origin\n1 < X-Frame-Options: SAMEORIGIN\n1 < X-XSS-Protection: 0\n1 < X-Content-Type-Options: nosniff\n1 < X-Download-Options: noopen\n1 < X-Permitted-Cross-Domain-Policies: none\n1 < Referrer-Policy: strict-origin-when-cross-origin\n1 < X-Pagination-Total: 0\n1 < X-Pagination-Pages: 0\n1 < X-Pagination-Page: 1\n1 < X-Pagination-Limit: 20\n1 < ETag: W\/\"4f53cda18c2baa0c0354bb5f9a3ecbe5\"\n1 < Cache-Control: max-age=0, private, must-revalidate\n1 < X-Request-Id: c2b35a81-b51c-4b8c-ab5f-b9167e3b1700\n1 < X-Runtime: 0.005275\n1 < Strict-Transport-Security: max-age=63072000; includeSubDomains\n[]\n"},{"result":{"nanos":17700,"millis":0.0177,"status":"passed"},"step":{"line":28,"prefix":"Then","index":4,"text":"status 200"}},{"result":{"nanos":35158200,"millis":35.1582,"status":"passed"},"step":{"line":29,"prefix":"*","index":5,"text":"print response"},"stepLog":"12:43:10.395 [print] [\n]\n \n"}],"executorName":"main","line":23,"name":"Get the user details - query param - positive","description":"","durationMillis":245.1122,"startTime":1648969990150,"failed":false,"refId":"[3:23]","endTime":1648969990399,"exampleIndex":-1},{"sectionIndex":3,"stepResults":[{"result":{"nanos":16576500,"millis":16.5765,"status":"passed"},"step":{"line":32,"prefix":"*","index":0,"text":"def query = {status:'active'}"}},{"result":{"nanos":996300,"millis":0.9963,"status":"passed"},"step":{"line":33,"prefix":"Given","index":1,"text":"url baseURL+'public\/v1\/users'"}},{"result":{"nanos":653700,"millis":0.6537,"status":"passed"},"step":{"line":34,"prefix":"And","index":2,"text":"params query"}},{"result":{"nanos":237795400,"millis":237.7954,"status":"passed"},"step":{"line":35,"prefix":"When","index":3,"text":"method GET"},"stepLog":"12:43:10.445 request:\n1 > GET https:\/\/gorest.co.in\/public\/v1\/users?status=active\n1 > Host: gorest.co.in\n1 > Connection: Keep-Alive\n1 > User-Agent: Apache-HttpClient\/4.5.13 (Java\/1.8.0_201)\n1 > Accept-Encoding: gzip,deflate\n\n\n12:43:10.661 response time in milliseconds: 210\n1 < 200\n1 < Server: nginx\n1 < Date: Sun, 03 Apr 2022 07:13:11 GMT\n1 < Content-Type: application\/json; charset=utf-8\n1 < Transfer-Encoding: chunked\n1 < Connection: keep-alive\n1 < Vary: Accept-Encoding\n1 < Vary: Origin\n1 < X-Frame-Options: SAMEORIGIN\n1 < X-XSS-Protection: 0\n1 < X-Content-Type-Options: nosniff\n1 < X-Download-Options: noopen\n1 < X-Permitted-Cross-Domain-Policies: none\n1 < Referrer-Policy: strict-origin-when-cross-origin\n1 < ETag: W\/\"3910855ff025b1acb3cd3ae35315e307\"\n1 < Cache-Control: max-age=0, private, must-revalidate\n1 < X-Request-Id: 691b7911-abd2-49fe-a2ae-0fb386d8983f\n1 < X-Runtime: 0.011799\n1 < Strict-Transport-Security: max-age=63072000; includeSubDomains\n{\"meta\":{\"pagination\":{\"total\":1789,\"pages\":90,\"page\":1,\"limit\":20,\"links\":{\"previous\":null,\"current\":\"https:\/\/gorest.co.in\/public\/v1\/users?page=1\",\"next\":\"https:\/\/gorest.co.in\/public\/v1\/users?page=2\"}}},\"data\":[{\"id\":3655,\"name\":\"Msgr. Chitrali Bhattacharya\",\"email\":\"msgr_bhattacharya_chitrali@larson.biz\",\"gender\":\"female\",\"status\":\"active\"},{\"id\":3654,\"name\":\"Tara Sinha\",\"email\":\"sinha_tara@huel-okuneva.io\",\"gender\":\"female\",\"status\":\"active\"},{\"id\":3652,\"name\":\"Deeptendu Johar\",\"email\":\"deeptendu_johar@murphy.org\",\"gender\":\"male\",\"status\":\"active\"},{\"id\":3651,\"name\":\"Chaitan Mukhopadhyay\",\"email\":\"chaitan_mukhopadhyay@graham.net\",\"gender\":\"female\",\"status\":\"active\"},{\"id\":3650,\"name\":\"Lakshminath Kocchar DDS\",\"email\":\"dds_kocchar_lakshminath@adams-stehr.co\",\"gender\":\"male\",\"status\":\"active\"},{\"id\":3649,\"name\":\"Bhima Nayar\",\"email\":\"bhima_nayar@ebert-nienow.co\",\"gender\":\"male\",\"status\":\"active\"},{\"id\":3648,\"name\":\"Aishani Talwar\",\"email\":\"talwar_aishani@kunde.biz\",\"gender\":\"male\",\"status\":\"active\"},{\"id\":3646,\"name\":\"Chandan Chaturvedi\",\"email\":\"chaturvedi_chandan@bauch.org\",\"gender\":\"male\",\"status\":\"active\"},{\"id\":3644,\"name\":\"Mr. Jaya Jha\",\"email\":\"jaya_jha_mr@wolf.biz\",\"gender\":\"male\",\"status\":\"active\"},{\"id\":3641,\"name\":\"Dakshayani Dwivedi VM\",\"email\":\"dakshayani_vm_dwivedi@hegmann-barrows.name\",\"gender\":\"female\",\"status\":\"active\"},{\"id\":3638,\"name\":\"Dwaipayan Pothuvaal\",\"email\":\"pothuvaal_dwaipayan@rowe.com\",\"gender\":\"male\",\"status\":\"active\"},{\"id\":3636,\"name\":\"Ms. Rahul Tagore\",\"email\":\"rahul_tagore_ms@borer.io\",\"gender\":\"female\",\"status\":\"active\"},{\"id\":3632,\"name\":\"Chaten Mukhopadhyay Sr.\",\"email\":\"chaten_sr_mukhopadhyay@hartmann.io\",\"gender\":\"female\",\"status\":\"active\"},{\"id\":3631,\"name\":\"Dhanpati Asan III\",\"email\":\"asan_dhanpati_iii@breitenberg-stehr.com\",\"gender\":\"male\",\"status\":\"active\"},{\"id\":3629,\"name\":\"Mr. Javas Varma\",\"email\":\"javas_mr_varma@olson.org\",\"gender\":\"female\",\"status\":\"active\"},{\"id\":3625,\"name\":\"Bhardwaj Nair DC\",\"email\":\"bhardwaj_nair_dc@koelpin-deckow.net\",\"gender\":\"female\",\"status\":\"active\"},{\"id\":3624,\"name\":\"Dayaananda Mishra\",\"email\":\"mishra_dayaananda@kerluke.info\",\"gender\":\"male\",\"status\":\"active\"},{\"id\":3621,\"name\":\"Dhruv Pothuvaal JD\",\"email\":\"dhruv_jd_pothuvaal@baumbach.net\",\"gender\":\"female\",\"status\":\"active\"},{\"id\":3619,\"name\":\"Anala Somayaji\",\"email\":\"somayaji_anala@kuhn.io\",\"gender\":\"male\",\"status\":\"active\"},{\"id\":3617,\"name\":\"Anaadi Dwivedi LLD\",\"email\":\"anaadi_dwivedi_lld@fahey-spinka.org\",\"gender\":\"female\",\"status\":\"active\"}]}\n"},{"result":{"nanos":17300,"millis":0.0173,"status":"passed"},"step":{"line":36,"prefix":"Then","index":4,"text":"status 200"}},{"result":{"nanos":3605400,"millis":3.6054,"status":"passed"},"step":{"line":37,"prefix":"*","index":5,"text":"print response"},"stepLog":"12:43:10.674 [print] {\n  \"meta\": {\n    \"pagination\": {\n      \"total\": 1789,\n      \"pages\": 90,\n      \"page\": 1,\n      \"limit\": 20,\n      \"links\": {\n        \"previous\": null,\n        \"current\": \"https:\/\/gorest.co.in\/public\/v1\/users?page=1\",\n        \"next\": \"https:\/\/gorest.co.in\/public\/v1\/users?page=2\"\n      }\n    }\n  },\n  \"data\": [\n    {\n      \"id\": 3655,\n      \"name\": \"Msgr. Chitrali Bhattacharya\",\n      \"email\": \"msgr_bhattacharya_chitrali@larson.biz\",\n      \"gender\": \"female\",\n      \"status\": \"active\"\n    },\n    {\n      \"id\": 3654,\n      \"name\": \"Tara Sinha\",\n      \"email\": \"sinha_tara@huel-okuneva.io\",\n      \"gender\": \"female\",\n      \"status\": \"active\"\n    },\n    {\n      \"id\": 3652,\n      \"name\": \"Deeptendu Johar\",\n      \"email\": \"deeptendu_johar@murphy.org\",\n      \"gender\": \"male\",\n      \"status\": \"active\"\n    },\n    {\n      \"id\": 3651,\n      \"name\": \"Chaitan Mukhopadhyay\",\n      \"email\": \"chaitan_mukhopadhyay@graham.net\",\n      \"gender\": \"female\",\n      \"status\": \"active\"\n    },\n    {\n      \"id\": 3650,\n      \"name\": \"Lakshminath Kocchar DDS\",\n      \"email\": \"dds_kocchar_lakshminath@adams-stehr.co\",\n      \"gender\": \"male\",\n      \"status\": \"active\"\n    },\n    {\n      \"id\": 3649,\n      \"name\": \"Bhima Nayar\",\n      \"email\": \"bhima_nayar@ebert-nienow.co\",\n      \"gender\": \"male\",\n      \"status\": \"active\"\n    },\n    {\n      \"id\": 3648,\n      \"name\": \"Aishani Talwar\",\n      \"email\": \"talwar_aishani@kunde.biz\",\n      \"gender\": \"male\",\n      \"status\": \"active\"\n    },\n    {\n      \"id\": 3646,\n      \"name\": \"Chandan Chaturvedi\",\n      \"email\": \"chaturvedi_chandan@bauch.org\",\n      \"gender\": \"male\",\n      \"status\": \"active\"\n    },\n    {\n      \"id\": 3644,\n      \"name\": \"Mr. Jaya Jha\",\n      \"email\": \"jaya_jha_mr@wolf.biz\",\n      \"gender\": \"male\",\n      \"status\": \"active\"\n    },\n    {\n      \"id\": 3641,\n      \"name\": \"Dakshayani Dwivedi VM\",\n      \"email\": \"dakshayani_vm_dwivedi@hegmann-barrows.name\",\n      \"gender\": \"female\",\n      \"status\": \"active\"\n    },\n    {\n      \"id\": 3638,\n      \"name\": \"Dwaipayan Pothuvaal\",\n      \"email\": \"pothuvaal_dwaipayan@rowe.com\",\n      \"gender\": \"male\",\n      \"status\": \"active\"\n    },\n    {\n      \"id\": 3636,\n      \"name\": \"Ms. Rahul Tagore\",\n      \"email\": \"rahul_tagore_ms@borer.io\",\n      \"gender\": \"female\",\n      \"status\": \"active\"\n    },\n    {\n      \"id\": 3632,\n      \"name\": \"Chaten Mukhopadhyay Sr.\",\n      \"email\": \"chaten_sr_mukhopadhyay@hartmann.io\",\n      \"gender\": \"female\",\n      \"status\": \"active\"\n    },\n    {\n      \"id\": 3631,\n      \"name\": \"Dhanpati Asan III\",\n      \"email\": \"asan_dhanpati_iii@breitenberg-stehr.com\",\n      \"gender\": \"male\",\n      \"status\": \"active\"\n    },\n    {\n      \"id\": 3629,\n      \"name\": \"Mr. Javas Varma\",\n      \"email\": \"javas_mr_varma@olson.org\",\n      \"gender\": \"female\",\n      \"status\": \"active\"\n    },\n    {\n      \"id\": 3625,\n      \"name\": \"Bhardwaj Nair DC\",\n      \"email\": \"bhardwaj_nair_dc@koelpin-deckow.net\",\n      \"gender\": \"female\",\n      \"status\": \"active\"\n    },\n    {\n      \"id\": 3624,\n      \"name\": \"Dayaananda Mishra\",\n      \"email\": \"mishra_dayaananda@kerluke.info\",\n      \"gender\": \"male\",\n      \"status\": \"active\"\n    },\n    {\n      \"id\": 3621,\n      \"name\": \"Dhruv Pothuvaal JD\",\n      \"email\": \"dhruv_jd_pothuvaal@baumbach.net\",\n      \"gender\": \"female\",\n      \"status\": \"active\"\n    },\n    {\n      \"id\": 3619,\n      \"name\": \"Anala Somayaji\",\n      \"email\": \"somayaji_anala@kuhn.io\",\n      \"gender\": \"male\",\n      \"status\": \"active\"\n    },\n    {\n      \"id\": 3617,\n      \"name\": \"Anaadi Dwivedi LLD\",\n      \"email\": \"anaadi_dwivedi_lld@fahey-spinka.org\",\n      \"gender\": \"female\",\n      \"status\": \"active\"\n    }\n  ]\n}\n \n"},{"result":{"nanos":1974100,"millis":1.9741,"status":"passed"},"step":{"line":38,"prefix":"*","index":6,"text":"def usersCount = response.data.length"}},{"result":{"nanos":30798000,"millis":30.798,"status":"passed"},"step":{"line":39,"prefix":"*","index":7,"text":"match usersCount == 20"}}],"executorName":"main","line":31,"name":"Get the list of active users - query param - positive","description":"","durationMillis":292.4167,"startTime":1648969990413,"failed":false,"refId":"[4:31]","endTime":1648969990707,"exampleIndex":-1},{"sectionIndex":4,"stepResults":[{"result":{"nanos":2061700,"millis":2.0617,"status":"passed"},"step":{"line":42,"prefix":"*","index":0,"text":"def query = {id:100}"}},{"result":{"nanos":1551500,"millis":1.5515,"status":"passed"},"step":{"line":43,"prefix":"Given","index":1,"text":"url baseURL+'public\/v2\/users'"}},{"result":{"nanos":389100,"millis":0.3891,"status":"passed"},"step":{"line":44,"prefix":"And","index":2,"text":"params query"}},{"result":{"nanos":151967500,"millis":151.9675,"status":"passed"},"step":{"line":45,"prefix":"When","index":3,"text":"method GET"},"stepLog":"12:43:10.768 request:\n1 > GET https:\/\/gorest.co.in\/public\/v2\/users?id=100\n1 > Host: gorest.co.in\n1 > Connection: Keep-Alive\n1 > User-Agent: Apache-HttpClient\/4.5.13 (Java\/1.8.0_201)\n1 > Accept-Encoding: gzip,deflate\n\n\n12:43:10.916 response time in milliseconds: 148\n1 < 200\n1 < Server: nginx\n1 < Date: Sun, 03 Apr 2022 07:13:11 GMT\n1 < Content-Type: application\/json; charset=utf-8\n1 < Transfer-Encoding: chunked\n1 < Connection: keep-alive\n1 < Vary: Accept-Encoding\n1 < Vary: Origin\n1 < X-Frame-Options: SAMEORIGIN\n1 < X-XSS-Protection: 0\n1 < X-Content-Type-Options: nosniff\n1 < X-Download-Options: noopen\n1 < X-Permitted-Cross-Domain-Policies: none\n1 < Referrer-Policy: strict-origin-when-cross-origin\n1 < X-Pagination-Total: 1\n1 < X-Pagination-Pages: 1\n1 < X-Pagination-Page: 1\n1 < X-Pagination-Limit: 20\n1 < X-Links-Previous: \n1 < X-Links-Current: https:\/\/gorest.co.in\/public\/v2\/users?page=1\n1 < X-Links-Next: \n1 < ETag: W\/\"3c0af39ef0e8218d62e8dd669d0aebc4\"\n1 < Cache-Control: max-age=0, private, must-revalidate\n1 < X-Request-Id: 7ebb759f-3478-4ea4-a2c5-d68f873ff38b\n1 < X-Runtime: 0.010299\n1 < Strict-Transport-Security: max-age=63072000; includeSubDomains\n[{\"id\":100,\"name\":\"Atreyee Kocchar\",\"email\":\"kocchar_atreyee@goldner.com\",\"gender\":\"female\",\"status\":\"inactive\"}]\n"},{"result":{"nanos":12200,"millis":0.0122,"status":"passed"},"step":{"line":46,"prefix":"Then","index":4,"text":"status 200"}},{"result":{"nanos":724700,"millis":0.7247,"status":"passed"},"step":{"line":47,"prefix":"*","index":5,"text":"print response"},"stepLog":"12:43:10.917 [print] [\n  {\n    \"id\": 100,\n    \"name\": \"Atreyee Kocchar\",\n    \"email\": \"kocchar_atreyee@goldner.com\",\n    \"gender\": \"female\",\n    \"status\": \"inactive\"\n  }\n]\n \n"},{"result":{"nanos":1313700,"millis":1.3137,"status":"passed"},"step":{"line":48,"prefix":"*","index":6,"text":"def userdetail = response"}},{"result":{"nanos":1335400,"errorMessage":"match failed: EQUALS\n  $ | not equal | actual array length is not equal to expected - 1:0 (LIST:LIST)\n  [{\"id\":100,\"name\":\"Atreyee Kocchar\",\"email\":\"kocchar_atreyee@goldner.com\",\"gender\":\"female\",\"status\":\"inactive\"}]\n  []\n\n\nsrc\/test\/java\/feature\/GET_API_Demo.feature:49","millis":1.3354,"status":"failed"},"step":{"line":49,"prefix":"*","index":7,"text":"match userdetail == []"},"stepLog":"12:43:10.920 src\/test\/java\/feature\/GET_API_Demo.feature:49\n* match userdetail == []\nmatch failed: EQUALS\n  $ | not equal | actual array length is not equal to expected - 1:0 (LIST:LIST)\n  [{\"id\":100,\"name\":\"Atreyee Kocchar\",\"email\":\"kocchar_atreyee@goldner.com\",\"gender\":\"female\",\"status\":\"inactive\"}]\n  []\n\n\nsrc\/test\/java\/feature\/GET_API_Demo.feature:49\n"}],"line":41,"description":"","durationMillis":159.3558,"failed":true,"error":"match failed: EQUALS\n  $ | not equal | actual array length is not equal to expected - 1:0 (LIST:LIST)\n  [{\"id\":100,\"name\":\"Atreyee Kocchar\",\"email\":\"kocchar_atreyee@goldner.com\",\"gender\":\"female\",\"status\":\"inactive\"}]\n  []\n\n\nsrc\/test\/java\/feature\/GET_API_Demo.feature:49","executorName":"main","name":"Get the user details - query param - negative","startTime":1648969990757,"refId":"[5:41]","endTime":1648969990920,"exampleIndex":-1},{"sectionIndex":5,"stepResults":[{"result":{"nanos":1097400,"millis":1.0974,"status":"passed"},"step":{"line":52,"prefix":"Given","index":0,"text":"header Content-Tpye = 'application\/json; charset=utf-8'"}},{"result":{"nanos":578100,"millis":0.5781,"status":"passed"},"step":{"line":53,"prefix":"When","index":1,"text":"url baseURL+'public\/v2\/users'"}},{"result":{"nanos":219200,"millis":0.2192,"status":"passed"},"step":{"line":54,"prefix":"And","index":2,"text":"path '2'"}},{"result":{"nanos":137866500,"millis":137.8665,"status":"passed"},"step":{"line":55,"prefix":"And","index":3,"text":"method GET"},"stepLog":"12:43:10.934 request:\n1 > GET https:\/\/gorest.co.in\/public\/v2\/users\/2\n1 > Content-Tpye: application\/json; charset=utf-8\n1 > Host: gorest.co.in\n1 > Connection: Keep-Alive\n1 > User-Agent: Apache-HttpClient\/4.5.13 (Java\/1.8.0_201)\n1 > Accept-Encoding: gzip,deflate\n\n\n12:43:11.067 response time in milliseconds: 131\n1 < 404\n1 < Server: nginx\n1 < Date: Sun, 03 Apr 2022 07:13:12 GMT\n1 < Content-Type: application\/json; charset=utf-8\n1 < Transfer-Encoding: chunked\n1 < Connection: keep-alive\n1 < Vary: Accept-Encoding\n1 < Vary: Origin\n1 < X-Frame-Options: SAMEORIGIN\n1 < X-XSS-Protection: 0\n1 < X-Content-Type-Options: nosniff\n1 < X-Download-Options: noopen\n1 < X-Permitted-Cross-Domain-Policies: none\n1 < Referrer-Policy: strict-origin-when-cross-origin\n1 < Cache-Control: no-cache\n1 < X-Request-Id: 25102746-6244-46d0-acd9-7d723e37d084\n1 < X-Runtime: 0.004037\n1 < Strict-Transport-Security: max-age=63072000; includeSubDomains\n{\"message\":\"Resource not found\"}\n"},{"result":{"nanos":80300,"errorMessage":"status code was: 404, expected: 200, response time in milliseconds: 131, url: https:\/\/gorest.co.in\/public\/v2\/users\/2, response: \n{\"message\":\"Resource not found\"}\nsrc\/test\/java\/feature\/GET_API_Demo.feature:56","millis":0.0803,"status":"failed"},"step":{"line":56,"prefix":"Then","index":4,"text":"status 200"},"stepLog":"12:43:11.069 src\/test\/java\/feature\/GET_API_Demo.feature:56\nThen status 200\nstatus code was: 404, expected: 200, response time in milliseconds: 131, url: https:\/\/gorest.co.in\/public\/v2\/users\/2, response: \n{\"message\":\"Resource not found\"}\nsrc\/test\/java\/feature\/GET_API_Demo.feature:56\n"},{"result":{"nanos":0,"millis":0.0,"status":"skipped"},"step":{"line":57,"prefix":"*","index":5,"text":"print response"}}],"line":51,"description":"","durationMillis":139.8415,"failed":true,"error":"status code was: 404, expected: 200, response time in milliseconds: 131, url: https:\/\/gorest.co.in\/public\/v2\/users\/2, response: \n{\"message\":\"Resource not found\"}\nsrc\/test\/java\/feature\/GET_API_Demo.feature:56","executorName":"main","name":"Get the user details - with headers - type 1","startTime":1648969990927,"refId":"[6:51]","endTime":1648969991069,"exampleIndex":-1}],"callDepth":0,"name":"GET API Automation","description":"","resultDate":"2022-04-03 12:43:11 PM","durationMillis":2662.3933,"passedCount":2}